Date,Opponent,Tm,Opp,W,L,Starting Lineup,PF,SF,C,PG,SG
"Wed, Dec 23, 2020",San Antonio Spurs,119.0,131.0,0.0,1.0,G. Allen                    ·                     K. Anderson                    ·                     D. Brooks                    ·                     J. Morant                    ·                     J. Valančiūnas,,K. Anderson,J. Valanciunas,J. Morant,D. Brooks
"Sat, Dec 26, 2020",Atlanta Hawks,112.0,122.0,0.0,2.0,G. Allen                    ·                     K. Anderson                    ·                     D. Brooks                    ·                     J. Morant                    ·                     J. Valančiūnas,,K. Anderson,J. Valanciunas,J. Morant,D. Brooks
"Mon, Dec 28, 2020",Brooklyn Nets,116.0,111.0,1.0,2.0,G. Allen                    ·                     K. Anderson                    ·                     D. Brooks                    ·                     J. Morant                    ·                     J. Valančiūnas,,K. Anderson,J. Valanciunas,J. Morant,D. Brooks
"Wed, Dec 30, 2020",Boston Celtics,107.0,126.0,1.0,3.0,G. Allen                    ·                     K. Anderson                    ·                     D. Brooks                    ·                     T. Jones                    ·                     J. Valančiūnas,,K. Anderson,J. Valanciunas,T. Jones,D. Brooks
"Fri, Jan 1, 2021",Charlotte Hornets,108.0,93.0,2.0,3.0,K. Anderson                    ·                     D. Brooks                    ·                     B. Clarke                    ·                     T. Jones                    ·                     J. Valančiūnas,B. Clarke,K. Anderson,J. Valanciunas,T. Jones,D. Brooks
"Sun, Jan 3, 2021",Los Angeles Lakers,94.0,108.0,2.0,4.0,K. Anderson                    ·                     D. Brooks                    ·                     B. Clarke                    ·                     T. Jones                    ·                     J. Valančiūnas,B. Clarke,K. Anderson,J. Valanciunas,T. Jones,D. Brooks
"Tue, Jan 5, 2021",Los Angeles Lakers,92.0,94.0,2.0,5.0,K. Anderson                    ·                     D. Brooks                    ·                     B. Clarke                    ·                     T. Jones                    ·                     J. Valančiūnas,B. Clarke,K. Anderson,J. Valanciunas,T. Jones,D. Brooks
"Thu, Jan 7, 2021",Cleveland Cavaliers,90.0,94.0,2.0,6.0,K. Anderson                    ·                     D. Brooks                    ·                     B. Clarke                    ·                     T. Jones                    ·                     J. Valančiūnas,B. Clarke,K. Anderson,J. Valanciunas,T. Jones,D. Brooks
"Fri, Jan 8, 2021",Brooklyn Nets,115.0,110.0,3.0,6.0,K. Anderson                    ·                     D. Brooks                    ·                     B. Clarke                    ·                     T. Jones                    ·                     J. Valančiūnas,B. Clarke,K. Anderson,J. Valanciunas,T. Jones,D. Brooks
"Mon, Jan 11, 2021",Cleveland Cavaliers,101.0,91.0,4.0,6.0,K. Anderson                    ·                     D. Brooks                    ·                     B. Clarke                    ·                     T. Jones                    ·                     J. Valančiūnas,B. Clarke,K. Anderson,J. Valanciunas,T. Jones,D. Brooks
"Wed, Jan 13, 2021",Minnesota Timberwolves,118.0,107.0,5.0,6.0,K. Anderson                    ·                     D. Brooks                    ·                     B. Clarke                    ·                     T. Jones                    ·                     J. Valančiūnas,B. Clarke,K. Anderson,J. Valanciunas,T. Jones,D. Brooks
"Sat, Jan 16, 2021",Philadelphia 76ers,106.0,104.0,6.0,6.0,K. Anderson                    ·                     D. Brooks                    ·                     B. Clarke                    ·                     J. Morant                    ·                     J. Valančiūnas,B. Clarke,K. Anderson,J. Valanciunas,J. Morant,D. Brooks
"Mon, Jan 18, 2021",Phoenix Suns,108.0,104.0,7.0,6.0,K. Anderson                    ·                     D. Brooks                    ·                     B. Clarke                    ·                     J. Morant                    ·                     X. Tillman,B. Clarke,K. Anderson,,J. Morant,D. Brooks
"Sat, Jan 30, 2021",San Antonio Spurs,129.0,112.0,8.0,6.0,K. Anderson                    ·                     D. Brooks                    ·                     B. Clarke                    ·                     J. Morant                    ·                     X. Tillman,B. Clarke,K. Anderson,,J. Morant,D. Brooks
"Mon, Feb 1, 2021",San Antonio Spurs,133.0,102.0,9.0,6.0,K. Anderson                    ·                     D. Brooks                    ·                     B. Clarke                    ·                     J. Morant                    ·                     X. Tillman,B. Clarke,K. Anderson,,J. Morant,D. Brooks
"Tue, Feb 2, 2021",Indiana Pacers,116.0,134.0,9.0,7.0,K. Anderson                    ·                     D. Brooks                    ·                     B. Clarke                    ·                     J. Morant                    ·                     X. Tillman,B. Clarke,K. Anderson,,J. Morant,D. Brooks
"Thu, Feb 4, 2021",Houston Rockets,103.0,115.0,9.0,8.0,K. Anderson                    ·                     D. Brooks                    ·                     B. Clarke                    ·                     J. Morant                    ·                     X. Tillman,B. Clarke,K. Anderson,,J. Morant,D. Brooks
"Sat, Feb 6, 2021",New Orleans Pelicans,109.0,118.0,9.0,9.0,K. Anderson                    ·                     D. Brooks                    ·                     G. Dieng                    ·                     J. Morant                    ·                     X. Tillman,,K. Anderson,G. Dieng,J. Morant,D. Brooks
"Mon, Feb 8, 2021",Toronto Raptors,113.0,128.0,9.0,10.0,K. Anderson                    ·                     D. Bane                    ·                     D. Brooks                    ·                     J. Morant                    ·                     J. Valančiūnas,,K. Anderson,J. Valanciunas,J. Morant,D. Brooks
"Wed, Feb 10, 2021",Charlotte Hornets,130.0,114.0,10.0,10.0,K. Anderson                    ·                     D. Bane                    ·                     D. Brooks                    ·                     J. Morant                    ·                     J. Valančiūnas,,K. Anderson,J. Valanciunas,J. Morant,D. Brooks
"Fri, Feb 12, 2021",Los Angeles Lakers,105.0,115.0,10.0,11.0,G. Allen                    ·                     K. Anderson                    ·                     D. Brooks                    ·                     J. Morant                    ·                     J. Valančiūnas,,K. Anderson,J. Valanciunas,J. Morant,D. Brooks
"Sun, Feb 14, 2021",Sacramento Kings,124.0,110.0,11.0,11.0,G. Allen                    ·                     K. Anderson                    ·                     D. Brooks                    ·                     J. Morant                    ·                     J. Valančiūnas,,K. Anderson,J. Valanciunas,J. Morant,D. Brooks
"Tue, Feb 16, 2021",New Orleans Pelicans,113.0,144.0,11.0,12.0,G. Allen                    ·                     K. Anderson                    ·                     D. Brooks                    ·                     J. Morant                    ·                     J. Valančiūnas,,K. Anderson,J. Valanciunas,J. Morant,D. Brooks
"Wed, Feb 17, 2021",Oklahoma City Thunder,122.0,113.0,12.0,12.0,G. Allen                    ·                     K. Anderson                    ·                     D. Brooks                    ·                     J. Morant                    ·                     J. Valančiūnas,,K. Anderson,J. Valanciunas,J. Morant,D. Brooks
"Fri, Feb 19, 2021",Detroit Pistons,109.0,95.0,13.0,12.0,G. Allen                    ·                     K. Anderson                    ·                     B. Clarke                    ·                     J. Morant                    ·                     J. Valančiūnas,B. Clarke,K. Anderson,J. Valanciunas,J. Morant,G. Allen
"Sat, Feb 20, 2021",Phoenix Suns,97.0,128.0,13.0,13.0,D. Bane                    ·                     D. Melton                    ·                     J. Morant                    ·                     X. Tillman                    ·                     J. Valančiūnas,,,J. Valanciunas,J. Morant,
"Mon, Feb 22, 2021",Dallas Mavericks,92.0,102.0,13.0,14.0,G. Allen                    ·                     K. Anderson                    ·                     B. Clarke                    ·                     J. Morant                    ·                     J. Valančiūnas,B. Clarke,K. Anderson,J. Valanciunas,J. Morant,G. Allen
"Thu, Feb 25, 2021",Los Angeles Clippers,122.0,94.0,14.0,14.0,G. Allen                    ·                     K. Anderson                    ·                     D. Brooks                    ·                     J. Morant                    ·                     J. Valančiūnas,,K. Anderson,J. Valanciunas,J. Morant,D. Brooks
"Fri, Feb 26, 2021",Los Angeles Clippers,99.0,119.0,14.0,15.0,G. Allen                    ·                     K. Anderson                    ·                     D. Brooks                    ·                     J. Morant                    ·                     J. Valančiūnas,,K. Anderson,J. Valanciunas,J. Morant,D. Brooks
"Sun, Feb 28, 2021",Houston Rockets,133.0,84.0,15.0,15.0,K. Anderson                    ·                     D. Bane                    ·                     D. Brooks                    ·                     J. Morant                    ·                     J. Valančiūnas,,K. Anderson,J. Valanciunas,J. Morant,D. Brooks
"Tue, Mar 2, 2021",Washington Wizards,125.0,111.0,16.0,15.0,D. Bane                    ·                     D. Brooks                    ·                     B. Clarke                    ·                     J. Morant                    ·                     J. Valančiūnas,B. Clarke,,J. Valanciunas,J. Morant,D. Brooks
"Thu, Mar 4, 2021",Milwaukee Bucks,111.0,112.0,16.0,16.0,K. Anderson                    ·                     D. Bane                    ·                     D. Brooks                    ·                     J. Morant                    ·                     J. Valančiūnas,,K. Anderson,J. Valanciunas,J. Morant,D. Brooks
"Wed, Mar 10, 2021",Washington Wizards,127.0,112.0,17.0,16.0,K. Anderson                    ·                     D. Bane                    ·                     D. Brooks                    ·                     J. Morant                    ·                     J. Valančiūnas,,K. Anderson,J. Valanciunas,J. Morant,D. Brooks
"Fri, Mar 12, 2021",Denver Nuggets,102.0,103.0,17.0,17.0,K. Anderson                    ·                     D. Bane                    ·                     D. Brooks                    ·                     J. Morant                    ·                     J. Valančiūnas,,K. Anderson,J. Valanciunas,J. Morant,D. Brooks
"Sun, Mar 14, 2021",Oklahoma City Thunder,122.0,128.0,17.0,18.0,K. Anderson                    ·                     D. Bane                    ·                     D. Brooks                    ·                     J. Morant                    ·                     J. Valančiūnas,,K. Anderson,J. Valanciunas,J. Morant,D. Brooks
"Mon, Mar 15, 2021",Phoenix Suns,99.0,122.0,17.0,19.0,K. Anderson                    ·                     D. Bane                    ·                     D. Brooks                    ·                     J. Morant                    ·                     J. Valančiūnas,,K. Anderson,J. Valanciunas,J. Morant,D. Brooks
"Wed, Mar 17, 2021",Miami Heat,89.0,85.0,18.0,19.0,G. Allen                    ·                     K. Anderson                    ·                     D. Brooks                    ·                     J. Morant                    ·                     J. Valančiūnas,,K. Anderson,J. Valanciunas,J. Morant,D. Brooks
"Fri, Mar 19, 2021",Golden State Warriors,103.0,116.0,18.0,20.0,G. Allen                    ·                     K. Anderson                    ·                     D. Brooks                    ·                     J. Morant                    ·                     J. Valančiūnas,,K. Anderson,J. Valanciunas,J. Morant,D. Brooks
"Sat, Mar 20, 2021",Golden State Warriors,111.0,103.0,19.0,20.0,G. Allen                    ·                     K. Anderson                    ·                     D. Brooks                    ·                     J. Morant                    ·                     J. Valančiūnas,,K. Anderson,J. Valanciunas,J. Morant,D. Brooks
"Mon, Mar 22, 2021",Boston Celtics,132.0,126.0,20.0,20.0,G. Allen                    ·                     K. Anderson                    ·                     D. Brooks                    ·                     J. Morant                    ·                     J. Valančiūnas,,K. Anderson,J. Valanciunas,J. Morant,D. Brooks
"Wed, Mar 24, 2021",Oklahoma City Thunder,116.0,107.0,21.0,20.0,G. Allen                    ·                     K. Anderson                    ·                     D. Brooks                    ·                     J. Morant                    ·                     J. Valančiūnas,,K. Anderson,J. Valanciunas,J. Morant,D. Brooks
"Fri, Mar 26, 2021",Utah Jazz,114.0,117.0,21.0,21.0,G. Allen                    ·                     K. Anderson                    ·                     D. Brooks                    ·                     J. Morant                    ·                     J. Valančiūnas,,K. Anderson,J. Valanciunas,J. Morant,D. Brooks
"Sat, Mar 27, 2021",Utah Jazz,110.0,126.0,21.0,22.0,G. Allen                    ·                     K. Anderson                    ·                     D. Brooks                    ·                     J. Morant                    ·                     J. Valančiūnas,,K. Anderson,J. Valanciunas,J. Morant,D. Brooks
"Mon, Mar 29, 2021",Houston Rockets,120.0,110.0,22.0,22.0,G. Allen                    ·                     K. Anderson                    ·                     D. Brooks                    ·                     J. Morant                    ·                     J. Valančiūnas,,K. Anderson,J. Valanciunas,J. Morant,D. Brooks
"Wed, Mar 31, 2021",Utah Jazz,107.0,111.0,22.0,23.0,K. Anderson                    ·                     D. Bane                    ·                     D. Brooks                    ·                     J. Morant                    ·                     J. Valančiūnas,,K. Anderson,J. Valanciunas,J. Morant,D. Brooks
"Fri, Apr 2, 2021",Minnesota Timberwolves,120.0,108.0,23.0,23.0,G. Allen                    ·                     K. Anderson                    ·                     D. Brooks                    ·                     J. Morant                    ·                     J. Valančiūnas,,K. Anderson,J. Valanciunas,J. Morant,D. Brooks
"Sun, Apr 4, 2021",Philadelphia 76ers,116.0,100.0,24.0,23.0,G. Allen                    ·                     K. Anderson                    ·                     D. Brooks                    ·                     J. Morant                    ·                     J. Valančiūnas,,K. Anderson,J. Valanciunas,J. Morant,D. Brooks
"Tue, Apr 6, 2021",Miami Heat,124.0,112.0,25.0,23.0,G. Allen                    ·                     K. Anderson                    ·                     D. Brooks                    ·                     J. Morant                    ·                     J. Valančiūnas,,K. Anderson,J. Valanciunas,J. Morant,D. Brooks
"Wed, Apr 7, 2021",Atlanta Hawks,131.0,113.0,26.0,23.0,G. Allen                    ·                     K. Anderson                    ·                     D. Brooks                    ·                     J. Morant                    ·                     J. Valančiūnas,,K. Anderson,J. Valanciunas,J. Morant,D. Brooks
"Fri, Apr 9, 2021",New York Knicks,129.0,133.0,26.0,24.0,G. Allen                    ·                     K. Anderson                    ·                     D. Brooks                    ·                     J. Morant                    ·                     J. Valančiūnas,,K. Anderson,J. Valanciunas,J. Morant,D. Brooks
"Sun, Apr 11, 2021",Indiana Pacers,125.0,132.0,26.0,25.0,G. Allen                    ·                     K. Anderson                    ·                     D. Brooks                    ·                     J. Morant                    ·                     J. Valančiūnas,,K. Anderson,J. Valanciunas,J. Morant,D. Brooks
"Mon, Apr 12, 2021",Chicago Bulls,101.0,90.0,27.0,25.0,G. Allen                    ·                     K. Anderson                    ·                     D. Brooks                    ·                     J. Morant                    ·                     J. Valančiūnas,,K. Anderson,J. Valanciunas,J. Morant,D. Brooks
"Wed, Apr 14, 2021",Dallas Mavericks,113.0,114.0,27.0,26.0,G. Allen                    ·                     K. Anderson                    ·                     D. Brooks                    ·                     J. Morant                    ·                     J. Valančiūnas,,K. Anderson,J. Valanciunas,J. Morant,D. Brooks
"Fri, Apr 16, 2021",Chicago Bulls,126.0,115.0,28.0,26.0,G. Allen                    ·                     K. Anderson                    ·                     D. Brooks                    ·                     J. Morant                    ·                     J. Valančiūnas,,K. Anderson,J. Valanciunas,J. Morant,D. Brooks
"Sat, Apr 17, 2021",Milwaukee Bucks,128.0,115.0,29.0,26.0,G. Allen                    ·                     K. Anderson                    ·                     D. Brooks                    ·                     J. Morant                    ·                     J. Valančiūnas,,K. Anderson,J. Valanciunas,J. Morant,D. Brooks
"Mon, Apr 19, 2021",Denver Nuggets,137.0,139.0,29.0,27.0,G. Allen                    ·                     K. Anderson                    ·                     D. Bane                    ·                     J. Morant                    ·                     X. Tillman,,K. Anderson,,J. Morant,G. Allen
