Date,Opponent,Tm,Opp,W,L,Starting Lineup,PF,SF,C,PG,SG
"Wed, Dec 23, 2020",Philadelphia 76ers,107.0,113.0,0.0,1.0,D. Avdija                    ·                     B. Beal                    ·                     I. Bonga                    ·                     T. Bryant                    ·                     R. Westbrook,,I. Bonga,T. Bryant,R. Westbrook,B. Beal
"Sat, Dec 26, 2020",Orlando Magic,120.0,130.0,0.0,2.0,D. Avdija                    ·                     B. Beal                    ·                     I. Bonga                    ·                     T. Bryant                    ·                     R. Westbrook,,I. Bonga,T. Bryant,R. Westbrook,B. Beal
"Sun, Dec 27, 2020",Orlando Magic,113.0,120.0,0.0,3.0,D. Avdija                    ·                     B. Beal                    ·                     I. Bonga                    ·                     T. Bryant                    ·                     R. Neto,,I. Bonga,T. Bryant,R. Neto,B. Beal
"Tue, Dec 29, 2020",Chicago Bulls,107.0,115.0,0.0,4.0,D. Avdija                    ·                     B. Beal                    ·                     I. Bonga                    ·                     T. Bryant                    ·                     R. Westbrook,,I. Bonga,T. Bryant,R. Westbrook,B. Beal
"Thu, Dec 31, 2020",Chicago Bulls,130.0,133.0,0.0,5.0,D. Avdija                    ·                     B. Beal                    ·                     T. Bryant                    ·                     R. Hachimura                    ·                     R. Westbrook,R. Hachimura,,T. Bryant,R. Westbrook,B. Beal
"Fri, Jan 1, 2021",Minnesota Timberwolves,130.0,109.0,1.0,5.0,D. Avdija                    ·                     B. Beal                    ·                     T. Bryant                    ·                     R. Hachimura                    ·                     R. Neto,R. Hachimura,,T. Bryant,R. Neto,B. Beal
"Sun, Jan 3, 2021",Brooklyn Nets,123.0,122.0,2.0,5.0,D. Avdija                    ·                     B. Beal                    ·                     T. Bryant                    ·                     R. Hachimura                    ·                     R. Westbrook,R. Hachimura,,T. Bryant,R. Westbrook,B. Beal
"Wed, Jan 6, 2021",Philadelphia 76ers,136.0,141.0,2.0,6.0,D. Avdija                    ·                     B. Beal                    ·                     T. Bryant                    ·                     R. Hachimura                    ·                     R. Westbrook,R. Hachimura,,T. Bryant,R. Westbrook,B. Beal
"Fri, Jan 8, 2021",Boston Celtics,107.0,116.0,2.0,7.0,D. Avdija                    ·                     B. Beal                    ·                     T. Bryant                    ·                     R. Hachimura                    ·                     R. Westbrook,R. Hachimura,,T. Bryant,R. Westbrook,B. Beal
"Sat, Jan 9, 2021",Miami Heat,124.0,128.0,2.0,8.0,D. Avdija                    ·                     T. Bryant                    ·                     R. Hachimura                    ·                     R. Neto                    ·                     J. Robinson,R. Hachimura,,T. Bryant,R. Neto,J. Robinson
"Mon, Jan 11, 2021",Phoenix Suns,128.0,107.0,3.0,8.0,D. Avdija                    ·                     B. Beal                    ·                     R. Hachimura                    ·                     R. Lopez                    ·                     R. Neto,R. Hachimura,,R. Lopez,R. Neto,B. Beal
"Sun, Jan 24, 2021",San Antonio Spurs,101.0,121.0,3.0,9.0,B. Beal                    ·                     I. Bonga                    ·                     R. Lopez                    ·                     J. Robinson                    ·                     R. Westbrook,,I. Bonga,R. Lopez,R. Westbrook,J. Robinson
"Tue, Jan 26, 2021",Houston Rockets,88.0,107.0,3.0,10.0,B. Beal                    ·                     I. Bonga                    ·                     A. Gill                    ·                     R. Lopez                    ·                     R. Westbrook,,I. Bonga,R. Lopez,R. Westbrook,B. Beal
"Wed, Jan 27, 2021",New Orleans Pelicans,106.0,124.0,3.0,11.0,B. Beal                    ·                     J. Bell                    ·                     I. Bonga                    ·                     R. Lopez                    ·                     R. Neto,,I. Bonga,R. Lopez,R. Neto,B. Beal
"Fri, Jan 29, 2021",Atlanta Hawks,100.0,116.0,3.0,12.0,B. Beal                    ·                     R. Hachimura                    ·                     R. Lopez                    ·                     J. Robinson                    ·                     R. Westbrook,R. Hachimura,,R. Lopez,R. Westbrook,J. Robinson
"Sun, Jan 31, 2021",Brooklyn Nets,149.0,146.0,4.0,12.0,D. Avdija                    ·                     B. Beal                    ·                     R. Hachimura                    ·                     R. Lopez                    ·                     R. Westbrook,R. Hachimura,,R. Lopez,R. Westbrook,B. Beal
"Tue, Feb 2, 2021",Portland Trail Blazers,121.0,132.0,4.0,13.0,D. Avdija                    ·                     B. Beal                    ·                     R. Hachimura                    ·                     R. Lopez                    ·                     R. Westbrook,R. Hachimura,,R. Lopez,R. Westbrook,B. Beal
"Wed, Feb 3, 2021",Miami Heat,103.0,100.0,5.0,13.0,D. Avdija                    ·                     B. Beal                    ·                     R. Hachimura                    ·                     R. Lopez                    ·                     I. Smith,R. Hachimura,,R. Lopez,I. Smith,B. Beal
"Fri, Feb 5, 2021",Miami Heat,95.0,122.0,5.0,14.0,D. Avdija                    ·                     B. Beal                    ·                     R. Hachimura                    ·                     R. Lopez                    ·                     R. Westbrook,R. Hachimura,,R. Lopez,R. Westbrook,B. Beal
"Sun, Feb 7, 2021",Charlotte Hornets,97.0,119.0,5.0,15.0,D. Avdija                    ·                     B. Beal                    ·                     R. Hachimura                    ·                     A. Len                    ·                     R. Westbrook,R. Hachimura,,A. Len,R. Westbrook,B. Beal
"Mon, Feb 8, 2021",Chicago Bulls,105.0,101.0,6.0,15.0,B. Beal                    ·                     D. Bertāns                    ·                     R. Hachimura                    ·                     A. Len                    ·                     R. Neto,R. Hachimura,,A. Len,R. Neto,B. Beal
"Wed, Feb 10, 2021",Toronto Raptors,115.0,137.0,6.0,16.0,B. Beal                    ·                     D. Bertāns                    ·                     R. Hachimura                    ·                     A. Len                    ·                     R. Westbrook,R. Hachimura,,A. Len,R. Westbrook,B. Beal
"Fri, Feb 12, 2021",New York Knicks,91.0,109.0,6.0,17.0,D. Bertāns                    ·                     R. Hachimura                    ·                     A. Len                    ·                     G. Mathews                    ·                     R. Westbrook,R. Hachimura,,A. Len,R. Westbrook,G. Mathews
"Sun, Feb 14, 2021",Boston Celtics,104.0,91.0,7.0,17.0,B. Beal                    ·                     R. Hachimura                    ·                     G. Mathews                    ·                     M. Wagner                    ·                     R. Westbrook,R. Hachimura,,M. Wagner,R. Westbrook,G. Mathews
"Mon, Feb 15, 2021",Houston Rockets,131.0,119.0,8.0,17.0,B. Beal                    ·                     R. Hachimura                    ·                     G. Mathews                    ·                     M. Wagner                    ·                     R. Westbrook,R. Hachimura,,M. Wagner,R. Westbrook,G. Mathews
"Wed, Feb 17, 2021",Denver Nuggets,130.0,128.0,9.0,17.0,B. Beal                    ·                     R. Hachimura                    ·                     G. Mathews                    ·                     M. Wagner                    ·                     R. Westbrook,R. Hachimura,,M. Wagner,R. Westbrook,G. Mathews
"Sat, Feb 20, 2021",Portland Trail Blazers,118.0,111.0,10.0,17.0,B. Beal                    ·                     R. Hachimura                    ·                     G. Mathews                    ·                     M. Wagner                    ·                     R. Westbrook,R. Hachimura,,M. Wagner,R. Westbrook,G. Mathews
"Mon, Feb 22, 2021",Los Angeles Lakers,127.0,124.0,11.0,17.0,B. Beal                    ·                     R. Hachimura                    ·                     G. Mathews                    ·                     M. Wagner                    ·                     R. Westbrook,R. Hachimura,,M. Wagner,R. Westbrook,G. Mathews
"Tue, Feb 23, 2021",Los Angeles Clippers,116.0,135.0,11.0,18.0,B. Beal                    ·                     R. Hachimura                    ·                     G. Mathews                    ·                     M. Wagner                    ·                     R. Westbrook,R. Hachimura,,M. Wagner,R. Westbrook,G. Mathews
"Thu, Feb 25, 2021",Denver Nuggets,112.0,110.0,12.0,18.0,B. Beal                    ·                     R. Hachimura                    ·                     G. Mathews                    ·                     M. Wagner                    ·                     R. Westbrook,R. Hachimura,,M. Wagner,R. Westbrook,G. Mathews
"Sat, Feb 27, 2021",Minnesota Timberwolves,128.0,112.0,13.0,18.0,B. Beal                    ·                     R. Hachimura                    ·                     G. Mathews                    ·                     M. Wagner                    ·                     R. Westbrook,R. Hachimura,,M. Wagner,R. Westbrook,G. Mathews
"Sun, Feb 28, 2021",Boston Celtics,110.0,111.0,13.0,19.0,B. Beal                    ·                     R. Hachimura                    ·                     G. Mathews                    ·                     M. Wagner                    ·                     R. Westbrook,R. Hachimura,,M. Wagner,R. Westbrook,G. Mathews
"Tue, Mar 2, 2021",Memphis Grizzlies,111.0,125.0,13.0,20.0,B. Beal                    ·                     R. Hachimura                    ·                     G. Mathews                    ·                     M. Wagner                    ·                     R. Westbrook,R. Hachimura,,M. Wagner,R. Westbrook,G. Mathews
"Thu, Mar 4, 2021",Los Angeles Clippers,119.0,117.0,14.0,20.0,B. Beal                    ·                     R. Hachimura                    ·                     G. Mathews                    ·                     M. Wagner                    ·                     R. Westbrook,R. Hachimura,,M. Wagner,R. Westbrook,G. Mathews
"Wed, Mar 10, 2021",Memphis Grizzlies,112.0,127.0,14.0,21.0,B. Beal                    ·                     R. Hachimura                    ·                     G. Mathews                    ·                     M. Wagner                    ·                     R. Westbrook,R. Hachimura,,M. Wagner,R. Westbrook,G. Mathews
"Fri, Mar 12, 2021",Philadelphia 76ers,101.0,127.0,14.0,22.0,B. Beal                    ·                     R. Hachimura                    ·                     G. Mathews                    ·                     M. Wagner                    ·                     R. Westbrook,R. Hachimura,,M. Wagner,R. Westbrook,G. Mathews
"Sat, Mar 13, 2021",Milwaukee Bucks,119.0,125.0,14.0,23.0,D. Avdija                    ·                     R. Hachimura                    ·                     A. Len                    ·                     G. Mathews                    ·                     R. Westbrook,R. Hachimura,,A. Len,R. Westbrook,G. Mathews
"Mon, Mar 15, 2021",Milwaukee Bucks,122.0,133.0,14.0,24.0,B. Beal                    ·                     R. Hachimura                    ·                     A. Len                    ·                     G. Mathews                    ·                     R. Westbrook,R. Hachimura,,A. Len,R. Westbrook,G. Mathews
"Wed, Mar 17, 2021",Sacramento Kings,119.0,121.0,14.0,25.0,B. Beal                    ·                     R. Hachimura                    ·                     A. Len                    ·                     G. Mathews                    ·                     R. Westbrook,R. Hachimura,,A. Len,R. Westbrook,G. Mathews
"Thu, Mar 18, 2021",Utah Jazz,131.0,122.0,15.0,25.0,B. Beal                    ·                     R. Hachimura                    ·                     A. Len                    ·                     G. Mathews                    ·                     R. Westbrook,R. Hachimura,,A. Len,R. Westbrook,G. Mathews
"Sun, Mar 21, 2021",Brooklyn Nets,106.0,113.0,15.0,26.0,B. Beal                    ·                     R. Hachimura                    ·                     A. Len                    ·                     G. Mathews                    ·                     R. Westbrook,R. Hachimura,,A. Len,R. Westbrook,G. Mathews
"Tue, Mar 23, 2021",New York Knicks,113.0,131.0,15.0,27.0,B. Beal                    ·                     R. Hachimura                    ·                     A. Len                    ·                     G. Mathews                    ·                     R. Westbrook,R. Hachimura,,A. Len,R. Westbrook,G. Mathews
"Thu, Mar 25, 2021",New York Knicks,102.0,106.0,15.0,28.0,B. Beal                    ·                     R. Hachimura                    ·                     A. Len                    ·                     G. Mathews                    ·                     R. Westbrook,R. Hachimura,,A. Len,R. Westbrook,G. Mathews
"Sat, Mar 27, 2021",Detroit Pistons,106.0,92.0,16.0,28.0,D. Avdija                    ·                     B. Beal                    ·                     R. Hachimura                    ·                     A. Len                    ·                     R. Westbrook,R. Hachimura,,A. Len,R. Westbrook,B. Beal
"Mon, Mar 29, 2021",Indiana Pacers,132.0,124.0,17.0,28.0,D. Avdija                    ·                     R. Hachimura                    ·                     A. Len                    ·                     J. Robinson                    ·                     R. Westbrook,R. Hachimura,,A. Len,R. Westbrook,J. Robinson
"Tue, Mar 30, 2021",Charlotte Hornets,104.0,114.0,17.0,29.0,D. Avdija                    ·                     R. Hachimura                    ·                     A. Len                    ·                     J. Robinson                    ·                     R. Westbrook,R. Hachimura,,A. Len,R. Westbrook,J. Robinson
"Thu, Apr 1, 2021",Detroit Pistons,91.0,120.0,17.0,30.0,D. Avdija                    ·                     R. Hachimura                    ·                     A. Len                    ·                     J. Robinson                    ·                     R. Westbrook,R. Hachimura,,A. Len,R. Westbrook,J. Robinson
"Sat, Apr 3, 2021",Dallas Mavericks,87.0,109.0,17.0,31.0,D. Avdija                    ·                     D. Bertāns                    ·                     A. Len                    ·                     G. Mathews                    ·                     R. Westbrook,D. Bertans,,A. Len,R. Westbrook,G. Mathews
"Mon, Apr 5, 2021",Toronto Raptors,101.0,103.0,17.0,32.0,D. Avdija                    ·                     D. Bertāns                    ·                     A. Len                    ·                     R. Neto                    ·                     R. Westbrook,D. Bertans,,A. Len,R. Westbrook,
"Wed, Apr 7, 2021",Orlando Magic,131.0,116.0,18.0,32.0,D. Avdija                    ·                     B. Beal                    ·                     R. Hachimura                    ·                     A. Len                    ·                     R. Westbrook,R. Hachimura,,A. Len,R. Westbrook,B. Beal
"Fri, Apr 9, 2021",Golden State Warriors,110.0,107.0,19.0,32.0,D. Avdija                    ·                     B. Beal                    ·                     R. Hachimura                    ·                     A. Len                    ·                     R. Westbrook,R. Hachimura,,A. Len,R. Westbrook,B. Beal
"Sat, Apr 10, 2021",Phoenix Suns,106.0,134.0,19.0,33.0,D. Avdija                    ·                     R. Hachimura                    ·                     A. Len                    ·                     R. Neto                    ·                     R. Westbrook,R. Hachimura,,A. Len,R. Westbrook,
"Mon, Apr 12, 2021",Utah Jazz,125.0,121.0,20.0,33.0,D. Avdija                    ·                     B. Beal                    ·                     R. Hachimura                    ·                     A. Len                    ·                     R. Westbrook,R. Hachimura,,A. Len,R. Westbrook,B. Beal
"Wed, Apr 14, 2021",Sacramento Kings,123.0,111.0,21.0,33.0,D. Avdija                    ·                     B. Beal                    ·                     R. Hachimura                    ·                     A. Len                    ·                     R. Westbrook,R. Hachimura,,A. Len,R. Westbrook,B. Beal
"Fri, Apr 16, 2021",New Orleans Pelicans,117.0,115.0,22.0,33.0,D. Avdija                    ·                     B. Beal                    ·                     R. Hachimura                    ·                     A. Len                    ·                     R. Westbrook,R. Hachimura,,A. Len,R. Westbrook,B. Beal
"Sat, Apr 17, 2021",Detroit Pistons,121.0,100.0,23.0,33.0,D. Avdija                    ·                     B. Beal                    ·                     R. Hachimura                    ·                     A. Len                    ·                     R. Westbrook,R. Hachimura,,A. Len,R. Westbrook,B. Beal
"Mon, Apr 19, 2021",Oklahoma City Thunder,119.0,107.0,24.0,33.0,D. Avdija                    ·                     B. Beal                    ·                     A. Len                    ·                     R. Neto                    ·                     R. Westbrook,,,A. Len,R. Westbrook,B. Beal
