Date,Opponent,Tm,Opp,W,L,Starting Lineup,PF,SF,C,PG,SG
"Thu, Oct 19, 2017",Los Angeles Lakers,108.0,92.0,1.0,0.0,P. Beverley                    ·                     D. Gallinari                    ·                     B. Griffin                    ·                     D. Jordan                    ·                     M. Teodosić,B. Griffin,D. Gallinari,D. Jordan,,P. Beverley
"Sat, Oct 21, 2017",Phoenix Suns,130.0,88.0,2.0,0.0,P. Beverley                    ·                     D. Gallinari                    ·                     B. Griffin                    ·                     D. Jordan                    ·                     M. Teodosić,B. Griffin,D. Gallinari,D. Jordan,,P. Beverley
"Tue, Oct 24, 2017",Utah Jazz,102.0,84.0,3.0,0.0,P. Beverley                    ·                     D. Gallinari                    ·                     B. Griffin                    ·                     D. Jordan                    ·                     A. Rivers,B. Griffin,D. Gallinari,D. Jordan,,A. Rivers
"Thu, Oct 26, 2017",Portland Trail Blazers,104.0,103.0,4.0,0.0,P. Beverley                    ·                     D. Gallinari                    ·                     B. Griffin                    ·                     D. Jordan                    ·                     A. Rivers,B. Griffin,D. Gallinari,D. Jordan,,A. Rivers
"Sat, Oct 28, 2017",Detroit Pistons,87.0,95.0,4.0,1.0,P. Beverley                    ·                     D. Gallinari                    ·                     B. Griffin                    ·                     D. Jordan                    ·                     A. Rivers,B. Griffin,D. Gallinari,D. Jordan,,A. Rivers
"Mon, Oct 30, 2017",Golden State Warriors,113.0,141.0,4.0,2.0,P. Beverley                    ·                     D. Gallinari                    ·                     B. Griffin                    ·                     D. Jordan                    ·                     A. Rivers,B. Griffin,D. Gallinari,D. Jordan,,A. Rivers
"Wed, Nov 1, 2017",Dallas Mavericks,119.0,98.0,5.0,2.0,P. Beverley                    ·                     D. Gallinari                    ·                     B. Griffin                    ·                     D. Jordan                    ·                     A. Rivers,B. Griffin,D. Gallinari,D. Jordan,,A. Rivers
"Sat, Nov 4, 2017",Memphis Grizzlies,104.0,113.0,5.0,3.0,P. Beverley                    ·                     D. Gallinari                    ·                     B. Griffin                    ·                     D. Jordan                    ·                     A. Rivers,B. Griffin,D. Gallinari,D. Jordan,,A. Rivers
"Sun, Nov 5, 2017",Miami Heat,101.0,104.0,5.0,4.0,P. Beverley                    ·                     D. Gallinari                    ·                     B. Griffin                    ·                     D. Jordan                    ·                     A. Rivers,B. Griffin,D. Gallinari,D. Jordan,,A. Rivers
"Tue, Nov 7, 2017",San Antonio Spurs,107.0,120.0,5.0,5.0,P. Beverley                    ·                     B. Griffin                    ·                     W. Johnson                    ·                     D. Jordan                    ·                     A. Rivers,B. Griffin,W. Johnson,D. Jordan,,A. Rivers
"Fri, Nov 10, 2017",Oklahoma City Thunder,111.0,120.0,5.0,6.0,B. Griffin                    ·                     W. Johnson                    ·                     D. Jordan                    ·                     A. Rivers                    ·                     S. Thornwell,B. Griffin,W. Johnson,D. Jordan,,A. Rivers
"Sat, Nov 11, 2017",New Orleans Pelicans,103.0,111.0,5.0,7.0,B. Griffin                    ·                     W. Johnson                    ·                     D. Jordan                    ·                     A. Rivers                    ·                     S. Thornwell,B. Griffin,W. Johnson,D. Jordan,,A. Rivers
"Mon, Nov 13, 2017",Philadelphia 76ers,105.0,109.0,5.0,8.0,B. Griffin                    ·                     W. Johnson                    ·                     D. Jordan                    ·                     A. Rivers                    ·                     S. Thornwell,B. Griffin,W. Johnson,D. Jordan,,A. Rivers
"Fri, Nov 17, 2017",Cleveland Cavaliers,113.0,118.0,5.0,9.0,B. Griffin                    ·                     W. Johnson                    ·                     D. Jordan                    ·                     A. Rivers                    ·                     S. Thornwell,B. Griffin,W. Johnson,D. Jordan,,A. Rivers
"Sat, Nov 18, 2017",Charlotte Hornets,87.0,102.0,5.0,10.0,B. Griffin                    ·                     W. Johnson                    ·                     D. Jordan                    ·                     A. Rivers                    ·                     S. Thornwell,B. Griffin,W. Johnson,D. Jordan,,A. Rivers
"Mon, Nov 20, 2017",New York Knicks,85.0,107.0,5.0,11.0,P. Beverley                    ·                     B. Griffin                    ·                     W. Johnson                    ·                     D. Jordan                    ·                     A. Rivers,B. Griffin,W. Johnson,D. Jordan,,A. Rivers
"Wed, Nov 22, 2017",Atlanta Hawks,116.0,103.0,6.0,11.0,B. Griffin                    ·                     W. Johnson                    ·                     D. Jordan                    ·                     A. Rivers                    ·                     L. Williams,B. Griffin,W. Johnson,D. Jordan,,L. Williams
"Sat, Nov 25, 2017",Sacramento Kings,97.0,95.0,7.0,11.0,B. Griffin                    ·                     W. Johnson                    ·                     D. Jordan                    ·                     A. Rivers                    ·                     L. Williams,B. Griffin,W. Johnson,D. Jordan,,L. Williams
"Mon, Nov 27, 2017",Los Angeles Lakers,120.0,115.0,8.0,11.0,B. Griffin                    ·                     W. Johnson                    ·                     D. Jordan                    ·                     A. Rivers                    ·                     L. Williams,B. Griffin,W. Johnson,D. Jordan,,L. Williams
"Thu, Nov 30, 2017",Utah Jazz,107.0,126.0,8.0,12.0,M. Harrell                    ·                     W. Johnson                    ·                     D. Jordan                    ·                     A. Rivers                    ·                     L. Williams,,W. Johnson,D. Jordan,,L. Williams
"Sat, Dec 2, 2017",Dallas Mavericks,82.0,108.0,8.0,13.0,M. Harrell                    ·                     W. Johnson                    ·                     D. Jordan                    ·                     A. Rivers                    ·                     L. Williams,,W. Johnson,D. Jordan,,L. Williams
"Sun, Dec 3, 2017",Minnesota Timberwolves,106.0,112.0,8.0,14.0,W. Johnson                    ·                     D. Jordan                    ·                     A. Rivers                    ·                     C. Williams                    ·                     J. Wilson,,W. Johnson,D. Jordan,,A. Rivers
"Wed, Dec 6, 2017",Minnesota Timberwolves,107.0,113.0,8.0,15.0,D. Gallinari                    ·                     W. Johnson                    ·                     D. Jordan                    ·                     A. Rivers                    ·                     C. Williams,,W. Johnson,D. Jordan,,A. Rivers
"Sat, Dec 9, 2017",Washington Wizards,113.0,112.0,9.0,15.0,D. Gallinari                    ·                     W. Johnson                    ·                     D. Jordan                    ·                     A. Rivers                    ·                     S. Thornwell,,W. Johnson,D. Jordan,,A. Rivers
"Mon, Dec 11, 2017",Toronto Raptors,96.0,91.0,10.0,15.0,W. Johnson                    ·                     D. Jordan                    ·                     A. Rivers                    ·                     M. Teodosić                    ·                     J. Wilson,,W. Johnson,D. Jordan,,A. Rivers
"Wed, Dec 13, 2017",Orlando Magic,106.0,95.0,11.0,15.0,W. Johnson                    ·                     D. Jordan                    ·                     A. Rivers                    ·                     M. Teodosić                    ·                     J. Wilson,,W. Johnson,D. Jordan,,A. Rivers
"Fri, Dec 15, 2017",Washington Wizards,91.0,100.0,11.0,16.0,W. Johnson                    ·                     D. Jordan                    ·                     S. Thornwell                    ·                     L. Williams                    ·                     J. Wilson,,W. Johnson,D. Jordan,,L. Williams
"Sat, Dec 16, 2017",Miami Heat,85.0,90.0,11.0,17.0,W. Johnson                    ·                     D. Jordan                    ·                     M. Teodosić                    ·                     L. Williams                    ·                     J. Wilson,,W. Johnson,D. Jordan,,L. Williams
"Mon, Dec 18, 2017",San Antonio Spurs,91.0,109.0,11.0,18.0,D. Jordan                    ·                     A. Rivers                    ·                     M. Teodosić                    ·                     C. Williams                    ·                     J. Wilson,,,D. Jordan,,A. Rivers
"Wed, Dec 20, 2017",Phoenix Suns,108.0,95.0,12.0,18.0,D. Jordan                    ·                     A. Rivers                    ·                     M. Teodosić                    ·                     C. Williams                    ·                     J. Wilson,,,D. Jordan,,A. Rivers
"Fri, Dec 22, 2017",Houston Rockets,128.0,118.0,13.0,18.0,M. Harrell                    ·                     D. Jordan                    ·                     A. Rivers                    ·                     C. Williams                    ·                     J. Wilson,,,D. Jordan,,A. Rivers
"Sat, Dec 23, 2017",Memphis Grizzlies,112.0,115.0,13.0,19.0,D. Jordan                    ·                     A. Rivers                    ·                     M. Teodosić                    ·                     C. Williams                    ·                     J. Wilson,,,D. Jordan,,A. Rivers
"Tue, Dec 26, 2017",Sacramento Kings,122.0,95.0,14.0,19.0,D. Jordan                    ·                     A. Rivers                    ·                     M. Teodosić                    ·                     C. Williams                    ·                     J. Wilson,,,D. Jordan,,A. Rivers
"Fri, Dec 29, 2017",Los Angeles Lakers,121.0,106.0,15.0,19.0,B. Griffin                    ·                     D. Jordan                    ·                     A. Rivers                    ·                     M. Teodosić                    ·                     C. Williams,B. Griffin,,D. Jordan,,A. Rivers
"Sun, Dec 31, 2017",Charlotte Hornets,106.0,98.0,16.0,19.0,J. Evans                    ·                     B. Griffin                    ·                     D. Jordan                    ·                     M. Teodosić                    ·                     C. Williams,B. Griffin,,D. Jordan,,
"Tue, Jan 2, 2018",Memphis Grizzlies,113.0,105.0,17.0,19.0,B. Griffin                    ·                     W. Johnson                    ·                     D. Jordan                    ·                     M. Teodosić                    ·                     C. Williams,B. Griffin,W. Johnson,D. Jordan,,
"Thu, Jan 4, 2018",Oklahoma City Thunder,117.0,127.0,17.0,20.0,B. Griffin                    ·                     W. Johnson                    ·                     D. Jordan                    ·                     M. Teodosić                    ·                     C. Williams,B. Griffin,W. Johnson,D. Jordan,,
"Sat, Jan 6, 2018",Golden State Warriors,105.0,121.0,17.0,21.0,S. Dekker                    ·                     J. Evans                    ·                     B. Griffin                    ·                     D. Jordan                    ·                     C. Williams,B. Griffin,,D. Jordan,,
"Mon, Jan 8, 2018",Atlanta Hawks,108.0,107.0,18.0,21.0,J. Evans                    ·                     W. Johnson                    ·                     D. Jordan                    ·                     C. Williams                    ·                     L. Williams,,W. Johnson,D. Jordan,,L. Williams
"Wed, Jan 10, 2018",Golden State Warriors,125.0,106.0,19.0,21.0,J. Evans                    ·                     W. Johnson                    ·                     D. Jordan                    ·                     C. Williams                    ·                     L. Williams,,W. Johnson,D. Jordan,,L. Williams
"Thu, Jan 11, 2018",Sacramento Kings,121.0,115.0,20.0,21.0,B. Griffin                    ·                     D. Jordan                    ·                     M. Teodosić                    ·                     T. Wallace                    ·                     L. Williams,B. Griffin,,D. Jordan,,L. Williams
"Sat, Jan 13, 2018",Sacramento Kings,126.0,105.0,21.0,21.0,B. Griffin                    ·                     W. Reed                    ·                     M. Teodosić                    ·                     T. Wallace                    ·                     L. Williams,B. Griffin,,W. Reed,,L. Williams
"Mon, Jan 15, 2018",Houston Rockets,113.0,102.0,22.0,21.0,B. Griffin                    ·                     W. Reed                    ·                     M. Teodosić                    ·                     T. Wallace                    ·                     L. Williams,B. Griffin,,W. Reed,,L. Williams
"Wed, Jan 17, 2018",Denver Nuggets,109.0,104.0,23.0,21.0,B. Griffin                    ·                     W. Reed                    ·                     M. Teodosić                    ·                     T. Wallace                    ·                     L. Williams,B. Griffin,,W. Reed,,L. Williams
"Sat, Jan 20, 2018",Utah Jazz,113.0,125.0,23.0,22.0,B. Griffin                    ·                     W. Reed                    ·                     M. Teodosić                    ·                     T. Wallace                    ·                     L. Williams,B. Griffin,,W. Reed,,L. Williams
"Mon, Jan 22, 2018",Minnesota Timberwolves,118.0,126.0,23.0,23.0,B. Griffin                    ·                     W. Johnson                    ·                     W. Reed                    ·                     M. Teodosić                    ·                     T. Wallace,B. Griffin,W. Johnson,W. Reed,,
"Wed, Jan 24, 2018",Boston Celtics,102.0,113.0,23.0,24.0,B. Griffin                    ·                     W. Johnson                    ·                     D. Jordan                    ·                     M. Teodosić                    ·                     T. Wallace,B. Griffin,W. Johnson,D. Jordan,,
"Fri, Jan 26, 2018",Memphis Grizzlies,109.0,100.0,24.0,24.0,B. Griffin                    ·                     W. Johnson                    ·                     D. Jordan                    ·                     M. Teodosić                    ·                     T. Wallace,B. Griffin,W. Johnson,D. Jordan,,
"Sun, Jan 28, 2018",New Orleans Pelicans,112.0,103.0,25.0,24.0,B. Griffin                    ·                     W. Johnson                    ·                     D. Jordan                    ·                     M. Teodosić                    ·                     T. Wallace,B. Griffin,W. Johnson,D. Jordan,,
"Tue, Jan 30, 2018",Portland Trail Blazers,96.0,104.0,25.0,25.0,D. Gallinari                    ·                     W. Johnson                    ·                     D. Jordan                    ·                     M. Teodosić                    ·                     T. Wallace,,W. Johnson,D. Jordan,,
"Sat, Feb 3, 2018",Chicago Bulls,113.0,103.0,26.0,25.0,A. Bradley                    ·                     D. Gallinari                    ·                     T. Harris                    ·                     D. Jordan                    ·                     M. Teodosić,T. Harris,D. Gallinari,D. Jordan,,A. Bradley
"Mon, Feb 5, 2018",Dallas Mavericks,104.0,101.0,27.0,25.0,A. Bradley                    ·                     D. Gallinari                    ·                     T. Harris                    ·                     D. Jordan                    ·                     M. Teodosić,T. Harris,D. Gallinari,D. Jordan,,A. Bradley
"Fri, Feb 9, 2018",Detroit Pistons,108.0,95.0,28.0,25.0,A. Bradley                    ·                     D. Gallinari                    ·                     T. Harris                    ·                     D. Jordan                    ·                     A. Rivers,T. Harris,D. Gallinari,D. Jordan,,A. Rivers
"Sat, Feb 10, 2018",Philadelphia 76ers,98.0,112.0,28.0,26.0,A. Bradley                    ·                     D. Gallinari                    ·                     T. Harris                    ·                     D. Jordan                    ·                     A. Rivers,T. Harris,D. Gallinari,D. Jordan,,A. Rivers
"Mon, Feb 12, 2018",Brooklyn Nets,114.0,101.0,29.0,26.0,A. Bradley                    ·                     D. Gallinari                    ·                     T. Harris                    ·                     D. Jordan                    ·                     A. Rivers,T. Harris,D. Gallinari,D. Jordan,,A. Rivers
"Wed, Feb 14, 2018",Boston Celtics,129.0,119.0,30.0,26.0,A. Bradley                    ·                     D. Gallinari                    ·                     T. Harris                    ·                     D. Jordan                    ·                     A. Rivers,T. Harris,D. Gallinari,D. Jordan,,A. Rivers
"Thu, Feb 22, 2018",Golden State Warriors,127.0,134.0,30.0,27.0,D. Gallinari                    ·                     T. Harris                    ·                     D. Jordan                    ·                     A. Rivers                    ·                     M. Teodosić,T. Harris,D. Gallinari,D. Jordan,,A. Rivers
"Fri, Feb 23, 2018",Phoenix Suns,128.0,117.0,31.0,27.0,T. Harris                    ·                     W. Johnson                    ·                     D. Jordan                    ·                     A. Rivers                    ·                     T. Wallace,T. Harris,W. Johnson,D. Jordan,,A. Rivers
"Tue, Feb 27, 2018",Denver Nuggets,122.0,120.0,32.0,27.0,T. Harris                    ·                     W. Johnson                    ·                     D. Jordan                    ·                     A. Rivers                    ·                     T. Wallace,T. Harris,W. Johnson,D. Jordan,,A. Rivers
"Wed, Feb 28, 2018",Houston Rockets,92.0,105.0,32.0,28.0,T. Harris                    ·                     D. Jordan                    ·                     A. Rivers                    ·                     M. Teodosić                    ·                     C. Williams,T. Harris,,D. Jordan,,A. Rivers
"Fri, Mar 2, 2018",New York Knicks,128.0,105.0,33.0,28.0,T. Harris                    ·                     D. Jordan                    ·                     A. Rivers                    ·                     M. Teodosić                    ·                     C. Williams,T. Harris,,D. Jordan,,A. Rivers
"Sun, Mar 4, 2018",Brooklyn Nets,123.0,120.0,34.0,28.0,T. Harris                    ·                     W. Johnson                    ·                     D. Jordan                    ·                     A. Rivers                    ·                     M. Teodosić,T. Harris,W. Johnson,D. Jordan,,A. Rivers
"Tue, Mar 6, 2018",New Orleans Pelicans,116.0,121.0,34.0,29.0,T. Harris                    ·                     W. Johnson                    ·                     D. Jordan                    ·                     A. Rivers                    ·                     M. Teodosić,T. Harris,W. Johnson,D. Jordan,,A. Rivers
"Fri, Mar 9, 2018",Cleveland Cavaliers,116.0,102.0,35.0,29.0,T. Harris                    ·                     D. Jordan                    ·                     A. Rivers                    ·                     S. Thornwell                    ·                     L. Williams,T. Harris,,D. Jordan,,L. Williams
"Sat, Mar 10, 2018",Orlando Magic,113.0,105.0,36.0,29.0,T. Harris                    ·                     D. Jordan                    ·                     A. Rivers                    ·                     S. Thornwell                    ·                     L. Williams,T. Harris,,D. Jordan,,L. Williams
"Tue, Mar 13, 2018",Chicago Bulls,112.0,106.0,37.0,29.0,T. Harris                    ·                     D. Jordan                    ·                     A. Rivers                    ·                     S. Thornwell                    ·                     L. Williams,T. Harris,,D. Jordan,,L. Williams
"Thu, Mar 15, 2018",Houston Rockets,96.0,101.0,37.0,30.0,T. Harris                    ·                     D. Jordan                    ·                     A. Rivers                    ·                     S. Thornwell                    ·                     L. Williams,T. Harris,,D. Jordan,,L. Williams
"Fri, Mar 16, 2018",Oklahoma City Thunder,113.0,121.0,37.0,31.0,T. Harris                    ·                     D. Jordan                    ·                     A. Rivers                    ·                     S. Thornwell                    ·                     L. Williams,T. Harris,,D. Jordan,,L. Williams
"Sun, Mar 18, 2018",Portland Trail Blazers,109.0,122.0,37.0,32.0,T. Harris                    ·                     D. Jordan                    ·                     A. Rivers                    ·                     M. Teodosić                    ·                     S. Thornwell,T. Harris,,D. Jordan,,A. Rivers
"Tue, Mar 20, 2018",Minnesota Timberwolves,109.0,123.0,37.0,33.0,T. Harris                    ·                     D. Jordan                    ·                     A. Rivers                    ·                     M. Teodosić                    ·                     S. Thornwell,T. Harris,,D. Jordan,,A. Rivers
"Wed, Mar 21, 2018",Milwaukee Bucks,127.0,120.0,38.0,33.0,T. Harris                    ·                     W. Johnson                    ·                     D. Jordan                    ·                     A. Rivers                    ·                     M. Teodosić,T. Harris,W. Johnson,D. Jordan,,A. Rivers
"Fri, Mar 23, 2018",Indiana Pacers,104.0,109.0,38.0,34.0,T. Harris                    ·                     W. Johnson                    ·                     D. Jordan                    ·                     A. Rivers                    ·                     M. Teodosić,T. Harris,W. Johnson,D. Jordan,,A. Rivers
"Sun, Mar 25, 2018",Toronto Raptors,117.0,106.0,39.0,34.0,T. Harris                    ·                     W. Johnson                    ·                     D. Jordan                    ·                     A. Rivers                    ·                     M. Teodosić,T. Harris,W. Johnson,D. Jordan,,A. Rivers
"Tue, Mar 27, 2018",Milwaukee Bucks,105.0,98.0,40.0,34.0,T. Harris                    ·                     W. Johnson                    ·                     D. Jordan                    ·                     A. Rivers                    ·                     M. Teodosić,T. Harris,W. Johnson,D. Jordan,,A. Rivers
"Wed, Mar 28, 2018",Phoenix Suns,111.0,99.0,41.0,34.0,T. Harris                    ·                     W. Johnson                    ·                     D. Jordan                    ·                     A. Rivers                    ·                     T. Wallace,T. Harris,W. Johnson,D. Jordan,,A. Rivers
"Fri, Mar 30, 2018",Portland Trail Blazers,96.0,105.0,41.0,35.0,D. Gallinari                    ·                     T. Harris                    ·                     D. Jordan                    ·                     A. Rivers                    ·                     T. Wallace,T. Harris,D. Gallinari,D. Jordan,,A. Rivers
"Sun, Apr 1, 2018",Indiana Pacers,104.0,111.0,41.0,36.0,D. Gallinari                    ·                     T. Harris                    ·                     D. Jordan                    ·                     A. Rivers                    ·                     T. Wallace,T. Harris,D. Gallinari,D. Jordan,,A. Rivers
"Tue, Apr 3, 2018",San Antonio Spurs,113.0,110.0,42.0,36.0,T. Harris                    ·                     D. Jordan                    ·                     A. Rivers                    ·                     T. Wallace                    ·                     C. Williams,T. Harris,,D. Jordan,,A. Rivers
"Thu, Apr 5, 2018",Utah Jazz,95.0,117.0,42.0,37.0,T. Harris                    ·                     D. Jordan                    ·                     A. Rivers                    ·                     S. Thornwell                    ·                     T. Wallace,T. Harris,,D. Jordan,,A. Rivers
"Sat, Apr 7, 2018",Denver Nuggets,115.0,134.0,42.0,38.0,T. Harris                    ·                     W. Johnson                    ·                     D. Jordan                    ·                     A. Rivers                    ·                     T. Wallace,T. Harris,W. Johnson,D. Jordan,,A. Rivers
"Mon, Apr 9, 2018",New Orleans Pelicans,100.0,113.0,42.0,39.0,T. Harris                    ·                     W. Johnson                    ·                     D. Jordan                    ·                     T. Wallace                    ·                     C. Williams,T. Harris,W. Johnson,D. Jordan,,
"Wed, Apr 11, 2018",Los Angeles Lakers,100.0,115.0,42.0,40.0,T. Harris                    ·                     W. Johnson                    ·                     D. Jordan                    ·                     A. Rivers                    ·                     S. Thornwell,T. Harris,W. Johnson,D. Jordan,,A. Rivers
