Date,Opponent,Tm,Opp,W,L,Starting Lineup,PF,SF,C,PG,SG
"Wed, Oct 23, 2019",Miami Heat,101.0,120.0,0.0,1.0,D. Brooks                    ·                     J. Crowder                    ·                     J. Jackson                    ·                     J. Morant                    ·                     J. Valančiūnas,J. Jackson,J. Crowder,J. Valanciunas,,
"Fri, Oct 25, 2019",Chicago Bulls,102.0,110.0,0.0,2.0,D. Brooks                    ·                     J. Crowder                    ·                     J. Jackson                    ·                     J. Morant                    ·                     J. Valančiūnas,J. Jackson,J. Crowder,J. Valanciunas,,
"Sun, Oct 27, 2019",Brooklyn Nets,134.0,133.0,1.0,2.0,D. Brooks                    ·                     J. Crowder                    ·                     J. Jackson                    ·                     J. Morant                    ·                     J. Valančiūnas,J. Jackson,J. Crowder,J. Valanciunas,,
"Tue, Oct 29, 2019",Los Angeles Lakers,91.0,120.0,1.0,3.0,D. Brooks                    ·                     J. Crowder                    ·                     J. Jackson                    ·                     J. Morant                    ·                     J. Valančiūnas,J. Jackson,J. Crowder,J. Valanciunas,,
"Sat, Nov 2, 2019",Phoenix Suns,105.0,114.0,1.0,4.0,D. Brooks                    ·                     J. Crowder                    ·                     J. Jackson                    ·                     J. Morant                    ·                     J. Valančiūnas,J. Jackson,J. Crowder,J. Valanciunas,,
"Mon, Nov 4, 2019",Houston Rockets,100.0,107.0,1.0,5.0,D. Brooks                    ·                     B. Clarke                    ·                     J. Crowder                    ·                     J. Morant                    ·                     J. Valančiūnas,,J. Crowder,J. Valanciunas,,
"Wed, Nov 6, 2019",Minnesota Timberwolves,137.0,121.0,2.0,5.0,D. Brooks                    ·                     J. Crowder                    ·                     J. Jackson                    ·                     J. Morant                    ·                     J. Valančiūnas,J. Jackson,J. Crowder,J. Valanciunas,,
"Fri, Nov 8, 2019",Orlando Magic,86.0,118.0,2.0,6.0,D. Brooks                    ·                     J. Crowder                    ·                     J. Jackson                    ·                     J. Morant                    ·                     J. Valančiūnas,J. Jackson,J. Crowder,J. Valanciunas,,
"Sat, Nov 9, 2019",Dallas Mavericks,122.0,138.0,2.0,7.0,D. Brooks                    ·                     J. Crowder                    ·                     J. Jackson                    ·                     T. Jones                    ·                     J. Valančiūnas,T. Jones,J. Crowder,J. Valanciunas,,
"Mon, Nov 11, 2019",San Antonio Spurs,113.0,109.0,3.0,7.0,D. Brooks                    ·                     J. Crowder                    ·                     J. Jackson                    ·                     J. Morant                    ·                     J. Valančiūnas,J. Jackson,J. Crowder,J. Valanciunas,,
"Wed, Nov 13, 2019",Charlotte Hornets,119.0,117.0,4.0,7.0,D. Brooks                    ·                     J. Crowder                    ·                     J. Jackson                    ·                     J. Morant                    ·                     J. Valančiūnas,J. Jackson,J. Crowder,J. Valanciunas,,
"Fri, Nov 15, 2019",Utah Jazz,107.0,106.0,5.0,7.0,D. Brooks                    ·                     J. Crowder                    ·                     J. Jackson                    ·                     J. Morant                    ·                     J. Valančiūnas,J. Jackson,J. Crowder,J. Valanciunas,,
"Sun, Nov 17, 2019",Denver Nuggets,114.0,131.0,5.0,8.0,D. Brooks                    ·                     J. Crowder                    ·                     J. Jackson                    ·                     J. Morant                    ·                     J. Valančiūnas,J. Jackson,J. Crowder,J. Valanciunas,,
"Tue, Nov 19, 2019",Golden State Warriors,95.0,114.0,5.0,9.0,D. Brooks                    ·                     J. Crowder                    ·                     J. Jackson                    ·                     J. Morant                    ·                     J. Valančiūnas,J. Jackson,J. Crowder,J. Valanciunas,,
"Sat, Nov 23, 2019",Los Angeles Lakers,108.0,109.0,5.0,10.0,D. Brooks                    ·                     J. Crowder                    ·                     J. Jackson                    ·                     J. Morant                    ·                     J. Valančiūnas,J. Jackson,J. Crowder,J. Valanciunas,,
"Mon, Nov 25, 2019",Indiana Pacers,114.0,126.0,5.0,11.0,D. Brooks                    ·                     J. Crowder                    ·                     J. Jackson                    ·                     J. Morant                    ·                     J. Valančiūnas,J. Jackson,J. Crowder,J. Valanciunas,,
"Wed, Nov 27, 2019",Los Angeles Clippers,119.0,121.0,5.0,12.0,D. Brooks                    ·                     J. Crowder                    ·                     J. Jackson                    ·                     J. Morant                    ·                     J. Valančiūnas,J. Jackson,J. Crowder,J. Valanciunas,,
"Fri, Nov 29, 2019",Utah Jazz,94.0,103.0,5.0,13.0,D. Brooks                    ·                     J. Crowder                    ·                     J. Jackson                    ·                     J. Morant                    ·                     J. Valančiūnas,J. Jackson,J. Crowder,J. Valanciunas,,
"Sun, Dec 1, 2019",Minnesota Timberwolves,115.0,107.0,6.0,13.0,D. Brooks                    ·                     B. Clarke                    ·                     J. Crowder                    ·                     J. Jackson                    ·                     T. Jones,T. Jones,J. Crowder,,,
"Mon, Dec 2, 2019",Indiana Pacers,104.0,117.0,6.0,14.0,D. Brooks                    ·                     J. Crowder                    ·                     S. Hill                    ·                     J. Jackson                    ·                     T. Jones,T. Jones,S. Hill,,,
"Wed, Dec 4, 2019",Chicago Bulls,99.0,106.0,6.0,15.0,D. Brooks                    ·                     J. Crowder                    ·                     J. Jackson                    ·                     T. Jones                    ·                     J. Valančiūnas,T. Jones,J. Crowder,J. Valanciunas,,
"Sat, Dec 7, 2019",Utah Jazz,112.0,126.0,6.0,16.0,D. Brooks                    ·                     J. Crowder                    ·                     J. Jackson                    ·                     T. Jones                    ·                     J. Valančiūnas,T. Jones,J. Crowder,J. Valanciunas,,
"Mon, Dec 9, 2019",Golden State Warriors,110.0,102.0,7.0,16.0,D. Brooks                    ·                     J. Crowder                    ·                     J. Jackson                    ·                     J. Morant                    ·                     J. Valančiūnas,J. Jackson,J. Crowder,J. Valanciunas,,
"Wed, Dec 11, 2019",Phoenix Suns,115.0,108.0,8.0,16.0,D. Brooks                    ·                     J. Crowder                    ·                     J. Jackson                    ·                     J. Morant                    ·                     J. Valančiūnas,J. Jackson,J. Crowder,J. Valanciunas,,
"Fri, Dec 13, 2019",Milwaukee Bucks,114.0,127.0,8.0,17.0,D. Brooks                    ·                     J. Crowder                    ·                     J. Jackson                    ·                     T. Jones                    ·                     J. Valančiūnas,T. Jones,J. Crowder,J. Valanciunas,,
"Sat, Dec 14, 2019",Washington Wizards,128.0,111.0,9.0,17.0,K. Anderson                    ·                     D. Brooks                    ·                     J. Jackson                    ·                     J. Morant                    ·                     J. Valančiūnas,J. Jackson,D. Brooks,J. Valanciunas,,
"Mon, Dec 16, 2019",Miami Heat,118.0,111.0,10.0,17.0,D. Brooks                    ·                     J. Crowder                    ·                     J. Jackson                    ·                     J. Morant                    ·                     J. Valančiūnas,J. Jackson,J. Crowder,J. Valanciunas,,
"Wed, Dec 18, 2019",Oklahoma City Thunder,122.0,126.0,10.0,18.0,D. Brooks                    ·                     J. Crowder                    ·                     J. Jackson                    ·                     J. Morant                    ·                     J. Valančiūnas,J. Jackson,J. Crowder,J. Valanciunas,,
"Fri, Dec 20, 2019",Cleveland Cavaliers,107.0,114.0,10.0,19.0,D. Brooks                    ·                     J. Crowder                    ·                     J. Jackson                    ·                     J. Morant                    ·                     J. Valančiūnas,J. Jackson,J. Crowder,J. Valanciunas,,
"Sat, Dec 21, 2019",Sacramento Kings,119.0,115.0,11.0,19.0,D. Brooks                    ·                     J. Crowder                    ·                     S. Hill                    ·                     J. Jackson                    ·                     J. Morant,J. Jackson,S. Hill,,,
"Mon, Dec 23, 2019",San Antonio Spurs,115.0,145.0,11.0,20.0,D. Brooks                    ·                     J. Crowder                    ·                     J. Jackson                    ·                     J. Morant                    ·                     J. Valančiūnas,J. Jackson,J. Crowder,J. Valanciunas,,
"Thu, Dec 26, 2019",Oklahoma City Thunder,110.0,97.0,12.0,20.0,D. Brooks                    ·                     J. Crowder                    ·                     J. Jackson                    ·                     J. Morant                    ·                     J. Valančiūnas,J. Jackson,J. Crowder,J. Valanciunas,,
"Sat, Dec 28, 2019",Denver Nuggets,110.0,119.0,12.0,21.0,D. Brooks                    ·                     J. Crowder                    ·                     J. Jackson                    ·                     J. Morant                    ·                     J. Valančiūnas,J. Jackson,J. Crowder,J. Valanciunas,,
"Sun, Dec 29, 2019",Charlotte Hornets,117.0,104.0,13.0,21.0,K. Anderson                    ·                     D. Brooks                    ·                     J. Jackson                    ·                     J. Morant                    ·                     J. Valančiūnas,J. Jackson,D. Brooks,J. Valanciunas,,
"Thu, Jan 2, 2020",Sacramento Kings,123.0,128.0,13.0,22.0,D. Brooks                    ·                     J. Crowder                    ·                     J. Jackson                    ·                     J. Morant                    ·                     J. Valančiūnas,J. Jackson,J. Crowder,J. Valanciunas,,
"Sat, Jan 4, 2020",Los Angeles Clippers,140.0,114.0,14.0,22.0,D. Brooks                    ·                     J. Crowder                    ·                     J. Jackson                    ·                     J. Morant                    ·                     J. Valančiūnas,J. Jackson,J. Crowder,J. Valanciunas,,
"Sun, Jan 5, 2020",Phoenix Suns,121.0,114.0,15.0,22.0,D. Brooks                    ·                     J. Crowder                    ·                     J. Jackson                    ·                     J. Morant                    ·                     J. Valančiūnas,J. Jackson,J. Crowder,J. Valanciunas,,
"Tue, Jan 7, 2020",Minnesota Timberwolves,119.0,112.0,16.0,22.0,D. Brooks                    ·                     J. Crowder                    ·                     J. Jackson                    ·                     J. Morant                    ·                     J. Valančiūnas,J. Jackson,J. Crowder,J. Valanciunas,,
"Fri, Jan 10, 2020",San Antonio Spurs,134.0,121.0,17.0,22.0,D. Brooks                    ·                     J. Crowder                    ·                     J. Jackson                    ·                     J. Morant                    ·                     J. Valančiūnas,J. Jackson,J. Crowder,J. Valanciunas,,
"Sun, Jan 12, 2020",Golden State Warriors,122.0,102.0,18.0,22.0,D. Brooks                    ·                     J. Crowder                    ·                     J. Jackson                    ·                     J. Morant                    ·                     J. Valančiūnas,J. Jackson,J. Crowder,J. Valanciunas,,
"Tue, Jan 14, 2020",Houston Rockets,121.0,110.0,19.0,22.0,K. Anderson                    ·                     D. Brooks                    ·                     J. Jackson                    ·                     J. Morant                    ·                     J. Valančiūnas,J. Jackson,D. Brooks,J. Valanciunas,,
"Fri, Jan 17, 2020",Cleveland Cavaliers,113.0,109.0,20.0,22.0,D. Brooks                    ·                     J. Crowder                    ·                     J. Jackson                    ·                     J. Morant                    ·                     J. Valančiūnas,J. Jackson,J. Crowder,J. Valanciunas,,
"Mon, Jan 20, 2020",New Orleans Pelicans,116.0,126.0,20.0,23.0,D. Brooks                    ·                     J. Crowder                    ·                     J. Jackson                    ·                     J. Morant                    ·                     J. Valančiūnas,J. Jackson,J. Crowder,J. Valanciunas,,
"Wed, Jan 22, 2020",Boston Celtics,95.0,119.0,20.0,24.0,D. Brooks                    ·                     J. Crowder                    ·                     J. Jackson                    ·                     J. Morant                    ·                     J. Valančiūnas,J. Jackson,J. Crowder,J. Valanciunas,,
"Fri, Jan 24, 2020",Detroit Pistons,125.0,112.0,21.0,24.0,D. Brooks                    ·                     J. Crowder                    ·                     J. Jackson                    ·                     J. Morant                    ·                     J. Valančiūnas,J. Jackson,J. Crowder,J. Valanciunas,,
"Sun, Jan 26, 2020",Phoenix Suns,114.0,109.0,22.0,24.0,K. Anderson                    ·                     D. Brooks                    ·                     J. Jackson                    ·                     J. Morant                    ·                     J. Valančiūnas,J. Jackson,D. Brooks,J. Valanciunas,,
"Tue, Jan 28, 2020",Denver Nuggets,104.0,96.0,23.0,24.0,K. Anderson                    ·                     D. Brooks                    ·                     J. Jackson                    ·                     J. Morant                    ·                     J. Valančiūnas,J. Jackson,D. Brooks,J. Valanciunas,,
"Wed, Jan 29, 2020",New York Knicks,127.0,106.0,24.0,24.0,D. Brooks                    ·                     J. Crowder                    ·                     J. Jackson                    ·                     J. Morant                    ·                     J. Valančiūnas,J. Jackson,J. Crowder,J. Valanciunas,,
"Fri, Jan 31, 2020",New Orleans Pelicans,111.0,139.0,24.0,25.0,D. Brooks                    ·                     J. Crowder                    ·                     S. Hill                    ·                     J. Morant                    ·                     J. Valančiūnas,,S. Hill,J. Valanciunas,,
"Mon, Feb 3, 2020",Detroit Pistons,96.0,82.0,25.0,25.0,D. Brooks                    ·                     J. Crowder                    ·                     J. Jackson                    ·                     J. Morant                    ·                     J. Valančiūnas,J. Jackson,J. Crowder,J. Valanciunas,,
"Wed, Feb 5, 2020",Dallas Mavericks,121.0,107.0,26.0,25.0,K. Anderson                    ·                     D. Brooks                    ·                     J. Jackson                    ·                     J. Morant                    ·                     J. Valančiūnas,J. Jackson,D. Brooks,J. Valanciunas,,
"Fri, Feb 7, 2020",Philadelphia 76ers,107.0,119.0,26.0,26.0,K. Anderson                    ·                     D. Brooks                    ·                     J. Jackson                    ·                     J. Morant                    ·                     J. Valančiūnas,J. Jackson,D. Brooks,J. Valanciunas,,
"Sun, Feb 9, 2020",Washington Wizards,106.0,99.0,27.0,26.0,K. Anderson                    ·                     D. Brooks                    ·                     J. Jackson                    ·                     J. Morant                    ·                     J. Valančiūnas,J. Jackson,D. Brooks,J. Valanciunas,,
"Wed, Feb 12, 2020",Portland Trail Blazers,111.0,104.0,28.0,26.0,K. Anderson                    ·                     D. Brooks                    ·                     J. Jackson                    ·                     J. Morant                    ·                     J. Valančiūnas,J. Jackson,D. Brooks,J. Valanciunas,,
"Thu, Feb 20, 2020",Sacramento Kings,125.0,129.0,28.0,27.0,K. Anderson                    ·                     D. Brooks                    ·                     J. Jackson                    ·                     J. Morant                    ·                     J. Valančiūnas,J. Jackson,D. Brooks,J. Valanciunas,,
"Fri, Feb 21, 2020",Los Angeles Lakers,105.0,117.0,28.0,28.0,K. Anderson                    ·                     D. Brooks                    ·                     J. Jackson                    ·                     J. Morant                    ·                     J. Valančiūnas,J. Jackson,D. Brooks,J. Valanciunas,,
"Mon, Feb 24, 2020",Los Angeles Clippers,97.0,124.0,28.0,29.0,K. Anderson                    ·                     D. Brooks                    ·                     B. Clarke                    ·                     J. Morant                    ·                     J. Valančiūnas,,D. Brooks,J. Valanciunas,,
"Wed, Feb 26, 2020",Houston Rockets,112.0,140.0,28.0,30.0,K. Anderson                    ·                     D. Brooks                    ·                     D. Melton                    ·                     J. Morant                    ·                     J. Valančiūnas,,D. Brooks,J. Valanciunas,D. Melton,
"Fri, Feb 28, 2020",Sacramento Kings,101.0,104.0,28.0,31.0,K. Anderson                    ·                     D. Brooks                    ·                     D. Melton                    ·                     J. Morant                    ·                     J. Valančiūnas,,D. Brooks,J. Valanciunas,D. Melton,
"Sat, Feb 29, 2020",Los Angeles Lakers,105.0,88.0,29.0,31.0,K. Anderson                    ·                     D. Brooks                    ·                     D. Melton                    ·                     J. Morant                    ·                     J. Valančiūnas,,D. Brooks,J. Valanciunas,D. Melton,
"Mon, Mar 2, 2020",Atlanta Hawks,127.0,88.0,30.0,31.0,K. Anderson                    ·                     D. Brooks                    ·                     D. Melton                    ·                     J. Morant                    ·                     J. Valančiūnas,,D. Brooks,J. Valanciunas,D. Melton,
"Wed, Mar 4, 2020",Brooklyn Nets,118.0,79.0,31.0,31.0,K. Anderson                    ·                     D. Brooks                    ·                     D. Melton                    ·                     J. Morant                    ·                     J. Valančiūnas,,D. Brooks,J. Valanciunas,D. Melton,
"Fri, Mar 6, 2020",Dallas Mavericks,96.0,121.0,31.0,32.0,K. Anderson                    ·                     D. Brooks                    ·                     D. Melton                    ·                     J. Morant                    ·                     J. Valančiūnas,,D. Brooks,J. Valanciunas,D. Melton,
"Sat, Mar 7, 2020",Atlanta Hawks,118.0,101.0,32.0,32.0,K. Anderson                    ·                     D. Brooks                    ·                     D. Melton                    ·                     J. Morant                    ·                     J. Valančiūnas,,D. Brooks,J. Valanciunas,D. Melton,
"Tue, Mar 10, 2020",Orlando Magic,115.0,120.0,32.0,33.0,K. Anderson                    ·                     D. Brooks                    ·                     D. Melton                    ·                     J. Morant                    ·                     J. Valančiūnas,,D. Brooks,J. Valanciunas,D. Melton,
"Fri, Jul 31, 2020",Portland Trail Blazers,135.0,140.0,32.0,34.0,K. Anderson                    ·                     D. Brooks                    ·                     J. Jackson                    ·                     J. Morant                    ·                     J. Valančiūnas,J. Jackson,D. Brooks,J. Valanciunas,,
"Sun, Aug 2, 2020",San Antonio Spurs,106.0,108.0,32.0,35.0,K. Anderson                    ·                     D. Brooks                    ·                     J. Jackson                    ·                     J. Morant                    ·                     J. Valančiūnas,J. Jackson,D. Brooks,J. Valanciunas,,
"Mon, Aug 3, 2020",New Orleans Pelicans,99.0,109.0,32.0,36.0,K. Anderson                    ·                     D. Brooks                    ·                     J. Jackson                    ·                     J. Morant                    ·                     J. Valančiūnas,J. Jackson,D. Brooks,J. Valanciunas,,
"Wed, Aug 5, 2020",Utah Jazz,115.0,124.0,32.0,37.0,K. Anderson                    ·                     D. Brooks                    ·                     B. Clarke                    ·                     J. Morant                    ·                     J. Valančiūnas,,D. Brooks,J. Valanciunas,,
"Fri, Aug 7, 2020",Oklahoma City Thunder,121.0,92.0,33.0,37.0,K. Anderson                    ·                     D. Brooks                    ·                     J. Morant                    ·                     A. Tolliver                    ·                     J. Valančiūnas,A. Tolliver,D. Brooks,J. Valanciunas,,
"Sun, Aug 9, 2020",Toronto Raptors,99.0,108.0,33.0,38.0,K. Anderson                    ·                     D. Brooks                    ·                     J. Morant                    ·                     A. Tolliver                    ·                     J. Valančiūnas,A. Tolliver,D. Brooks,J. Valanciunas,,
"Tue, Aug 11, 2020",Boston Celtics,107.0,122.0,33.0,39.0,K. Anderson                    ·                     D. Brooks                    ·                     J. Morant                    ·                     A. Tolliver                    ·                     J. Valančiūnas,A. Tolliver,D. Brooks,J. Valanciunas,,
"Thu, Aug 13, 2020",Milwaukee Bucks,119.0,106.0,34.0,39.0,K. Anderson                    ·                     D. Brooks                    ·                     J. Morant                    ·                     A. Tolliver                    ·                     J. Valančiūnas,A. Tolliver,D. Brooks,J. Valanciunas,,
