Date,Opponent,Tm,Opp,W,L,Starting Lineup,PF,SF,C,PG,SG
"Tue, Oct 25, 2016",New York Knicks,117.0,88.0,1.0,0.0,K. Irving                    ·                     L. James                    ·                     K. Love                    ·                     J. Smith                    ·                     T. Thompson,T. Thompson,L. James,,K. Irving,J. Smith
"Fri, Oct 28, 2016",Toronto Raptors,94.0,91.0,2.0,0.0,K. Irving                    ·                     L. James                    ·                     K. Love                    ·                     J. Smith                    ·                     T. Thompson,T. Thompson,L. James,,K. Irving,J. Smith
"Sat, Oct 29, 2016",Orlando Magic,105.0,99.0,3.0,0.0,K. Irving                    ·                     L. James                    ·                     K. Love                    ·                     J. Smith                    ·                     T. Thompson,T. Thompson,L. James,,K. Irving,J. Smith
"Tue, Nov 1, 2016",Houston Rockets,128.0,120.0,4.0,0.0,K. Irving                    ·                     L. James                    ·                     K. Love                    ·                     J. Smith                    ·                     T. Thompson,T. Thompson,L. James,,K. Irving,J. Smith
"Thu, Nov 3, 2016",Boston Celtics,128.0,122.0,5.0,0.0,K. Irving                    ·                     L. James                    ·                     K. Love                    ·                     J. Smith                    ·                     T. Thompson,T. Thompson,L. James,,K. Irving,J. Smith
"Sat, Nov 5, 2016",Philadelphia 76ers,102.0,101.0,6.0,0.0,K. Irving                    ·                     L. James                    ·                     K. Love                    ·                     J. Smith                    ·                     T. Thompson,T. Thompson,L. James,,K. Irving,J. Smith
"Tue, Nov 8, 2016",Atlanta Hawks,106.0,110.0,6.0,1.0,K. Irving                    ·                     L. James                    ·                     K. Love                    ·                     J. Smith                    ·                     T. Thompson,T. Thompson,L. James,,K. Irving,J. Smith
"Fri, Nov 11, 2016",Washington Wizards,105.0,94.0,7.0,1.0,K. Irving                    ·                     L. James                    ·                     K. Love                    ·                     J. Smith                    ·                     T. Thompson,T. Thompson,L. James,,K. Irving,J. Smith
"Sun, Nov 13, 2016",Charlotte Hornets,100.0,93.0,8.0,1.0,M. Dunleavy                    ·                     K. Irving                    ·                     L. James                    ·                     K. Love                    ·                     T. Thompson,T. Thompson,L. James,,K. Irving,
"Tue, Nov 15, 2016",Toronto Raptors,121.0,117.0,9.0,1.0,K. Irving                    ·                     L. James                    ·                     R. Jefferson                    ·                     K. Love                    ·                     T. Thompson,T. Thompson,R. Jefferson,,K. Irving,
"Wed, Nov 16, 2016",Indiana Pacers,93.0,103.0,9.0,2.0,K. Irving                    ·                     R. Jefferson                    ·                     K. Love                    ·                     I. Shumpert                    ·                     T. Thompson,T. Thompson,R. Jefferson,,K. Irving,I. Shumpert
"Fri, Nov 18, 2016",Detroit Pistons,104.0,81.0,10.0,2.0,K. Irving                    ·                     L. James                    ·                     K. Love                    ·                     J. Smith                    ·                     T. Thompson,T. Thompson,L. James,,K. Irving,J. Smith
"Wed, Nov 23, 2016",Portland Trail Blazers,137.0,125.0,11.0,2.0,K. Irving                    ·                     L. James                    ·                     K. Love                    ·                     J. Smith                    ·                     T. Thompson,T. Thompson,L. James,,K. Irving,J. Smith
"Fri, Nov 25, 2016",Dallas Mavericks,128.0,90.0,12.0,2.0,K. Irving                    ·                     L. James                    ·                     K. Love                    ·                     J. Smith                    ·                     T. Thompson,T. Thompson,L. James,,K. Irving,J. Smith
"Sun, Nov 27, 2016",Philadelphia 76ers,112.0,108.0,13.0,2.0,K. Irving                    ·                     L. James                    ·                     K. Love                    ·                     J. Smith                    ·                     T. Thompson,T. Thompson,L. James,,K. Irving,J. Smith
"Tue, Nov 29, 2016",Milwaukee Bucks,101.0,118.0,13.0,3.0,K. Irving                    ·                     L. James                    ·                     K. Love                    ·                     J. Smith                    ·                     T. Thompson,T. Thompson,L. James,,K. Irving,J. Smith
"Thu, Dec 1, 2016",Los Angeles Clippers,94.0,113.0,13.0,4.0,K. Irving                    ·                     L. James                    ·                     K. Love                    ·                     J. Smith                    ·                     T. Thompson,T. Thompson,L. James,,K. Irving,J. Smith
"Fri, Dec 2, 2016",Chicago Bulls,105.0,111.0,13.0,5.0,K. Irving                    ·                     L. James                    ·                     K. Love                    ·                     J. Smith                    ·                     T. Thompson,T. Thompson,L. James,,K. Irving,J. Smith
"Mon, Dec 5, 2016",Toronto Raptors,116.0,112.0,14.0,5.0,K. Irving                    ·                     L. James                    ·                     K. Love                    ·                     J. Smith                    ·                     T. Thompson,T. Thompson,L. James,,K. Irving,J. Smith
"Wed, Dec 7, 2016",New York Knicks,126.0,94.0,15.0,5.0,K. Irving                    ·                     L. James                    ·                     D. Liggins                    ·                     K. Love                    ·                     T. Thompson,T. Thompson,L. James,,K. Irving,
"Fri, Dec 9, 2016",Miami Heat,114.0,84.0,16.0,5.0,K. Irving                    ·                     L. James                    ·                     D. Liggins                    ·                     K. Love                    ·                     T. Thompson,T. Thompson,L. James,,K. Irving,
"Sat, Dec 10, 2016",Charlotte Hornets,116.0,105.0,17.0,5.0,K. Irving                    ·                     L. James                    ·                     K. Love                    ·                     J. Smith                    ·                     T. Thompson,T. Thompson,L. James,,K. Irving,J. Smith
"Tue, Dec 13, 2016",Memphis Grizzlies,103.0,86.0,18.0,5.0,L. James                    ·                     D. Liggins                    ·                     K. Love                    ·                     J. Smith                    ·                     T. Thompson,T. Thompson,L. James,,,J. Smith
"Wed, Dec 14, 2016",Memphis Grizzlies,85.0,93.0,18.0,6.0,M. Dunleavy                    ·                     C. Frye                    ·                     D. Liggins                    ·                     J. Smith                    ·                     T. Thompson,T. Thompson,M. Dunleavy,C. Frye,,J. Smith
"Sat, Dec 17, 2016",Los Angeles Lakers,119.0,108.0,19.0,6.0,K. Irving                    ·                     L. James                    ·                     K. Love                    ·                     J. Smith                    ·                     T. Thompson,T. Thompson,L. James,,K. Irving,J. Smith
"Tue, Dec 20, 2016",Milwaukee Bucks,114.0,108.0,20.0,6.0,K. Irving                    ·                     L. James                    ·                     R. Jefferson                    ·                     J. Smith                    ·                     T. Thompson,T. Thompson,R. Jefferson,,K. Irving,J. Smith
"Wed, Dec 21, 2016",Milwaukee Bucks,113.0,102.0,21.0,6.0,K. Irving                    ·                     L. James                    ·                     R. Jefferson                    ·                     D. Liggins                    ·                     T. Thompson,T. Thompson,R. Jefferson,,K. Irving,
"Fri, Dec 23, 2016",Brooklyn Nets,119.0,99.0,22.0,6.0,K. Irving                    ·                     L. James                    ·                     D. Liggins                    ·                     K. Love                    ·                     T. Thompson,T. Thompson,L. James,,K. Irving,
"Sun, Dec 25, 2016",Golden State Warriors,109.0,108.0,23.0,6.0,K. Irving                    ·                     L. James                    ·                     D. Liggins                    ·                     K. Love                    ·                     T. Thompson,T. Thompson,L. James,,K. Irving,
"Mon, Dec 26, 2016",Detroit Pistons,90.0,106.0,23.0,7.0,K. Irving                    ·                     R. Jefferson                    ·                     D. Liggins                    ·                     K. Love                    ·                     T. Thompson,T. Thompson,R. Jefferson,,K. Irving,
"Thu, Dec 29, 2016",Boston Celtics,124.0,118.0,24.0,7.0,K. Irving                    ·                     L. James                    ·                     D. Liggins                    ·                     K. Love                    ·                     T. Thompson,T. Thompson,L. James,,K. Irving,
"Sat, Dec 31, 2016",Charlotte Hornets,121.0,109.0,25.0,7.0,L. James                    ·                     D. Liggins                    ·                     K. Love                    ·                     J. McRae                    ·                     T. Thompson,T. Thompson,L. James,,J. McRae,
"Mon, Jan 2, 2017",New Orleans Pelicans,90.0,82.0,26.0,7.0,L. James                    ·                     D. Liggins                    ·                     K. Love                    ·                     J. McRae                    ·                     T. Thompson,T. Thompson,L. James,,J. McRae,
"Wed, Jan 4, 2017",Chicago Bulls,94.0,106.0,26.0,8.0,C. Frye                    ·                     L. James                    ·                     D. Liggins                    ·                     J. McRae                    ·                     T. Thompson,T. Thompson,L. James,C. Frye,J. McRae,
"Fri, Jan 6, 2017",Brooklyn Nets,116.0,108.0,27.0,8.0,K. Irving                    ·                     L. James                    ·                     D. Liggins                    ·                     K. Love                    ·                     T. Thompson,T. Thompson,L. James,,K. Irving,
"Sun, Jan 8, 2017",Phoenix Suns,120.0,116.0,28.0,8.0,K. Irving                    ·                     L. James                    ·                     D. Liggins                    ·                     K. Love                    ·                     T. Thompson,T. Thompson,L. James,,K. Irving,
"Tue, Jan 10, 2017",Utah Jazz,92.0,100.0,28.0,9.0,K. Irving                    ·                     L. James                    ·                     D. Liggins                    ·                     K. Love                    ·                     T. Thompson,T. Thompson,L. James,,K. Irving,
"Wed, Jan 11, 2017",Portland Trail Blazers,86.0,102.0,28.0,10.0,K. Irving                    ·                     L. James                    ·                     D. Liggins                    ·                     K. Love                    ·                     T. Thompson,T. Thompson,L. James,,K. Irving,
"Fri, Jan 13, 2017",Sacramento Kings,120.0,108.0,29.0,10.0,K. Irving                    ·                     L. James                    ·                     K. Love                    ·                     I. Shumpert                    ·                     T. Thompson,T. Thompson,L. James,,K. Irving,I. Shumpert
"Mon, Jan 16, 2017",Golden State Warriors,91.0,126.0,29.0,11.0,K. Irving                    ·                     L. James                    ·                     K. Love                    ·                     I. Shumpert                    ·                     T. Thompson,T. Thompson,L. James,,K. Irving,I. Shumpert
"Thu, Jan 19, 2017",Phoenix Suns,118.0,103.0,30.0,11.0,K. Irving                    ·                     L. James                    ·                     J. Jones                    ·                     I. Shumpert                    ·                     T. Thompson,T. Thompson,J. Jones,,K. Irving,I. Shumpert
"Sat, Jan 21, 2017",San Antonio Spurs,115.0,118.0,30.0,12.0,K. Irving                    ·                     L. James                    ·                     K. Love                    ·                     I. Shumpert                    ·                     T. Thompson,T. Thompson,L. James,,K. Irving,I. Shumpert
"Mon, Jan 23, 2017",New Orleans Pelicans,122.0,124.0,30.0,13.0,K. Irving                    ·                     L. James                    ·                     K. Love                    ·                     I. Shumpert                    ·                     T. Thompson,T. Thompson,L. James,,K. Irving,I. Shumpert
"Wed, Jan 25, 2017",Sacramento Kings,112.0,116.0,30.0,14.0,K. Irving                    ·                     L. James                    ·                     K. Love                    ·                     I. Shumpert                    ·                     T. Thompson,T. Thompson,L. James,,K. Irving,I. Shumpert
"Fri, Jan 27, 2017",Brooklyn Nets,124.0,116.0,31.0,14.0,K. Irving                    ·                     L. James                    ·                     K. Love                    ·                     I. Shumpert                    ·                     T. Thompson,T. Thompson,L. James,,K. Irving,I. Shumpert
"Sun, Jan 29, 2017",Oklahoma City Thunder,107.0,91.0,32.0,14.0,K. Irving                    ·                     L. James                    ·                     K. Love                    ·                     I. Shumpert                    ·                     T. Thompson,T. Thompson,L. James,,K. Irving,I. Shumpert
"Mon, Jan 30, 2017",Dallas Mavericks,97.0,104.0,32.0,15.0,K. Irving                    ·                     L. James                    ·                     R. Jefferson                    ·                     I. Shumpert                    ·                     T. Thompson,T. Thompson,R. Jefferson,,K. Irving,I. Shumpert
"Wed, Feb 1, 2017",Minnesota Timberwolves,125.0,97.0,33.0,15.0,C. Frye                    ·                     K. Irving                    ·                     L. James                    ·                     I. Shumpert                    ·                     T. Thompson,T. Thompson,L. James,C. Frye,K. Irving,I. Shumpert
"Sat, Feb 4, 2017",New York Knicks,111.0,104.0,34.0,15.0,L. James                    ·                     D. Liggins                    ·                     K. Love                    ·                     I. Shumpert                    ·                     T. Thompson,T. Thompson,L. James,,,I. Shumpert
"Mon, Feb 6, 2017",Washington Wizards,140.0,135.0,35.0,15.0,K. Irving                    ·                     L. James                    ·                     K. Love                    ·                     I. Shumpert                    ·                     T. Thompson,T. Thompson,L. James,,K. Irving,I. Shumpert
"Wed, Feb 8, 2017",Indiana Pacers,132.0,117.0,36.0,15.0,K. Irving                    ·                     L. James                    ·                     D. Liggins                    ·                     K. Love                    ·                     T. Thompson,T. Thompson,L. James,,K. Irving,
"Thu, Feb 9, 2017",Oklahoma City Thunder,109.0,118.0,36.0,16.0,K. Irving                    ·                     L. James                    ·                     K. Love                    ·                     J. McRae                    ·                     T. Thompson,T. Thompson,L. James,,J. McRae,
"Sat, Feb 11, 2017",Denver Nuggets,125.0,109.0,37.0,16.0,K. Irving                    ·                     L. James                    ·                     D. Liggins                    ·                     K. Love                    ·                     T. Thompson,T. Thompson,L. James,,K. Irving,
"Tue, Feb 14, 2017",Minnesota Timberwolves,116.0,108.0,38.0,16.0,C. Frye                    ·                     K. Irving                    ·                     L. James                    ·                     I. Shumpert                    ·                     T. Thompson,T. Thompson,L. James,C. Frye,K. Irving,I. Shumpert
"Wed, Feb 15, 2017",Indiana Pacers,113.0,104.0,39.0,16.0,C. Frye                    ·                     K. Irving                    ·                     L. James                    ·                     I. Shumpert                    ·                     T. Thompson,T. Thompson,L. James,C. Frye,K. Irving,I. Shumpert
"Thu, Feb 23, 2017",New York Knicks,119.0,104.0,40.0,16.0,C. Frye                    ·                     K. Irving                    ·                     L. James                    ·                     I. Shumpert                    ·                     T. Thompson,T. Thompson,L. James,C. Frye,K. Irving,I. Shumpert
"Sat, Feb 25, 2017",Chicago Bulls,99.0,117.0,40.0,17.0,C. Frye                    ·                     K. Irving                    ·                     R. Jefferson                    ·                     I. Shumpert                    ·                     T. Thompson,T. Thompson,R. Jefferson,C. Frye,K. Irving,I. Shumpert
"Mon, Feb 27, 2017",Milwaukee Bucks,102.0,95.0,41.0,17.0,K. Irving                    ·                     L. James                    ·                     R. Jefferson                    ·                     I. Shumpert                    ·                     T. Thompson,T. Thompson,R. Jefferson,,K. Irving,I. Shumpert
"Wed, Mar 1, 2017",Boston Celtics,99.0,103.0,41.0,18.0,C. Frye                    ·                     K. Irving                    ·                     L. James                    ·                     I. Shumpert                    ·                     T. Thompson,T. Thompson,L. James,C. Frye,K. Irving,I. Shumpert
"Fri, Mar 3, 2017",Atlanta Hawks,135.0,130.0,42.0,18.0,C. Frye                    ·                     K. Irving                    ·                     L. James                    ·                     I. Shumpert                    ·                     T. Thompson,T. Thompson,L. James,C. Frye,K. Irving,I. Shumpert
"Sat, Mar 4, 2017",Miami Heat,92.0,120.0,42.0,19.0,J. Jones                    ·                     K. Korver                    ·                     I. Shumpert                    ·                     T. Thompson                    ·                     D. Williams,T. Thompson,J. Jones,,D. Williams,I. Shumpert
"Mon, Mar 6, 2017",Miami Heat,98.0,106.0,42.0,20.0,K. Irving                    ·                     L. James                    ·                     R. Jefferson                    ·                     I. Shumpert                    ·                     T. Thompson,T. Thompson,R. Jefferson,,K. Irving,I. Shumpert
"Thu, Mar 9, 2017",Detroit Pistons,101.0,106.0,42.0,21.0,K. Irving                    ·                     L. James                    ·                     R. Jefferson                    ·                     I. Shumpert                    ·                     T. Thompson,T. Thompson,R. Jefferson,,K. Irving,I. Shumpert
"Sat, Mar 11, 2017",Orlando Magic,116.0,104.0,43.0,21.0,K. Irving                    ·                     L. James                    ·                     R. Jefferson                    ·                     I. Shumpert                    ·                     T. Thompson,T. Thompson,R. Jefferson,,K. Irving,I. Shumpert
"Sun, Mar 12, 2017",Houston Rockets,112.0,117.0,43.0,22.0,K. Irving                    ·                     L. James                    ·                     R. Jefferson                    ·                     I. Shumpert                    ·                     T. Thompson,T. Thompson,R. Jefferson,,K. Irving,I. Shumpert
"Tue, Mar 14, 2017",Detroit Pistons,128.0,96.0,44.0,22.0,K. Irving                    ·                     L. James                    ·                     R. Jefferson                    ·                     I. Shumpert                    ·                     T. Thompson,T. Thompson,R. Jefferson,,K. Irving,I. Shumpert
"Thu, Mar 16, 2017",Utah Jazz,91.0,83.0,45.0,22.0,K. Irving                    ·                     L. James                    ·                     K. Love                    ·                     I. Shumpert                    ·                     T. Thompson,T. Thompson,L. James,,K. Irving,I. Shumpert
"Sat, Mar 18, 2017",Los Angeles Clippers,78.0,108.0,45.0,23.0,C. Frye                    ·                     I. Shumpert                    ·                     J. Smith                    ·                     T. Thompson                    ·                     D. Williams,T. Thompson,,C. Frye,D. Williams,J. Smith
"Sun, Mar 19, 2017",Los Angeles Lakers,125.0,120.0,46.0,23.0,K. Irving                    ·                     L. James                    ·                     K. Love                    ·                     I. Shumpert                    ·                     T. Thompson,T. Thompson,L. James,,K. Irving,I. Shumpert
"Wed, Mar 22, 2017",Denver Nuggets,113.0,126.0,46.0,24.0,K. Irving                    ·                     L. James                    ·                     K. Love                    ·                     J. Smith                    ·                     T. Thompson,T. Thompson,L. James,,K. Irving,J. Smith
"Fri, Mar 24, 2017",Charlotte Hornets,112.0,105.0,47.0,24.0,K. Irving                    ·                     L. James                    ·                     K. Love                    ·                     J. Smith                    ·                     T. Thompson,T. Thompson,L. James,,K. Irving,J. Smith
"Sat, Mar 25, 2017",Washington Wizards,115.0,127.0,47.0,25.0,K. Irving                    ·                     L. James                    ·                     K. Love                    ·                     J. Smith                    ·                     T. Thompson,T. Thompson,L. James,,K. Irving,J. Smith
"Mon, Mar 27, 2017",San Antonio Spurs,74.0,103.0,47.0,26.0,K. Irving                    ·                     L. James                    ·                     K. Love                    ·                     J. Smith                    ·                     T. Thompson,T. Thompson,L. James,,K. Irving,J. Smith
"Thu, Mar 30, 2017",Chicago Bulls,93.0,99.0,47.0,27.0,K. Irving                    ·                     L. James                    ·                     K. Love                    ·                     J. Smith                    ·                     T. Thompson,T. Thompson,L. James,,K. Irving,J. Smith
"Fri, Mar 31, 2017",Philadelphia 76ers,122.0,105.0,48.0,27.0,K. Irving                    ·                     L. James                    ·                     K. Love                    ·                     J. Smith                    ·                     T. Thompson,T. Thompson,L. James,,K. Irving,J. Smith
"Sun, Apr 2, 2017",Indiana Pacers,135.0,130.0,49.0,27.0,K. Irving                    ·                     L. James                    ·                     K. Love                    ·                     J. Smith                    ·                     T. Thompson,T. Thompson,L. James,,K. Irving,J. Smith
"Tue, Apr 4, 2017",Orlando Magic,122.0,102.0,50.0,27.0,K. Irving                    ·                     L. James                    ·                     K. Love                    ·                     J. Smith                    ·                     T. Thompson,T. Thompson,L. James,,K. Irving,J. Smith
"Wed, Apr 5, 2017",Boston Celtics,114.0,91.0,51.0,27.0,C. Frye                    ·                     K. Irving                    ·                     L. James                    ·                     K. Love                    ·                     J. Smith,K. Love,L. James,C. Frye,K. Irving,J. Smith
"Fri, Apr 7, 2017",Atlanta Hawks,100.0,114.0,51.0,28.0,C. Frye                    ·                     K. Irving                    ·                     L. James                    ·                     K. Love                    ·                     J. Smith,K. Love,L. James,C. Frye,K. Irving,J. Smith
"Sun, Apr 9, 2017",Atlanta Hawks,125.0,126.0,51.0,29.0,C. Frye                    ·                     K. Irving                    ·                     L. James                    ·                     K. Love                    ·                     J. Smith,K. Love,L. James,C. Frye,K. Irving,J. Smith
"Mon, Apr 10, 2017",Miami Heat,121.0,124.0,51.0,30.0,C. Frye                    ·                     K. Love                    ·                     I. Shumpert                    ·                     J. Smith                    ·                     D. Williams,K. Love,,C. Frye,D. Williams,J. Smith
"Wed, Apr 12, 2017",Toronto Raptors,83.0,98.0,51.0,31.0,C. Frye                    ·                     I. Shumpert                    ·                     J. Smith                    ·                     T. Thompson                    ·                     D. Williams,T. Thompson,,C. Frye,D. Williams,J. Smith
