Date,Opponent,Tm,Opp,W,L,Starting Lineup,PF,SF,C,PG,SG
"Wed, Dec 23, 2020",Chicago Bulls,124.0,104.0,1.0,0.0,J. Collins                    ·                     D. Gallinari                    ·                     D. Hunter                    ·                     C. Reddish                    ·                     T. Young,D. Gallinari,C. Reddish,,T. Young,
"Sat, Dec 26, 2020",Memphis Grizzlies,122.0,112.0,2.0,0.0,B. Bogdanović                    ·                     J. Collins                    ·                     D. Hunter                    ·                     C. Reddish                    ·                     T. Young,J. Collins,C. Reddish,,T. Young,B. Bogdanovic
"Mon, Dec 28, 2020",Detroit Pistons,128.0,120.0,3.0,0.0,C. Capela                    ·                     J. Collins                    ·                     D. Hunter                    ·                     C. Reddish                    ·                     T. Young,J. Collins,C. Reddish,C. Capela,T. Young,
"Wed, Dec 30, 2020",Brooklyn Nets,141.0,145.0,3.0,1.0,C. Capela                    ·                     J. Collins                    ·                     D. Hunter                    ·                     C. Reddish                    ·                     T. Young,J. Collins,C. Reddish,C. Capela,T. Young,
"Fri, Jan 1, 2021",Brooklyn Nets,114.0,96.0,4.0,1.0,C. Capela                    ·                     J. Collins                    ·                     D. Hunter                    ·                     C. Reddish                    ·                     T. Young,J. Collins,C. Reddish,C. Capela,T. Young,
"Sat, Jan 2, 2021",Cleveland Cavaliers,91.0,96.0,4.0,2.0,C. Capela                    ·                     J. Collins                    ·                     D. Hunter                    ·                     C. Reddish                    ·                     T. Young,J. Collins,C. Reddish,C. Capela,T. Young,
"Mon, Jan 4, 2021",New York Knicks,108.0,113.0,4.0,3.0,C. Capela                    ·                     J. Collins                    ·                     D. Hunter                    ·                     C. Reddish                    ·                     T. Young,J. Collins,C. Reddish,C. Capela,T. Young,
"Wed, Jan 6, 2021",Charlotte Hornets,94.0,102.0,4.0,4.0,C. Capela                    ·                     J. Collins                    ·                     D. Hunter                    ·                     C. Reddish                    ·                     T. Young,J. Collins,C. Reddish,C. Capela,T. Young,
"Sat, Jan 9, 2021",Charlotte Hornets,105.0,113.0,4.0,5.0,B. Bogdanović                    ·                     C. Capela                    ·                     J. Collins                    ·                     D. Hunter                    ·                     T. Young,J. Collins,D. Hunter,C. Capela,T. Young,B. Bogdanovic
"Mon, Jan 11, 2021",Philadelphia 76ers,112.0,94.0,5.0,5.0,C. Capela                    ·                     J. Collins                    ·                     D. Hunter                    ·                     C. Reddish                    ·                     T. Young,J. Collins,C. Reddish,C. Capela,T. Young,
"Fri, Jan 15, 2021",Utah Jazz,92.0,116.0,5.0,6.0,C. Capela                    ·                     J. Collins                    ·                     D. Hunter                    ·                     C. Reddish                    ·                     T. Young,J. Collins,C. Reddish,C. Capela,T. Young,
"Sat, Jan 16, 2021",Portland Trail Blazers,106.0,112.0,5.0,7.0,C. Capela                    ·                     J. Collins                    ·                     K. Huerter                    ·                     D. Hunter                    ·                     T. Young,J. Collins,D. Hunter,C. Capela,T. Young,K. Huerter
"Mon, Jan 18, 2021",Minnesota Timberwolves,108.0,97.0,6.0,7.0,C. Capela                    ·                     J. Collins                    ·                     K. Huerter                    ·                     D. Hunter                    ·                     T. Young,J. Collins,D. Hunter,C. Capela,T. Young,K. Huerter
"Wed, Jan 20, 2021",Detroit Pistons,123.0,115.0,7.0,7.0,C. Capela                    ·                     J. Collins                    ·                     S. Hill                    ·                     K. Huerter                    ·                     T. Young,S. Hill,,C. Capela,T. Young,K. Huerter
"Fri, Jan 22, 2021",Minnesota Timberwolves,116.0,98.0,8.0,7.0,C. Capela                    ·                     J. Collins                    ·                     K. Huerter                    ·                     D. Hunter                    ·                     T. Young,J. Collins,D. Hunter,C. Capela,T. Young,K. Huerter
"Sun, Jan 24, 2021",Milwaukee Bucks,115.0,129.0,8.0,8.0,J. Collins                    ·                     K. Huerter                    ·                     D. Hunter                    ·                     O. Okongwu                    ·                     R. Rondo,J. Collins,D. Hunter,,R. Rondo,K. Huerter
"Tue, Jan 26, 2021",Los Angeles Clippers,108.0,99.0,9.0,8.0,C. Capela                    ·                     J. Collins                    ·                     K. Huerter                    ·                     D. Hunter                    ·                     T. Young,J. Collins,D. Hunter,C. Capela,T. Young,K. Huerter
"Wed, Jan 27, 2021",Brooklyn Nets,128.0,132.0,9.0,9.0,C. Capela                    ·                     J. Collins                    ·                     K. Huerter                    ·                     D. Hunter                    ·                     T. Young,J. Collins,D. Hunter,C. Capela,T. Young,K. Huerter
"Fri, Jan 29, 2021",Washington Wizards,116.0,100.0,10.0,9.0,C. Capela                    ·                     J. Collins                    ·                     K. Huerter                    ·                     D. Hunter                    ·                     T. Young,J. Collins,D. Hunter,C. Capela,T. Young,K. Huerter
"Mon, Feb 1, 2021",Los Angeles Lakers,99.0,107.0,10.0,10.0,C. Capela                    ·                     J. Collins                    ·                     K. Huerter                    ·                     C. Reddish                    ·                     T. Young,J. Collins,C. Reddish,C. Capela,T. Young,K. Huerter
"Wed, Feb 3, 2021",Dallas Mavericks,116.0,122.0,10.0,11.0,C. Capela                    ·                     J. Collins                    ·                     K. Huerter                    ·                     C. Reddish                    ·                     T. Young,J. Collins,C. Reddish,C. Capela,T. Young,K. Huerter
"Thu, Feb 4, 2021",Utah Jazz,91.0,112.0,10.0,12.0,C. Capela                    ·                     J. Collins                    ·                     K. Huerter                    ·                     C. Reddish                    ·                     R. Rondo,J. Collins,C. Reddish,C. Capela,R. Rondo,K. Huerter
"Sat, Feb 6, 2021",Toronto Raptors,132.0,121.0,11.0,12.0,C. Capela                    ·                     J. Collins                    ·                     K. Huerter                    ·                     C. Reddish                    ·                     T. Young,J. Collins,C. Reddish,C. Capela,T. Young,K. Huerter
"Wed, Feb 10, 2021",Dallas Mavericks,117.0,118.0,11.0,13.0,C. Capela                    ·                     J. Collins                    ·                     K. Huerter                    ·                     C. Reddish                    ·                     T. Young,J. Collins,C. Reddish,C. Capela,T. Young,K. Huerter
"Fri, Feb 12, 2021",San Antonio Spurs,114.0,125.0,11.0,14.0,C. Capela                    ·                     J. Collins                    ·                     K. Huerter                    ·                     C. Reddish                    ·                     T. Young,J. Collins,C. Reddish,C. Capela,T. Young,K. Huerter
"Sat, Feb 13, 2021",Indiana Pacers,113.0,125.0,11.0,15.0,C. Capela                    ·                     J. Collins                    ·                     K. Huerter                    ·                     C. Reddish                    ·                     T. Young,J. Collins,C. Reddish,C. Capela,T. Young,K. Huerter
"Mon, Feb 15, 2021",New York Knicks,112.0,123.0,11.0,16.0,C. Capela                    ·                     J. Collins                    ·                     K. Huerter                    ·                     C. Reddish                    ·                     T. Young,J. Collins,C. Reddish,C. Capela,T. Young,K. Huerter
"Wed, Feb 17, 2021",Boston Celtics,122.0,114.0,12.0,16.0,C. Capela                    ·                     J. Collins                    ·                     K. Huerter                    ·                     C. Reddish                    ·                     T. Young,J. Collins,C. Reddish,C. Capela,T. Young,K. Huerter
"Fri, Feb 19, 2021",Boston Celtics,109.0,121.0,12.0,17.0,C. Capela                    ·                     J. Collins                    ·                     K. Huerter                    ·                     C. Reddish                    ·                     T. Young,J. Collins,C. Reddish,C. Capela,T. Young,K. Huerter
"Sun, Feb 21, 2021",Denver Nuggets,123.0,115.0,13.0,17.0,C. Capela                    ·                     J. Collins                    ·                     K. Huerter                    ·                     C. Reddish                    ·                     T. Young,J. Collins,C. Reddish,C. Capela,T. Young,K. Huerter
"Tue, Feb 23, 2021",Cleveland Cavaliers,111.0,112.0,13.0,18.0,C. Capela                    ·                     J. Collins                    ·                     K. Huerter                    ·                     T. Snell                    ·                     T. Young,J. Collins,T. Snell,C. Capela,T. Young,K. Huerter
"Wed, Feb 24, 2021",Boston Celtics,127.0,112.0,14.0,18.0,C. Capela                    ·                     J. Collins                    ·                     K. Huerter                    ·                     T. Snell                    ·                     T. Young,J. Collins,T. Snell,C. Capela,T. Young,K. Huerter
"Fri, Feb 26, 2021",Oklahoma City Thunder,109.0,118.0,14.0,19.0,C. Capela                    ·                     J. Collins                    ·                     K. Huerter                    ·                     T. Snell                    ·                     T. Young,J. Collins,T. Snell,C. Capela,T. Young,K. Huerter
"Sun, Feb 28, 2021",Miami Heat,99.0,109.0,14.0,20.0,C. Capela                    ·                     J. Collins                    ·                     K. Huerter                    ·                     T. Snell                    ·                     T. Young,J. Collins,T. Snell,C. Capela,T. Young,K. Huerter
"Tue, Mar 2, 2021",Miami Heat,94.0,80.0,15.0,20.0,C. Capela                    ·                     J. Collins                    ·                     K. Huerter                    ·                     T. Snell                    ·                     T. Young,J. Collins,T. Snell,C. Capela,T. Young,K. Huerter
"Wed, Mar 3, 2021",Orlando Magic,115.0,112.0,16.0,20.0,J. Collins                    ·                     D. Gallinari                    ·                     K. Huerter                    ·                     T. Snell                    ·                     T. Young,D. Gallinari,T. Snell,,T. Young,K. Huerter
"Thu, Mar 11, 2021",Toronto Raptors,121.0,120.0,17.0,20.0,C. Capela                    ·                     J. Collins                    ·                     K. Huerter                    ·                     T. Snell                    ·                     T. Young,J. Collins,T. Snell,C. Capela,T. Young,K. Huerter
"Sat, Mar 13, 2021",Sacramento Kings,121.0,106.0,18.0,20.0,C. Capela                    ·                     J. Collins                    ·                     K. Huerter                    ·                     T. Snell                    ·                     T. Young,J. Collins,T. Snell,C. Capela,T. Young,K. Huerter
"Sun, Mar 14, 2021",Cleveland Cavaliers,100.0,82.0,19.0,20.0,J. Collins                    ·                     D. Gallinari                    ·                     K. Huerter                    ·                     T. Snell                    ·                     T. Young,D. Gallinari,T. Snell,,T. Young,K. Huerter
"Tue, Mar 16, 2021",Houston Rockets,119.0,107.0,20.0,20.0,J. Collins                    ·                     D. Gallinari                    ·                     K. Huerter                    ·                     T. Snell                    ·                     T. Young,D. Gallinari,T. Snell,,T. Young,K. Huerter
"Thu, Mar 18, 2021",Oklahoma City Thunder,116.0,93.0,21.0,20.0,C. Capela                    ·                     J. Collins                    ·                     K. Huerter                    ·                     T. Snell                    ·                     T. Young,J. Collins,T. Snell,C. Capela,T. Young,K. Huerter
"Sat, Mar 20, 2021",Los Angeles Lakers,99.0,94.0,22.0,20.0,C. Capela                    ·                     J. Collins                    ·                     K. Huerter                    ·                     T. Snell                    ·                     T. Young,J. Collins,T. Snell,C. Capela,T. Young,K. Huerter
"Mon, Mar 22, 2021",Los Angeles Clippers,110.0,119.0,22.0,21.0,C. Capela                    ·                     J. Collins                    ·                     K. Huerter                    ·                     T. Snell                    ·                     T. Young,J. Collins,T. Snell,C. Capela,T. Young,K. Huerter
"Wed, Mar 24, 2021",Sacramento Kings,108.0,110.0,22.0,22.0,C. Capela                    ·                     J. Collins                    ·                     K. Huerter                    ·                     T. Snell                    ·                     T. Young,J. Collins,T. Snell,C. Capela,T. Young,K. Huerter
"Fri, Mar 26, 2021",Golden State Warriors,124.0,108.0,23.0,22.0,B. Bogdanović                    ·                     C. Capela                    ·                     J. Collins                    ·                     T. Snell                    ·                     T. Young,J. Collins,T. Snell,C. Capela,T. Young,B. Bogdanovic
"Sun, Mar 28, 2021",Denver Nuggets,102.0,126.0,23.0,23.0,B. Bogdanović                    ·                     C. Capela                    ·                     J. Collins                    ·                     T. Snell                    ·                     T. Young,J. Collins,T. Snell,C. Capela,T. Young,B. Bogdanovic
"Tue, Mar 30, 2021",Phoenix Suns,110.0,117.0,23.0,24.0,B. Bogdanović                    ·                     C. Capela                    ·                     J. Collins                    ·                     T. Snell                    ·                     T. Young,J. Collins,T. Snell,C. Capela,T. Young,B. Bogdanovic
"Thu, Apr 1, 2021",San Antonio Spurs,134.0,129.0,24.0,24.0,B. Bogdanović                    ·                     C. Capela                    ·                     S. Hill                    ·                     T. Snell                    ·                     T. Young,S. Hill,T. Snell,C. Capela,T. Young,B. Bogdanovic
"Fri, Apr 2, 2021",New Orleans Pelicans,126.0,103.0,25.0,24.0,B. Bogdanović                    ·                     C. Capela                    ·                     B. Goodwin                    ·                     S. Hill                    ·                     K. Huerter,S. Hill,,C. Capela,B. Goodwin,K. Huerter
"Sun, Apr 4, 2021",Golden State Warriors,117.0,111.0,26.0,24.0,B. Bogdanović                    ·                     C. Capela                    ·                     S. Hill                    ·                     K. Huerter                    ·                     T. Young,S. Hill,,C. Capela,T. Young,K. Huerter
"Tue, Apr 6, 2021",New Orleans Pelicans,123.0,107.0,27.0,24.0,B. Bogdanović                    ·                     C. Capela                    ·                     S. Hill                    ·                     K. Huerter                    ·                     T. Young,S. Hill,,C. Capela,T. Young,K. Huerter
"Wed, Apr 7, 2021",Memphis Grizzlies,113.0,131.0,27.0,25.0,B. Bogdanović                    ·                     S. Hill                    ·                     K. Huerter                    ·                     O. Okongwu                    ·                     T. Young,S. Hill,,,T. Young,K. Huerter
"Fri, Apr 9, 2021",Chicago Bulls,120.0,108.0,28.0,25.0,B. Bogdanović                    ·                     C. Capela                    ·                     S. Hill                    ·                     K. Huerter                    ·                     T. Young,S. Hill,,C. Capela,T. Young,K. Huerter
"Sun, Apr 11, 2021",Charlotte Hornets,105.0,101.0,29.0,25.0,B. Bogdanović                    ·                     C. Capela                    ·                     B. Goodwin                    ·                     S. Hill                    ·                     K. Huerter,S. Hill,,C. Capela,B. Goodwin,K. Huerter
"Tue, Apr 13, 2021",Toronto Raptors,108.0,103.0,30.0,25.0,B. Bogdanović                    ·                     C. Capela                    ·                     B. Goodwin                    ·                     S. Hill                    ·                     K. Huerter,S. Hill,,C. Capela,B. Goodwin,K. Huerter
"Thu, Apr 15, 2021",Milwaukee Bucks,109.0,120.0,30.0,26.0,B. Bogdanović                    ·                     C. Capela                    ·                     S. Hill                    ·                     K. Huerter                    ·                     T. Young,S. Hill,,C. Capela,T. Young,K. Huerter
"Sun, Apr 18, 2021",Indiana Pacers,129.0,117.0,31.0,26.0,B. Bogdanović                    ·                     C. Capela                    ·                     J. Collins                    ·                     K. Huerter                    ·                     T. Young,J. Collins,,C. Capela,T. Young,K. Huerter
