Date,Opponent,Tm,Opp,W,L,Starting Lineup,PF,SF,C,PG,SG
"Wed, Oct 17, 2018",Utah Jazz,117.0,123.0,0.0,1.0,N. Bjelica                    ·                     W. Cauley-Stein                    ·                     Y. Ferrell                    ·                     D. Fox                    ·                     B. Hield,N. Bjelica,,W. Cauley,D. Fox,B. Hield
"Fri, Oct 19, 2018",New Orleans Pelicans,129.0,149.0,0.0,2.0,N. Bjelica                    ·                     W. Cauley-Stein                    ·                     Y. Ferrell                    ·                     D. Fox                    ·                     B. Hield,N. Bjelica,,W. Cauley,D. Fox,B. Hield
"Sun, Oct 21, 2018",Oklahoma City Thunder,131.0,120.0,1.0,2.0,N. Bjelica                    ·                     W. Cauley-Stein                    ·                     D. Fox                    ·                     B. Hield                    ·                     I. Shumpert,N. Bjelica,,W. Cauley,D. Fox,I. Shumpert
"Tue, Oct 23, 2018",Denver Nuggets,112.0,126.0,1.0,3.0,N. Bjelica                    ·                     W. Cauley-Stein                    ·                     D. Fox                    ·                     B. Hield                    ·                     I. Shumpert,N. Bjelica,,W. Cauley,D. Fox,I. Shumpert
"Wed, Oct 24, 2018",Memphis Grizzlies,97.0,92.0,2.0,3.0,N. Bjelica                    ·                     W. Cauley-Stein                    ·                     D. Fox                    ·                     B. Hield                    ·                     J. Jackson,N. Bjelica,J. Jackson,W. Cauley,D. Fox,B. Hield
"Fri, Oct 26, 2018",Washington Wizards,116.0,112.0,3.0,3.0,N. Bjelica                    ·                     W. Cauley-Stein                    ·                     D. Fox                    ·                     B. Hield                    ·                     I. Shumpert,N. Bjelica,,W. Cauley,D. Fox,I. Shumpert
"Mon, Oct 29, 2018",Miami Heat,123.0,113.0,4.0,3.0,N. Bjelica                    ·                     W. Cauley-Stein                    ·                     D. Fox                    ·                     B. Hield                    ·                     I. Shumpert,N. Bjelica,,W. Cauley,D. Fox,I. Shumpert
"Tue, Oct 30, 2018",Orlando Magic,107.0,99.0,5.0,3.0,N. Bjelica                    ·                     W. Cauley-Stein                    ·                     D. Fox                    ·                     B. Hield                    ·                     J. Jackson,N. Bjelica,J. Jackson,W. Cauley,D. Fox,B. Hield
"Thu, Nov 1, 2018",Atlanta Hawks,146.0,115.0,6.0,3.0,N. Bjelica                    ·                     W. Cauley-Stein                    ·                     D. Fox                    ·                     B. Hield                    ·                     I. Shumpert,N. Bjelica,,W. Cauley,D. Fox,I. Shumpert
"Sun, Nov 4, 2018",Milwaukee Bucks,109.0,144.0,6.0,4.0,N. Bjelica                    ·                     W. Cauley-Stein                    ·                     D. Fox                    ·                     B. Hield                    ·                     I. Shumpert,N. Bjelica,,W. Cauley,D. Fox,I. Shumpert
"Wed, Nov 7, 2018",Toronto Raptors,105.0,114.0,6.0,5.0,N. Bjelica                    ·                     W. Cauley-Stein                    ·                     D. Fox                    ·                     B. Hield                    ·                     I. Shumpert,N. Bjelica,,W. Cauley,D. Fox,I. Shumpert
"Fri, Nov 9, 2018",Minnesota Timberwolves,121.0,110.0,7.0,5.0,N. Bjelica                    ·                     W. Cauley-Stein                    ·                     D. Fox                    ·                     B. Hield                    ·                     I. Shumpert,N. Bjelica,,W. Cauley,D. Fox,I. Shumpert
"Sat, Nov 10, 2018",Los Angeles Lakers,86.0,101.0,7.0,6.0,N. Bjelica                    ·                     W. Cauley-Stein                    ·                     D. Fox                    ·                     B. Hield                    ·                     I. Shumpert,N. Bjelica,,W. Cauley,D. Fox,I. Shumpert
"Mon, Nov 12, 2018",San Antonio Spurs,104.0,99.0,8.0,6.0,N. Bjelica                    ·                     W. Cauley-Stein                    ·                     D. Fox                    ·                     B. Hield                    ·                     I. Shumpert,N. Bjelica,,W. Cauley,D. Fox,I. Shumpert
"Fri, Nov 16, 2018",Memphis Grizzlies,104.0,112.0,8.0,7.0,N. Bjelica                    ·                     W. Cauley-Stein                    ·                     D. Fox                    ·                     B. Hield                    ·                     I. Shumpert,N. Bjelica,,W. Cauley,D. Fox,I. Shumpert
"Sat, Nov 17, 2018",Houston Rockets,112.0,132.0,8.0,8.0,N. Bjelica                    ·                     W. Cauley-Stein                    ·                     D. Fox                    ·                     B. Hield                    ·                     I. Shumpert,N. Bjelica,,W. Cauley,D. Fox,I. Shumpert
"Mon, Nov 19, 2018",Oklahoma City Thunder,117.0,113.0,9.0,8.0,N. Bjelica                    ·                     W. Cauley-Stein                    ·                     D. Fox                    ·                     B. Hield                    ·                     I. Shumpert,N. Bjelica,,W. Cauley,D. Fox,I. Shumpert
"Wed, Nov 21, 2018",Utah Jazz,119.0,110.0,10.0,8.0,N. Bjelica                    ·                     W. Cauley-Stein                    ·                     D. Fox                    ·                     B. Hield                    ·                     I. Shumpert,N. Bjelica,,W. Cauley,D. Fox,I. Shumpert
"Sat, Nov 24, 2018",Golden State Warriors,116.0,117.0,10.0,9.0,N. Bjelica                    ·                     W. Cauley-Stein                    ·                     D. Fox                    ·                     B. Hield                    ·                     I. Shumpert,N. Bjelica,,W. Cauley,D. Fox,I. Shumpert
"Sun, Nov 25, 2018",Utah Jazz,112.0,133.0,10.0,10.0,N. Bjelica                    ·                     B. Bogdanović                    ·                     W. Cauley-Stein                    ·                     D. Fox                    ·                     B. Hield,N. Bjelica,,W. Cauley,D. Fox,B. Hield
"Thu, Nov 29, 2018",Los Angeles Clippers,121.0,133.0,10.0,11.0,N. Bjelica                    ·                     W. Cauley-Stein                    ·                     D. Fox                    ·                     B. Hield                    ·                     I. Shumpert,N. Bjelica,,W. Cauley,D. Fox,I. Shumpert
"Sat, Dec 1, 2018",Indiana Pacers,111.0,110.0,11.0,11.0,N. Bjelica                    ·                     W. Cauley-Stein                    ·                     D. Fox                    ·                     B. Hield                    ·                     I. Shumpert,N. Bjelica,,W. Cauley,D. Fox,I. Shumpert
"Tue, Dec 4, 2018",Phoenix Suns,122.0,105.0,12.0,11.0,N. Bjelica                    ·                     W. Cauley-Stein                    ·                     D. Fox                    ·                     B. Hield                    ·                     I. Shumpert,N. Bjelica,,W. Cauley,D. Fox,I. Shumpert
"Fri, Dec 7, 2018",Cleveland Cavaliers,129.0,110.0,13.0,11.0,N. Bjelica                    ·                     W. Cauley-Stein                    ·                     D. Fox                    ·                     B. Hield                    ·                     I. Shumpert,N. Bjelica,,W. Cauley,D. Fox,I. Shumpert
"Sat, Dec 8, 2018",Indiana Pacers,97.0,107.0,13.0,12.0,N. Bjelica                    ·                     B. Bogdanović                    ·                     W. Cauley-Stein                    ·                     D. Fox                    ·                     B. Hield,N. Bjelica,,W. Cauley,D. Fox,B. Hield
"Mon, Dec 10, 2018",Chicago Bulls,108.0,89.0,14.0,12.0,N. Bjelica                    ·                     W. Cauley-Stein                    ·                     D. Fox                    ·                     B. Hield                    ·                     I. Shumpert,N. Bjelica,,W. Cauley,D. Fox,I. Shumpert
"Wed, Dec 12, 2018",Minnesota Timberwolves,141.0,130.0,15.0,12.0,N. Bjelica                    ·                     W. Cauley-Stein                    ·                     D. Fox                    ·                     B. Hield                    ·                     I. Shumpert,N. Bjelica,,W. Cauley,D. Fox,I. Shumpert
"Fri, Dec 14, 2018",Golden State Warriors,125.0,130.0,15.0,13.0,N. Bjelica                    ·                     W. Cauley-Stein                    ·                     D. Fox                    ·                     B. Hield                    ·                     I. Shumpert,N. Bjelica,,W. Cauley,D. Fox,I. Shumpert
"Sun, Dec 16, 2018",Dallas Mavericks,120.0,113.0,16.0,13.0,N. Bjelica                    ·                     B. Bogdanović                    ·                     W. Cauley-Stein                    ·                     D. Fox                    ·                     B. Hield,N. Bjelica,,W. Cauley,D. Fox,B. Hield
"Mon, Dec 17, 2018",Minnesota Timberwolves,105.0,132.0,16.0,14.0,N. Bjelica                    ·                     B. Bogdanović                    ·                     W. Cauley-Stein                    ·                     D. Fox                    ·                     B. Hield,N. Bjelica,,W. Cauley,D. Fox,B. Hield
"Wed, Dec 19, 2018",Oklahoma City Thunder,113.0,132.0,16.0,15.0,N. Bjelica                    ·                     W. Cauley-Stein                    ·                     D. Fox                    ·                     B. Hield                    ·                     J. Jackson,N. Bjelica,J. Jackson,W. Cauley,D. Fox,B. Hield
"Fri, Dec 21, 2018",Memphis Grizzlies,102.0,99.0,17.0,15.0,W. Cauley-Stein                    ·                     D. Fox                    ·                     B. Hield                    ·                     K. Koufos                    ·                     I. Shumpert,,,K. Koufos,D. Fox,I. Shumpert
"Sun, Dec 23, 2018",New Orleans Pelicans,122.0,117.0,18.0,15.0,N. Bjelica                    ·                     W. Cauley-Stein                    ·                     D. Fox                    ·                     B. Hield                    ·                     I. Shumpert,N. Bjelica,,W. Cauley,D. Fox,I. Shumpert
"Wed, Dec 26, 2018",Los Angeles Clippers,118.0,127.0,18.0,16.0,N. Bjelica                    ·                     W. Cauley-Stein                    ·                     D. Fox                    ·                     B. Hield                    ·                     I. Shumpert,N. Bjelica,,W. Cauley,D. Fox,I. Shumpert
"Thu, Dec 27, 2018",Los Angeles Lakers,117.0,116.0,19.0,16.0,N. Bjelica                    ·                     W. Cauley-Stein                    ·                     D. Fox                    ·                     B. Hield                    ·                     I. Shumpert,N. Bjelica,,W. Cauley,D. Fox,I. Shumpert
"Sun, Dec 30, 2018",Los Angeles Lakers,114.0,121.0,19.0,17.0,N. Bjelica                    ·                     W. Cauley-Stein                    ·                     D. Fox                    ·                     B. Hield                    ·                     I. Shumpert,N. Bjelica,,W. Cauley,D. Fox,I. Shumpert
"Tue, Jan 1, 2019",Portland Trail Blazers,108.0,113.0,19.0,18.0,N. Bjelica                    ·                     W. Cauley-Stein                    ·                     D. Fox                    ·                     B. Hield                    ·                     I. Shumpert,N. Bjelica,,W. Cauley,D. Fox,I. Shumpert
"Thu, Jan 3, 2019",Denver Nuggets,113.0,117.0,19.0,19.0,N. Bjelica                    ·                     W. Cauley-Stein                    ·                     D. Fox                    ·                     B. Hield                    ·                     I. Shumpert,N. Bjelica,,W. Cauley,D. Fox,I. Shumpert
"Sat, Jan 5, 2019",Golden State Warriors,123.0,127.0,19.0,20.0,N. Bjelica                    ·                     B. Bogdanović                    ·                     W. Cauley-Stein                    ·                     D. Fox                    ·                     B. Hield,N. Bjelica,,W. Cauley,D. Fox,B. Hield
"Mon, Jan 7, 2019",Orlando Magic,111.0,95.0,20.0,20.0,N. Bjelica                    ·                     B. Bogdanović                    ·                     W. Cauley-Stein                    ·                     D. Fox                    ·                     B. Hield,N. Bjelica,,W. Cauley,D. Fox,B. Hield
"Tue, Jan 8, 2019",Phoenix Suns,111.0,115.0,20.0,21.0,N. Bjelica                    ·                     B. Bogdanović                    ·                     W. Cauley-Stein                    ·                     D. Fox                    ·                     B. Hield,N. Bjelica,,W. Cauley,D. Fox,B. Hield
"Thu, Jan 10, 2019",Detroit Pistons,112.0,102.0,21.0,21.0,N. Bjelica                    ·                     W. Cauley-Stein                    ·                     D. Fox                    ·                     B. Hield                    ·                     I. Shumpert,N. Bjelica,,W. Cauley,D. Fox,I. Shumpert
"Sat, Jan 12, 2019",Charlotte Hornets,104.0,97.0,22.0,21.0,N. Bjelica                    ·                     W. Cauley-Stein                    ·                     D. Fox                    ·                     B. Hield                    ·                     I. Shumpert,N. Bjelica,,W. Cauley,D. Fox,I. Shumpert
"Mon, Jan 14, 2019",Portland Trail Blazers,115.0,107.0,23.0,21.0,N. Bjelica                    ·                     W. Cauley-Stein                    ·                     D. Fox                    ·                     B. Hield                    ·                     I. Shumpert,N. Bjelica,,W. Cauley,D. Fox,I. Shumpert
"Thu, Jan 17, 2019",Charlotte Hornets,95.0,114.0,23.0,22.0,N. Bjelica                    ·                     W. Cauley-Stein                    ·                     D. Fox                    ·                     B. Hield                    ·                     I. Shumpert,N. Bjelica,,W. Cauley,D. Fox,I. Shumpert
"Sat, Jan 19, 2019",Detroit Pistons,103.0,101.0,24.0,22.0,N. Bjelica                    ·                     W. Cauley-Stein                    ·                     D. Fox                    ·                     B. Hield                    ·                     I. Shumpert,N. Bjelica,,W. Cauley,D. Fox,I. Shumpert
"Mon, Jan 21, 2019",Brooklyn Nets,94.0,123.0,24.0,23.0,N. Bjelica                    ·                     W. Cauley-Stein                    ·                     D. Fox                    ·                     B. Hield                    ·                     I. Shumpert,N. Bjelica,,W. Cauley,D. Fox,I. Shumpert
"Tue, Jan 22, 2019",Toronto Raptors,105.0,120.0,24.0,24.0,M. Bagley                    ·                     B. Bogdanović                    ·                     W. Cauley-Stein                    ·                     Y. Ferrell                    ·                     B. Hield,,,W. Cauley,,B. Hield
"Fri, Jan 25, 2019",Memphis Grizzlies,99.0,96.0,25.0,24.0,N. Bjelica                    ·                     W. Cauley-Stein                    ·                     D. Fox                    ·                     B. Hield                    ·                     I. Shumpert,N. Bjelica,,W. Cauley,D. Fox,I. Shumpert
"Sun, Jan 27, 2019",Los Angeles Clippers,108.0,122.0,25.0,25.0,N. Bjelica                    ·                     W. Cauley-Stein                    ·                     D. Fox                    ·                     B. Hield                    ·                     I. Shumpert,N. Bjelica,,W. Cauley,D. Fox,I. Shumpert
"Wed, Jan 30, 2019",Atlanta Hawks,135.0,113.0,26.0,25.0,N. Bjelica                    ·                     W. Cauley-Stein                    ·                     D. Fox                    ·                     B. Hield                    ·                     I. Shumpert,N. Bjelica,,W. Cauley,D. Fox,I. Shumpert
"Sat, Feb 2, 2019",Philadelphia 76ers,115.0,108.0,27.0,25.0,N. Bjelica                    ·                     W. Cauley-Stein                    ·                     D. Fox                    ·                     B. Hield                    ·                     I. Shumpert,N. Bjelica,,W. Cauley,D. Fox,I. Shumpert
"Mon, Feb 4, 2019",San Antonio Spurs,127.0,112.0,28.0,25.0,N. Bjelica                    ·                     W. Cauley-Stein                    ·                     D. Fox                    ·                     B. Hield                    ·                     I. Shumpert,N. Bjelica,,W. Cauley,D. Fox,I. Shumpert
"Wed, Feb 6, 2019",Houston Rockets,101.0,127.0,28.0,26.0,N. Bjelica                    ·                     B. Bogdanović                    ·                     W. Cauley-Stein                    ·                     D. Fox                    ·                     B. Hield,N. Bjelica,,W. Cauley,D. Fox,B. Hield
"Fri, Feb 8, 2019",Miami Heat,102.0,96.0,29.0,26.0,H. Barnes                    ·                     N. Bjelica                    ·                     W. Cauley-Stein                    ·                     D. Fox                    ·                     B. Hield,N. Bjelica,,W. Cauley,D. Fox,B. Hield
"Sun, Feb 10, 2019",Phoenix Suns,117.0,104.0,30.0,26.0,H. Barnes                    ·                     N. Bjelica                    ·                     W. Cauley-Stein                    ·                     D. Fox                    ·                     B. Hield,N. Bjelica,,W. Cauley,D. Fox,B. Hield
"Wed, Feb 13, 2019",Denver Nuggets,118.0,120.0,30.0,27.0,H. Barnes                    ·                     N. Bjelica                    ·                     W. Cauley-Stein                    ·                     D. Fox                    ·                     B. Hield,N. Bjelica,,W. Cauley,D. Fox,B. Hield
"Thu, Feb 21, 2019",Golden State Warriors,123.0,125.0,30.0,28.0,H. Barnes                    ·                     B. Bogdanović                    ·                     W. Cauley-Stein                    ·                     D. Fox                    ·                     B. Hield,H. Barnes,,W. Cauley,D. Fox,B. Hield
"Sat, Feb 23, 2019",Oklahoma City Thunder,119.0,116.0,31.0,28.0,H. Barnes                    ·                     B. Bogdanović                    ·                     W. Cauley-Stein                    ·                     D. Fox                    ·                     B. Hield,H. Barnes,,W. Cauley,D. Fox,B. Hield
"Mon, Feb 25, 2019",Minnesota Timberwolves,105.0,112.0,31.0,29.0,M. Bagley                    ·                     H. Barnes                    ·                     W. Cauley-Stein                    ·                     D. Fox                    ·                     B. Hield,H. Barnes,,W. Cauley,D. Fox,B. Hield
"Wed, Feb 27, 2019",Milwaukee Bucks,140.0,141.0,31.0,30.0,H. Barnes                    ·                     B. Bogdanović                    ·                     W. Cauley-Stein                    ·                     D. Fox                    ·                     B. Hield,H. Barnes,,W. Cauley,D. Fox,B. Hield
"Fri, Mar 1, 2019",Los Angeles Clippers,109.0,116.0,31.0,31.0,H. Barnes                    ·                     B. Bogdanović                    ·                     W. Cauley-Stein                    ·                     D. Fox                    ·                     B. Hield,H. Barnes,,W. Cauley,D. Fox,B. Hield
"Mon, Mar 4, 2019",New York Knicks,115.0,108.0,32.0,31.0,H. Barnes                    ·                     B. Bogdanović                    ·                     W. Cauley-Stein                    ·                     D. Fox                    ·                     B. Hield,H. Barnes,,W. Cauley,D. Fox,B. Hield
"Wed, Mar 6, 2019",Boston Celtics,109.0,111.0,32.0,32.0,H. Barnes                    ·                     B. Bogdanović                    ·                     W. Cauley-Stein                    ·                     D. Fox                    ·                     B. Hield,H. Barnes,,W. Cauley,D. Fox,B. Hield
"Sat, Mar 9, 2019",New York Knicks,102.0,94.0,33.0,32.0,H. Barnes                    ·                     B. Bogdanović                    ·                     W. Cauley-Stein                    ·                     D. Fox                    ·                     B. Hield,H. Barnes,,W. Cauley,D. Fox,B. Hield
"Mon, Mar 11, 2019",Washington Wizards,115.0,121.0,33.0,33.0,H. Barnes                    ·                     B. Bogdanović                    ·                     W. Cauley-Stein                    ·                     D. Fox                    ·                     B. Hield,H. Barnes,,W. Cauley,D. Fox,B. Hield
"Thu, Mar 14, 2019",Boston Celtics,120.0,126.0,33.0,34.0,H. Barnes                    ·                     N. Bjelica                    ·                     W. Cauley-Stein                    ·                     D. Fox                    ·                     B. Hield,N. Bjelica,,W. Cauley,D. Fox,B. Hield
"Fri, Mar 15, 2019",Philadelphia 76ers,114.0,123.0,33.0,35.0,H. Barnes                    ·                     N. Bjelica                    ·                     W. Cauley-Stein                    ·                     D. Fox                    ·                     B. Hield,N. Bjelica,,W. Cauley,D. Fox,B. Hield
"Sun, Mar 17, 2019",Chicago Bulls,129.0,102.0,34.0,35.0,H. Barnes                    ·                     N. Bjelica                    ·                     W. Cauley-Stein                    ·                     D. Fox                    ·                     B. Hield,N. Bjelica,,W. Cauley,D. Fox,B. Hield
"Tue, Mar 19, 2019",Brooklyn Nets,121.0,123.0,34.0,36.0,H. Barnes                    ·                     N. Bjelica                    ·                     W. Cauley-Stein                    ·                     D. Fox                    ·                     B. Hield,N. Bjelica,,W. Cauley,D. Fox,B. Hield
"Thu, Mar 21, 2019",Dallas Mavericks,116.0,100.0,35.0,36.0,H. Barnes                    ·                     N. Bjelica                    ·                     W. Cauley-Stein                    ·                     D. Fox                    ·                     B. Hield,N. Bjelica,,W. Cauley,D. Fox,B. Hield
"Sat, Mar 23, 2019",Phoenix Suns,112.0,103.0,36.0,36.0,H. Barnes                    ·                     N. Bjelica                    ·                     W. Cauley-Stein                    ·                     D. Fox                    ·                     B. Hield,N. Bjelica,,W. Cauley,D. Fox,B. Hield
"Sun, Mar 24, 2019",Los Angeles Lakers,106.0,111.0,36.0,37.0,H. Barnes                    ·                     N. Bjelica                    ·                     W. Cauley-Stein                    ·                     D. Fox                    ·                     B. Hield,N. Bjelica,,W. Cauley,D. Fox,B. Hield
"Tue, Mar 26, 2019",Dallas Mavericks,125.0,121.0,37.0,37.0,H. Barnes                    ·                     N. Bjelica                    ·                     W. Cauley-Stein                    ·                     D. Fox                    ·                     B. Hield,N. Bjelica,,W. Cauley,D. Fox,B. Hield
"Thu, Mar 28, 2019",New Orleans Pelicans,118.0,121.0,37.0,38.0,H. Barnes                    ·                     N. Bjelica                    ·                     W. Cauley-Stein                    ·                     D. Fox                    ·                     B. Hield,N. Bjelica,,W. Cauley,D. Fox,B. Hield
"Sat, Mar 30, 2019",Houston Rockets,108.0,119.0,37.0,39.0,M. Bagley                    ·                     H. Barnes                    ·                     W. Cauley-Stein                    ·                     D. Fox                    ·                     B. Hield,H. Barnes,,W. Cauley,D. Fox,B. Hield
"Sun, Mar 31, 2019",San Antonio Spurs,113.0,106.0,38.0,39.0,H. Barnes                    ·                     N. Bjelica                    ·                     W. Cauley-Stein                    ·                     D. Fox                    ·                     B. Hield,N. Bjelica,,W. Cauley,D. Fox,B. Hield
"Tue, Apr 2, 2019",Houston Rockets,105.0,130.0,38.0,40.0,H. Barnes                    ·                     N. Bjelica                    ·                     W. Cauley-Stein                    ·                     D. Fox                    ·                     B. Hield,N. Bjelica,,W. Cauley,D. Fox,B. Hield
"Thu, Apr 4, 2019",Cleveland Cavaliers,117.0,104.0,39.0,40.0,H. Barnes                    ·                     N. Bjelica                    ·                     W. Cauley-Stein                    ·                     D. Fox                    ·                     B. Hield,N. Bjelica,,W. Cauley,D. Fox,B. Hield
"Fri, Apr 5, 2019",Utah Jazz,98.0,119.0,39.0,41.0,M. Bagley                    ·                     H. Barnes                    ·                     N. Bjelica                    ·                     D. Fox                    ·                     B. Hield,N. Bjelica,,,D. Fox,B. Hield
"Sun, Apr 7, 2019",New Orleans Pelicans,129.0,133.0,39.0,42.0,H. Barnes                    ·                     N. Bjelica                    ·                     W. Cauley-Stein                    ·                     D. Fox                    ·                     B. Hield,N. Bjelica,,W. Cauley,D. Fox,B. Hield
"Wed, Apr 10, 2019",Portland Trail Blazers,131.0,136.0,39.0,43.0,H. Barnes                    ·                     N. Bjelica                    ·                     W. Cauley-Stein                    ·                     D. Fox                    ·                     B. Hield,N. Bjelica,,W. Cauley,D. Fox,B. Hield
