Date,Opponent,Tm,Opp,W,L,Starting Lineup,PF,SF,C,PG,SG
"Tue, Oct 22, 2019",Los Angeles Clippers,102.0,112.0,0.0,1.0,A. Bradley                    ·                     A. Davis                    ·                     D. Green                    ·                     L. James                    ·                     J. McGee,,L. James,J. McGee,,D. Green
"Fri, Oct 25, 2019",Utah Jazz,95.0,86.0,1.0,1.0,A. Bradley                    ·                     A. Davis                    ·                     D. Green                    ·                     L. James                    ·                     J. McGee,,L. James,J. McGee,,D. Green
"Sun, Oct 27, 2019",Charlotte Hornets,120.0,101.0,2.0,1.0,A. Bradley                    ·                     A. Davis                    ·                     D. Green                    ·                     L. James                    ·                     J. McGee,,L. James,J. McGee,,D. Green
"Tue, Oct 29, 2019",Memphis Grizzlies,120.0,91.0,3.0,1.0,A. Bradley                    ·                     A. Davis                    ·                     D. Green                    ·                     L. James                    ·                     J. McGee,,L. James,J. McGee,,D. Green
"Fri, Nov 1, 2019",Dallas Mavericks,119.0,110.0,4.0,1.0,A. Bradley                    ·                     A. Davis                    ·                     D. Green                    ·                     L. James                    ·                     J. McGee,,L. James,J. McGee,,D. Green
"Sun, Nov 3, 2019",San Antonio Spurs,103.0,96.0,5.0,1.0,A. Bradley                    ·                     A. Davis                    ·                     D. Green                    ·                     L. James                    ·                     J. McGee,,L. James,J. McGee,,D. Green
"Tue, Nov 5, 2019",Chicago Bulls,118.0,112.0,6.0,1.0,K. Caldwell-Pope                    ·                     A. Davis                    ·                     D. Green                    ·                     L. James                    ·                     J. McGee,,L. James,J. McGee,,D. Green
"Fri, Nov 8, 2019",Miami Heat,95.0,80.0,7.0,1.0,A. Bradley                    ·                     A. Davis                    ·                     D. Green                    ·                     L. James                    ·                     J. McGee,,L. James,J. McGee,,D. Green
"Sun, Nov 10, 2019",Toronto Raptors,104.0,113.0,7.0,2.0,A. Bradley                    ·                     A. Davis                    ·                     D. Green                    ·                     L. James                    ·                     J. McGee,,L. James,J. McGee,,D. Green
"Tue, Nov 12, 2019",Phoenix Suns,123.0,115.0,8.0,2.0,A. Bradley                    ·                     A. Davis                    ·                     D. Green                    ·                     L. James                    ·                     J. McGee,,L. James,J. McGee,,D. Green
"Wed, Nov 13, 2019",Golden State Warriors,120.0,94.0,9.0,2.0,A. Bradley                    ·                     D. Green                    ·                     L. James                    ·                     K. Kuzma                    ·                     J. McGee,K. Kuzma,L. James,J. McGee,,D. Green
"Fri, Nov 15, 2019",Sacramento Kings,99.0,97.0,10.0,2.0,K. Caldwell-Pope                    ·                     A. Davis                    ·                     D. Green                    ·                     L. James                    ·                     J. McGee,,L. James,J. McGee,,D. Green
"Sun, Nov 17, 2019",Atlanta Hawks,122.0,101.0,11.0,2.0,K. Caldwell-Pope                    ·                     A. Davis                    ·                     D. Green                    ·                     L. James                    ·                     J. McGee,,L. James,J. McGee,,D. Green
"Tue, Nov 19, 2019",Oklahoma City Thunder,112.0,107.0,12.0,2.0,K. Caldwell-Pope                    ·                     A. Davis                    ·                     D. Green                    ·                     L. James                    ·                     J. McGee,,L. James,J. McGee,,D. Green
"Fri, Nov 22, 2019",Oklahoma City Thunder,130.0,127.0,13.0,2.0,K. Caldwell-Pope                    ·                     A. Davis                    ·                     D. Green                    ·                     L. James                    ·                     J. McGee,,L. James,J. McGee,,D. Green
"Sat, Nov 23, 2019",Memphis Grizzlies,109.0,108.0,14.0,2.0,K. Caldwell-Pope                    ·                     A. Davis                    ·                     D. Green                    ·                     L. James                    ·                     J. McGee,,L. James,J. McGee,,D. Green
"Mon, Nov 25, 2019",San Antonio Spurs,114.0,104.0,15.0,2.0,K. Caldwell-Pope                    ·                     A. Davis                    ·                     D. Green                    ·                     L. James                    ·                     J. McGee,,L. James,J. McGee,,D. Green
"Wed, Nov 27, 2019",New Orleans Pelicans,114.0,110.0,16.0,2.0,K. Caldwell-Pope                    ·                     A. Davis                    ·                     D. Green                    ·                     L. James                    ·                     J. McGee,,L. James,J. McGee,,D. Green
"Fri, Nov 29, 2019",Washington Wizards,125.0,103.0,17.0,2.0,K. Caldwell-Pope                    ·                     A. Davis                    ·                     D. Green                    ·                     L. James                    ·                     J. McGee,,L. James,J. McGee,,D. Green
"Sun, Dec 1, 2019",Dallas Mavericks,100.0,114.0,17.0,3.0,K. Caldwell-Pope                    ·                     A. Davis                    ·                     D. Green                    ·                     L. James                    ·                     J. McGee,,L. James,J. McGee,,D. Green
"Tue, Dec 3, 2019",Denver Nuggets,105.0,96.0,18.0,3.0,K. Caldwell-Pope                    ·                     A. Davis                    ·                     D. Green                    ·                     L. James                    ·                     J. McGee,,L. James,J. McGee,,D. Green
"Wed, Dec 4, 2019",Utah Jazz,121.0,96.0,19.0,3.0,K. Caldwell-Pope                    ·                     A. Davis                    ·                     D. Green                    ·                     L. James                    ·                     J. McGee,,L. James,J. McGee,,D. Green
"Fri, Dec 6, 2019",Portland Trail Blazers,136.0,113.0,20.0,3.0,K. Caldwell-Pope                    ·                     A. Davis                    ·                     D. Green                    ·                     L. James                    ·                     J. McGee,,L. James,J. McGee,,D. Green
"Sun, Dec 8, 2019",Minnesota Timberwolves,142.0,125.0,21.0,3.0,K. Caldwell-Pope                    ·                     A. Davis                    ·                     D. Green                    ·                     L. James                    ·                     J. McGee,,L. James,J. McGee,,D. Green
"Wed, Dec 11, 2019",Orlando Magic,96.0,87.0,22.0,3.0,K. Caldwell-Pope                    ·                     A. Davis                    ·                     D. Green                    ·                     L. James                    ·                     J. McGee,,L. James,J. McGee,,D. Green
"Fri, Dec 13, 2019",Miami Heat,113.0,110.0,23.0,3.0,K. Caldwell-Pope                    ·                     A. Davis                    ·                     D. Green                    ·                     L. James                    ·                     J. McGee,,L. James,J. McGee,,D. Green
"Sun, Dec 15, 2019",Atlanta Hawks,101.0,96.0,24.0,3.0,K. Caldwell-Pope                    ·                     A. Davis                    ·                     D. Green                    ·                     L. James                    ·                     J. McGee,,L. James,J. McGee,,D. Green
"Tue, Dec 17, 2019",Indiana Pacers,102.0,105.0,24.0,4.0,K. Caldwell-Pope                    ·                     J. Dudley                    ·                     D. Green                    ·                     L. James                    ·                     J. McGee,J. Dudley,L. James,J. McGee,,D. Green
"Thu, Dec 19, 2019",Milwaukee Bucks,104.0,111.0,24.0,5.0,K. Caldwell-Pope                    ·                     A. Davis                    ·                     D. Green                    ·                     L. James                    ·                     J. McGee,,L. James,J. McGee,,D. Green
"Sun, Dec 22, 2019",Denver Nuggets,104.0,128.0,24.0,6.0,A. Bradley                    ·                     A. Davis                    ·                     D. Green                    ·                     J. McGee                    ·                     R. Rondo,,,J. McGee,R. Rondo,D. Green
"Wed, Dec 25, 2019",Los Angeles Clippers,106.0,111.0,24.0,7.0,A. Bradley                    ·                     A. Davis                    ·                     D. Green                    ·                     L. James                    ·                     J. McGee,,L. James,J. McGee,,D. Green
"Sat, Dec 28, 2019",Portland Trail Blazers,128.0,120.0,25.0,7.0,A. Bradley                    ·                     A. Davis                    ·                     D. Green                    ·                     L. James                    ·                     J. McGee,,L. James,J. McGee,,D. Green
"Sun, Dec 29, 2019",Dallas Mavericks,108.0,95.0,26.0,7.0,A. Bradley                    ·                     A. Davis                    ·                     D. Green                    ·                     L. James                    ·                     J. McGee,,L. James,J. McGee,,D. Green
"Wed, Jan 1, 2020",Phoenix Suns,117.0,107.0,27.0,7.0,A. Bradley                    ·                     A. Davis                    ·                     D. Green                    ·                     L. James                    ·                     J. McGee,,L. James,J. McGee,,D. Green
"Fri, Jan 3, 2020",New Orleans Pelicans,123.0,113.0,28.0,7.0,A. Bradley                    ·                     A. Davis                    ·                     D. Green                    ·                     L. James                    ·                     J. McGee,,L. James,J. McGee,,D. Green
"Sun, Jan 5, 2020",Detroit Pistons,106.0,99.0,29.0,7.0,A. Bradley                    ·                     A. Davis                    ·                     D. Green                    ·                     L. James                    ·                     J. McGee,,L. James,J. McGee,,D. Green
"Tue, Jan 7, 2020",New York Knicks,117.0,87.0,30.0,7.0,A. Bradley                    ·                     A. Davis                    ·                     D. Green                    ·                     L. James                    ·                     J. McGee,,L. James,J. McGee,,D. Green
"Fri, Jan 10, 2020",Dallas Mavericks,129.0,114.0,31.0,7.0,A. Bradley                    ·                     D. Green                    ·                     L. James                    ·                     K. Kuzma                    ·                     J. McGee,K. Kuzma,L. James,J. McGee,,D. Green
"Sat, Jan 11, 2020",Oklahoma City Thunder,125.0,110.0,32.0,7.0,A. Bradley                    ·                     K. Caldwell-Pope                    ·                     K. Kuzma                    ·                     J. McGee                    ·                     R. Rondo,K. Kuzma,,J. McGee,R. Rondo,K. Caldwell
"Mon, Jan 13, 2020",Cleveland Cavaliers,128.0,99.0,33.0,7.0,A. Bradley                    ·                     D. Green                    ·                     L. James                    ·                     K. Kuzma                    ·                     J. McGee,K. Kuzma,L. James,J. McGee,,D. Green
"Wed, Jan 15, 2020",Orlando Magic,118.0,119.0,33.0,8.0,A. Bradley                    ·                     D. Green                    ·                     L. James                    ·                     K. Kuzma                    ·                     J. McGee,K. Kuzma,L. James,J. McGee,,D. Green
"Sat, Jan 18, 2020",Houston Rockets,124.0,115.0,34.0,8.0,A. Bradley                    ·                     D. Green                    ·                     L. James                    ·                     K. Kuzma                    ·                     J. McGee,K. Kuzma,L. James,J. McGee,,D. Green
"Mon, Jan 20, 2020",Boston Celtics,107.0,139.0,34.0,9.0,A. Bradley                    ·                     A. Davis                    ·                     D. Green                    ·                     L. James                    ·                     J. McGee,,L. James,J. McGee,,D. Green
"Wed, Jan 22, 2020",New York Knicks,100.0,92.0,35.0,9.0,A. Bradley                    ·                     A. Davis                    ·                     D. Green                    ·                     L. James                    ·                     J. McGee,,L. James,J. McGee,,D. Green
"Thu, Jan 23, 2020",Brooklyn Nets,128.0,113.0,36.0,9.0,A. Bradley                    ·                     A. Davis                    ·                     D. Green                    ·                     D. Howard                    ·                     L. James,,L. James,D. Howard,,D. Green
"Sat, Jan 25, 2020",Philadelphia 76ers,91.0,108.0,36.0,10.0,A. Bradley                    ·                     A. Davis                    ·                     D. Green                    ·                     D. Howard                    ·                     L. James,,L. James,D. Howard,,D. Green
"Fri, Jan 31, 2020",Portland Trail Blazers,119.0,127.0,36.0,11.0,A. Bradley                    ·                     A. Davis                    ·                     D. Green                    ·                     L. James                    ·                     J. McGee,,L. James,J. McGee,,D. Green
"Sat, Feb 1, 2020",Sacramento Kings,129.0,113.0,37.0,11.0,A. Bradley                    ·                     A. Davis                    ·                     D. Green                    ·                     L. James                    ·                     J. McGee,,L. James,J. McGee,,D. Green
"Tue, Feb 4, 2020",San Antonio Spurs,129.0,102.0,38.0,11.0,A. Bradley                    ·                     A. Davis                    ·                     D. Green                    ·                     L. James                    ·                     J. McGee,,L. James,J. McGee,,D. Green
"Thu, Feb 6, 2020",Houston Rockets,111.0,121.0,38.0,12.0,A. Bradley                    ·                     A. Davis                    ·                     D. Green                    ·                     L. James                    ·                     J. McGee,,L. James,J. McGee,,D. Green
"Sat, Feb 8, 2020",Golden State Warriors,125.0,120.0,39.0,12.0,A. Bradley                    ·                     A. Davis                    ·                     D. Green                    ·                     L. James                    ·                     J. McGee,,L. James,J. McGee,,D. Green
"Mon, Feb 10, 2020",Phoenix Suns,125.0,100.0,40.0,12.0,A. Bradley                    ·                     A. Davis                    ·                     D. Green                    ·                     L. James                    ·                     J. McGee,,L. James,J. McGee,,D. Green
"Wed, Feb 12, 2020",Denver Nuggets,120.0,116.0,41.0,12.0,A. Bradley                    ·                     A. Davis                    ·                     D. Green                    ·                     L. James                    ·                     J. McGee,,L. James,J. McGee,,D. Green
"Fri, Feb 21, 2020",Memphis Grizzlies,117.0,105.0,42.0,12.0,A. Bradley                    ·                     A. Davis                    ·                     D. Green                    ·                     L. James                    ·                     J. McGee,,L. James,J. McGee,,D. Green
"Sun, Feb 23, 2020",Boston Celtics,114.0,112.0,43.0,12.0,A. Bradley                    ·                     A. Davis                    ·                     D. Green                    ·                     L. James                    ·                     J. McGee,,L. James,J. McGee,,D. Green
"Tue, Feb 25, 2020",New Orleans Pelicans,118.0,109.0,44.0,12.0,A. Bradley                    ·                     A. Davis                    ·                     D. Green                    ·                     L. James                    ·                     J. McGee,,L. James,J. McGee,,D. Green
"Thu, Feb 27, 2020",Golden State Warriors,116.0,86.0,45.0,12.0,A. Bradley                    ·                     A. Davis                    ·                     D. Green                    ·                     J. McGee                    ·                     R. Rondo,,,J. McGee,R. Rondo,D. Green
"Sat, Feb 29, 2020",Memphis Grizzlies,88.0,105.0,45.0,13.0,A. Bradley                    ·                     A. Caruso                    ·                     A. Davis                    ·                     L. James                    ·                     J. McGee,,L. James,J. McGee,A. Caruso,A. Bradley
"Sun, Mar 1, 2020",New Orleans Pelicans,122.0,114.0,46.0,13.0,A. Bradley                    ·                     D. Green                    ·                     L. James                    ·                     K. Kuzma                    ·                     J. McGee,K. Kuzma,L. James,J. McGee,,D. Green
"Tue, Mar 3, 2020",Philadelphia 76ers,120.0,107.0,47.0,13.0,A. Bradley                    ·                     A. Davis                    ·                     D. Green                    ·                     L. James                    ·                     J. McGee,,L. James,J. McGee,,D. Green
"Fri, Mar 6, 2020",Milwaukee Bucks,113.0,103.0,48.0,13.0,A. Bradley                    ·                     A. Davis                    ·                     D. Green                    ·                     L. James                    ·                     J. McGee,,L. James,J. McGee,,D. Green
"Sun, Mar 8, 2020",Los Angeles Clippers,112.0,103.0,49.0,13.0,A. Bradley                    ·                     A. Davis                    ·                     D. Green                    ·                     L. James                    ·                     J. McGee,,L. James,J. McGee,,D. Green
"Tue, Mar 10, 2020",Brooklyn Nets,102.0,104.0,49.0,14.0,A. Bradley                    ·                     A. Davis                    ·                     D. Green                    ·                     L. James                    ·                     J. McGee,,L. James,J. McGee,,D. Green
"Thu, Jul 30, 2020",Los Angeles Clippers,103.0,101.0,50.0,14.0,K. Caldwell-Pope                    ·                     A. Davis                    ·                     D. Green                    ·                     L. James                    ·                     J. McGee,,L. James,J. McGee,,D. Green
"Sat, Aug 1, 2020",Toronto Raptors,92.0,107.0,50.0,15.0,K. Caldwell-Pope                    ·                     A. Davis                    ·                     D. Green                    ·                     L. James                    ·                     J. McGee,,L. James,J. McGee,,D. Green
"Mon, Aug 3, 2020",Utah Jazz,116.0,108.0,51.0,15.0,K. Caldwell-Pope                    ·                     A. Davis                    ·                     D. Green                    ·                     L. James                    ·                     J. McGee,,L. James,J. McGee,,D. Green
"Wed, Aug 5, 2020",Oklahoma City Thunder,86.0,105.0,51.0,16.0,K. Caldwell-Pope                    ·                     A. Davis                    ·                     D. Green                    ·                     L. James                    ·                     J. McGee,,L. James,J. McGee,,D. Green
"Thu, Aug 6, 2020",Houston Rockets,97.0,113.0,51.0,17.0,K. Caldwell-Pope                    ·                     Q. Cook                    ·                     A. Davis                    ·                     D. Green                    ·                     K. Kuzma,K. Kuzma,,A. Davis,Q. Cook,D. Green
"Sat, Aug 8, 2020",Indiana Pacers,111.0,116.0,51.0,18.0,K. Caldwell-Pope                    ·                     A. Caruso                    ·                     A. Davis                    ·                     L. James                    ·                     J. McGee,,L. James,J. McGee,A. Caruso,K. Caldwell
"Mon, Aug 10, 2020",Denver Nuggets,124.0,121.0,52.0,18.0,A. Davis                    ·                     D. Green                    ·                     L. James                    ·                     K. Kuzma                    ·                     J. McGee,K. Kuzma,L. James,J. McGee,,D. Green
"Thu, Aug 13, 2020",Sacramento Kings,122.0,136.0,52.0,19.0,D. Green                    ·                     T. Horton-Tucker                    ·                     L. James                    ·                     J. McGee                    ·                     M. Morris,M. Morris,L. James,J. McGee,,D. Green
