Date,Opponent,Tm,Opp,W,L,Starting Lineup,PF,SF,C,PG,SG
"Thu, Oct 27, 2016",Atlanta Hawks,99.0,114.0,0.0,1.0,B. Beal                    ·                     M. Gortat                    ·                     M. Morris                    ·                     O. Porter                    ·                     J. Wall,M. Morris,O. Porter,M. Gortat,J. Wall,B. Beal
"Sun, Oct 30, 2016",Memphis Grizzlies,103.0,112.0,0.0,2.0,B. Beal                    ·                     M. Gortat                    ·                     M. Morris                    ·                     O. Porter                    ·                     J. Wall,M. Morris,O. Porter,M. Gortat,J. Wall,B. Beal
"Wed, Nov 2, 2016",Toronto Raptors,103.0,113.0,0.0,3.0,B. Beal                    ·                     M. Gortat                    ·                     M. Morris                    ·                     O. Porter                    ·                     J. Wall,M. Morris,O. Porter,M. Gortat,J. Wall,B. Beal
"Fri, Nov 4, 2016",Atlanta Hawks,95.0,92.0,1.0,3.0,B. Beal                    ·                     M. Gortat                    ·                     M. Morris                    ·                     O. Porter                    ·                     J. Wall,M. Morris,O. Porter,M. Gortat,J. Wall,B. Beal
"Sat, Nov 5, 2016",Orlando Magic,86.0,88.0,1.0,4.0,B. Beal                    ·                     M. Gortat                    ·                     M. Morris                    ·                     O. Porter                    ·                     T. Satoranský,M. Morris,O. Porter,M. Gortat,,B. Beal
"Mon, Nov 7, 2016",Houston Rockets,106.0,114.0,1.0,5.0,B. Beal                    ·                     M. Gortat                    ·                     M. Morris                    ·                     O. Porter                    ·                     J. Wall,M. Morris,O. Porter,M. Gortat,J. Wall,B. Beal
"Wed, Nov 9, 2016",Boston Celtics,118.0,93.0,2.0,5.0,B. Beal                    ·                     M. Gortat                    ·                     M. Morris                    ·                     O. Porter                    ·                     J. Wall,M. Morris,O. Porter,M. Gortat,J. Wall,B. Beal
"Fri, Nov 11, 2016",Cleveland Cavaliers,94.0,105.0,2.0,6.0,M. Gortat                    ·                     M. Morris                    ·                     O. Porter                    ·                     M. Thornton                    ·                     J. Wall,M. Morris,O. Porter,M. Gortat,J. Wall,M. Thornton
"Sat, Nov 12, 2016",Chicago Bulls,95.0,106.0,2.0,7.0,M. Gortat                    ·                     S. Mac                    ·                     M. Morris                    ·                     O. Porter                    ·                     T. Satoranský,M. Morris,O. Porter,M. Gortat,,
"Wed, Nov 16, 2016",Philadelphia 76ers,102.0,109.0,2.0,8.0,M. Gortat                    ·                     S. Mac                    ·                     M. Morris                    ·                     O. Porter                    ·                     J. Wall,M. Morris,O. Porter,M. Gortat,J. Wall,
"Thu, Nov 17, 2016",New York Knicks,119.0,112.0,3.0,8.0,B. Beal                    ·                     M. Gortat                    ·                     M. Morris                    ·                     O. Porter                    ·                     J. Wall,M. Morris,O. Porter,M. Gortat,J. Wall,B. Beal
"Sat, Nov 19, 2016",Miami Heat,111.0,114.0,3.0,9.0,B. Beal                    ·                     M. Gortat                    ·                     M. Morris                    ·                     O. Porter                    ·                     J. Wall,M. Morris,O. Porter,M. Gortat,J. Wall,B. Beal
"Mon, Nov 21, 2016",Phoenix Suns,106.0,101.0,4.0,9.0,B. Beal                    ·                     M. Gortat                    ·                     M. Morris                    ·                     O. Porter                    ·                     J. Wall,M. Morris,O. Porter,M. Gortat,J. Wall,B. Beal
"Fri, Nov 25, 2016",Orlando Magic,94.0,91.0,5.0,9.0,B. Beal                    ·                     M. Gortat                    ·                     M. Morris                    ·                     O. Porter                    ·                     J. Wall,M. Morris,O. Porter,M. Gortat,J. Wall,B. Beal
"Sat, Nov 26, 2016",San Antonio Spurs,100.0,112.0,5.0,10.0,B. Beal                    ·                     M. Gortat                    ·                     M. Morris                    ·                     O. Porter                    ·                     J. Wall,M. Morris,O. Porter,M. Gortat,J. Wall,B. Beal
"Mon, Nov 28, 2016",Sacramento Kings,101.0,95.0,6.0,10.0,B. Beal                    ·                     M. Gortat                    ·                     M. Morris                    ·                     O. Porter                    ·                     J. Wall,M. Morris,O. Porter,M. Gortat,J. Wall,B. Beal
"Wed, Nov 30, 2016",Oklahoma City Thunder,115.0,126.0,6.0,11.0,B. Beal                    ·                     M. Gortat                    ·                     M. Morris                    ·                     O. Porter                    ·                     J. Wall,M. Morris,O. Porter,M. Gortat,J. Wall,B. Beal
"Fri, Dec 2, 2016",San Antonio Spurs,105.0,107.0,6.0,12.0,B. Beal                    ·                     M. Gortat                    ·                     M. Morris                    ·                     O. Porter                    ·                     J. Wall,M. Morris,O. Porter,M. Gortat,J. Wall,B. Beal
"Mon, Dec 5, 2016",Brooklyn Nets,118.0,113.0,7.0,12.0,B. Beal                    ·                     M. Gortat                    ·                     M. Morris                    ·                     O. Porter                    ·                     J. Wall,M. Morris,O. Porter,M. Gortat,J. Wall,B. Beal
"Tue, Dec 6, 2016",Orlando Magic,116.0,124.0,7.0,13.0,B. Beal                    ·                     M. Gortat                    ·                     M. Morris                    ·                     O. Porter                    ·                     J. Wall,M. Morris,O. Porter,M. Gortat,J. Wall,B. Beal
"Thu, Dec 8, 2016",Denver Nuggets,92.0,85.0,8.0,13.0,B. Beal                    ·                     M. Gortat                    ·                     M. Morris                    ·                     O. Porter                    ·                     J. Wall,M. Morris,O. Porter,M. Gortat,J. Wall,B. Beal
"Sat, Dec 10, 2016",Milwaukee Bucks,110.0,105.0,9.0,13.0,B. Beal                    ·                     M. Gortat                    ·                     M. Morris                    ·                     O. Porter                    ·                     J. Wall,M. Morris,O. Porter,M. Gortat,J. Wall,B. Beal
"Mon, Dec 12, 2016",Miami Heat,101.0,112.0,9.0,14.0,B. Beal                    ·                     M. Gortat                    ·                     M. Morris                    ·                     O. Porter                    ·                     J. Wall,M. Morris,O. Porter,M. Gortat,J. Wall,B. Beal
"Wed, Dec 14, 2016",Charlotte Hornets,109.0,106.0,10.0,14.0,B. Beal                    ·                     M. Gortat                    ·                     K. Oubre                    ·                     O. Porter                    ·                     J. Wall,,O. Porter,M. Gortat,J. Wall,B. Beal
"Fri, Dec 16, 2016",Detroit Pistons,122.0,108.0,11.0,14.0,B. Beal                    ·                     M. Gortat                    ·                     M. Morris                    ·                     O. Porter                    ·                     J. Wall,M. Morris,O. Porter,M. Gortat,J. Wall,B. Beal
"Sun, Dec 18, 2016",Los Angeles Clippers,117.0,110.0,12.0,14.0,B. Beal                    ·                     M. Gortat                    ·                     M. Morris                    ·                     O. Porter                    ·                     J. Wall,M. Morris,O. Porter,M. Gortat,J. Wall,B. Beal
"Mon, Dec 19, 2016",Indiana Pacers,105.0,107.0,12.0,15.0,B. Beal                    ·                     M. Gortat                    ·                     M. Morris                    ·                     O. Porter                    ·                     J. Wall,M. Morris,O. Porter,M. Gortat,J. Wall,B. Beal
"Wed, Dec 21, 2016",Chicago Bulls,107.0,97.0,13.0,15.0,B. Beal                    ·                     M. Gortat                    ·                     M. Morris                    ·                     O. Porter                    ·                     J. Wall,M. Morris,O. Porter,M. Gortat,J. Wall,B. Beal
"Fri, Dec 23, 2016",Milwaukee Bucks,96.0,123.0,13.0,16.0,B. Beal                    ·                     M. Gortat                    ·                     M. Morris                    ·                     O. Porter                    ·                     J. Wall,M. Morris,O. Porter,M. Gortat,J. Wall,B. Beal
"Mon, Dec 26, 2016",Milwaukee Bucks,107.0,102.0,14.0,16.0,B. Beal                    ·                     M. Gortat                    ·                     M. Morris                    ·                     O. Porter                    ·                     J. Wall,M. Morris,O. Porter,M. Gortat,J. Wall,B. Beal
"Wed, Dec 28, 2016",Indiana Pacers,111.0,105.0,15.0,16.0,B. Beal                    ·                     M. Gortat                    ·                     M. Morris                    ·                     O. Porter                    ·                     J. Wall,M. Morris,O. Porter,M. Gortat,J. Wall,B. Beal
"Fri, Dec 30, 2016",Brooklyn Nets,118.0,95.0,16.0,16.0,M. Gortat                    ·                     S. Mac                    ·                     M. Morris                    ·                     O. Porter                    ·                     J. Wall,M. Morris,O. Porter,M. Gortat,J. Wall,
"Mon, Jan 2, 2017",Houston Rockets,91.0,101.0,16.0,17.0,B. Beal                    ·                     M. Gortat                    ·                     M. Morris                    ·                     O. Porter                    ·                     J. Wall,M. Morris,O. Porter,M. Gortat,J. Wall,B. Beal
"Tue, Jan 3, 2017",Dallas Mavericks,105.0,113.0,16.0,18.0,B. Beal                    ·                     M. Gortat                    ·                     M. Morris                    ·                     O. Porter                    ·                     J. Wall,M. Morris,O. Porter,M. Gortat,J. Wall,B. Beal
"Fri, Jan 6, 2017",Minnesota Timberwolves,112.0,105.0,17.0,18.0,B. Beal                    ·                     M. Gortat                    ·                     M. Morris                    ·                     O. Porter                    ·                     J. Wall,M. Morris,O. Porter,M. Gortat,J. Wall,B. Beal
"Sun, Jan 8, 2017",Milwaukee Bucks,107.0,101.0,18.0,18.0,B. Beal                    ·                     M. Gortat                    ·                     M. Morris                    ·                     O. Porter                    ·                     J. Wall,M. Morris,O. Porter,M. Gortat,J. Wall,B. Beal
"Tue, Jan 10, 2017",Chicago Bulls,101.0,99.0,19.0,18.0,B. Beal                    ·                     M. Gortat                    ·                     M. Morris                    ·                     O. Porter                    ·                     J. Wall,M. Morris,O. Porter,M. Gortat,J. Wall,B. Beal
"Wed, Jan 11, 2017",Boston Celtics,108.0,117.0,19.0,19.0,B. Beal                    ·                     M. Gortat                    ·                     M. Morris                    ·                     O. Porter                    ·                     J. Wall,M. Morris,O. Porter,M. Gortat,J. Wall,B. Beal
"Sat, Jan 14, 2017",Philadelphia 76ers,109.0,93.0,20.0,19.0,B. Beal                    ·                     M. Gortat                    ·                     M. Morris                    ·                     O. Porter                    ·                     J. Wall,M. Morris,O. Porter,M. Gortat,J. Wall,B. Beal
"Mon, Jan 16, 2017",Portland Trail Blazers,120.0,101.0,21.0,19.0,B. Beal                    ·                     M. Gortat                    ·                     M. Morris                    ·                     O. Porter                    ·                     J. Wall,M. Morris,O. Porter,M. Gortat,J. Wall,B. Beal
"Wed, Jan 18, 2017",Memphis Grizzlies,104.0,101.0,22.0,19.0,B. Beal                    ·                     M. Gortat                    ·                     M. Morris                    ·                     O. Porter                    ·                     J. Wall,M. Morris,O. Porter,M. Gortat,J. Wall,B. Beal
"Thu, Jan 19, 2017",New York Knicks,113.0,110.0,23.0,19.0,B. Beal                    ·                     M. Gortat                    ·                     M. Morris                    ·                     O. Porter                    ·                     J. Wall,M. Morris,O. Porter,M. Gortat,J. Wall,B. Beal
"Sat, Jan 21, 2017",Detroit Pistons,112.0,113.0,23.0,20.0,B. Beal                    ·                     M. Gortat                    ·                     M. Morris                    ·                     O. Porter                    ·                     J. Wall,M. Morris,O. Porter,M. Gortat,J. Wall,B. Beal
"Mon, Jan 23, 2017",Charlotte Hornets,109.0,99.0,24.0,20.0,B. Beal                    ·                     M. Gortat                    ·                     M. Morris                    ·                     O. Porter                    ·                     J. Wall,M. Morris,O. Porter,M. Gortat,J. Wall,B. Beal
"Tue, Jan 24, 2017",Boston Celtics,123.0,108.0,25.0,20.0,B. Beal                    ·                     M. Gortat                    ·                     M. Morris                    ·                     O. Porter                    ·                     J. Wall,M. Morris,O. Porter,M. Gortat,J. Wall,B. Beal
"Fri, Jan 27, 2017",Atlanta Hawks,112.0,86.0,26.0,20.0,B. Beal                    ·                     M. Gortat                    ·                     M. Morris                    ·                     O. Porter                    ·                     J. Wall,M. Morris,O. Porter,M. Gortat,J. Wall,B. Beal
"Sun, Jan 29, 2017",New Orleans Pelicans,107.0,94.0,27.0,20.0,B. Beal                    ·                     M. Gortat                    ·                     M. Morris                    ·                     O. Porter                    ·                     J. Wall,M. Morris,O. Porter,M. Gortat,J. Wall,B. Beal
"Tue, Jan 31, 2017",New York Knicks,117.0,101.0,28.0,20.0,B. Beal                    ·                     M. Gortat                    ·                     M. Morris                    ·                     O. Porter                    ·                     J. Wall,M. Morris,O. Porter,M. Gortat,J. Wall,B. Beal
"Thu, Feb 2, 2017",Los Angeles Lakers,116.0,108.0,29.0,20.0,B. Beal                    ·                     M. Gortat                    ·                     M. Morris                    ·                     O. Porter                    ·                     J. Wall,M. Morris,O. Porter,M. Gortat,J. Wall,B. Beal
"Sat, Feb 4, 2017",New Orleans Pelicans,105.0,91.0,30.0,20.0,B. Beal                    ·                     M. Gortat                    ·                     M. Morris                    ·                     O. Porter                    ·                     J. Wall,M. Morris,O. Porter,M. Gortat,J. Wall,B. Beal
"Mon, Feb 6, 2017",Cleveland Cavaliers,135.0,140.0,30.0,21.0,B. Beal                    ·                     M. Gortat                    ·                     M. Morris                    ·                     O. Porter                    ·                     J. Wall,M. Morris,O. Porter,M. Gortat,J. Wall,B. Beal
"Wed, Feb 8, 2017",Brooklyn Nets,114.0,110.0,31.0,21.0,B. Beal                    ·                     M. Gortat                    ·                     K. Oubre                    ·                     O. Porter                    ·                     J. Wall,,O. Porter,M. Gortat,J. Wall,B. Beal
"Fri, Feb 10, 2017",Indiana Pacers,112.0,107.0,32.0,21.0,B. Beal                    ·                     M. Gortat                    ·                     M. Morris                    ·                     O. Porter                    ·                     J. Wall,M. Morris,O. Porter,M. Gortat,J. Wall,B. Beal
"Mon, Feb 13, 2017",Oklahoma City Thunder,120.0,98.0,33.0,21.0,B. Beal                    ·                     M. Gortat                    ·                     M. Morris                    ·                     O. Porter                    ·                     J. Wall,M. Morris,O. Porter,M. Gortat,J. Wall,B. Beal
"Thu, Feb 16, 2017",Indiana Pacers,111.0,98.0,34.0,21.0,B. Beal                    ·                     M. Gortat                    ·                     M. Morris                    ·                     O. Porter                    ·                     J. Wall,M. Morris,O. Porter,M. Gortat,J. Wall,B. Beal
"Fri, Feb 24, 2017",Philadelphia 76ers,112.0,120.0,34.0,22.0,B. Beal                    ·                     M. Gortat                    ·                     M. Morris                    ·                     O. Porter                    ·                     J. Wall,M. Morris,O. Porter,M. Gortat,J. Wall,B. Beal
"Sun, Feb 26, 2017",Utah Jazz,92.0,102.0,34.0,23.0,B. Beal                    ·                     M. Gortat                    ·                     M. Morris                    ·                     O. Porter                    ·                     J. Wall,M. Morris,O. Porter,M. Gortat,J. Wall,B. Beal
"Tue, Feb 28, 2017",Golden State Warriors,112.0,108.0,35.0,23.0,B. Beal                    ·                     M. Gortat                    ·                     M. Morris                    ·                     O. Porter                    ·                     J. Wall,M. Morris,O. Porter,M. Gortat,J. Wall,B. Beal
"Wed, Mar 1, 2017",Toronto Raptors,105.0,96.0,36.0,23.0,B. Beal                    ·                     M. Gortat                    ·                     M. Morris                    ·                     O. Porter                    ·                     J. Wall,M. Morris,O. Porter,M. Gortat,J. Wall,B. Beal
"Fri, Mar 3, 2017",Toronto Raptors,106.0,114.0,36.0,24.0,B. Beal                    ·                     M. Gortat                    ·                     M. Morris                    ·                     O. Porter                    ·                     J. Wall,M. Morris,O. Porter,M. Gortat,J. Wall,B. Beal
"Sun, Mar 5, 2017",Orlando Magic,115.0,114.0,37.0,24.0,B. Beal                    ·                     M. Gortat                    ·                     M. Morris                    ·                     O. Porter                    ·                     J. Wall,M. Morris,O. Porter,M. Gortat,J. Wall,B. Beal
"Tue, Mar 7, 2017",Phoenix Suns,131.0,127.0,38.0,24.0,B. Beal                    ·                     M. Gortat                    ·                     M. Morris                    ·                     O. Porter                    ·                     J. Wall,M. Morris,O. Porter,M. Gortat,J. Wall,B. Beal
"Wed, Mar 8, 2017",Denver Nuggets,123.0,113.0,39.0,24.0,B. Beal                    ·                     M. Gortat                    ·                     M. Morris                    ·                     O. Porter                    ·                     J. Wall,M. Morris,O. Porter,M. Gortat,J. Wall,B. Beal
"Fri, Mar 10, 2017",Sacramento Kings,130.0,122.0,40.0,24.0,B. Beal                    ·                     M. Gortat                    ·                     M. Morris                    ·                     O. Porter                    ·                     J. Wall,M. Morris,O. Porter,M. Gortat,J. Wall,B. Beal
"Sat, Mar 11, 2017",Portland Trail Blazers,125.0,124.0,41.0,24.0,B. Beal                    ·                     M. Gortat                    ·                     M. Morris                    ·                     O. Porter                    ·                     J. Wall,M. Morris,O. Porter,M. Gortat,J. Wall,B. Beal
"Mon, Mar 13, 2017",Minnesota Timberwolves,104.0,119.0,41.0,25.0,B. Beal                    ·                     M. Gortat                    ·                     M. Morris                    ·                     O. Porter                    ·                     J. Wall,M. Morris,O. Porter,M. Gortat,J. Wall,B. Beal
"Wed, Mar 15, 2017",Dallas Mavericks,107.0,112.0,41.0,26.0,B. Beal                    ·                     M. Gortat                    ·                     M. Morris                    ·                     O. Porter                    ·                     J. Wall,M. Morris,O. Porter,M. Gortat,J. Wall,B. Beal
"Fri, Mar 17, 2017",Chicago Bulls,112.0,107.0,42.0,26.0,B. Beal                    ·                     M. Gortat                    ·                     O. Porter                    ·                     J. Smith                    ·                     J. Wall,,O. Porter,M. Gortat,J. Wall,J. Smith
"Sat, Mar 18, 2017",Charlotte Hornets,93.0,98.0,42.0,27.0,B. Beal                    ·                     M. Gortat                    ·                     O. Porter                    ·                     J. Smith                    ·                     J. Wall,,O. Porter,M. Gortat,J. Wall,J. Smith
"Mon, Mar 20, 2017",Boston Celtics,102.0,110.0,42.0,28.0,B. Beal                    ·                     M. Gortat                    ·                     M. Morris                    ·                     O. Porter                    ·                     J. Wall,M. Morris,O. Porter,M. Gortat,J. Wall,B. Beal
"Wed, Mar 22, 2017",Atlanta Hawks,104.0,100.0,43.0,28.0,B. Beal                    ·                     M. Gortat                    ·                     M. Morris                    ·                     O. Porter                    ·                     J. Wall,M. Morris,O. Porter,M. Gortat,J. Wall,B. Beal
"Fri, Mar 24, 2017",Brooklyn Nets,129.0,108.0,44.0,28.0,B. Beal                    ·                     M. Gortat                    ·                     M. Morris                    ·                     O. Porter                    ·                     J. Wall,M. Morris,O. Porter,M. Gortat,J. Wall,B. Beal
"Sat, Mar 25, 2017",Cleveland Cavaliers,127.0,115.0,45.0,28.0,B. Beal                    ·                     M. Gortat                    ·                     M. Morris                    ·                     O. Porter                    ·                     J. Wall,M. Morris,O. Porter,M. Gortat,J. Wall,B. Beal
"Tue, Mar 28, 2017",Los Angeles Lakers,119.0,108.0,46.0,28.0,B. Beal                    ·                     M. Gortat                    ·                     M. Morris                    ·                     O. Porter                    ·                     J. Wall,M. Morris,O. Porter,M. Gortat,J. Wall,B. Beal
"Wed, Mar 29, 2017",Los Angeles Clippers,124.0,133.0,46.0,29.0,B. Beal                    ·                     M. Gortat                    ·                     M. Morris                    ·                     O. Porter                    ·                     J. Wall,M. Morris,O. Porter,M. Gortat,J. Wall,B. Beal
"Fri, Mar 31, 2017",Utah Jazz,88.0,95.0,46.0,30.0,B. Beal                    ·                     M. Gortat                    ·                     M. Morris                    ·                     O. Porter                    ·                     J. Wall,M. Morris,O. Porter,M. Gortat,J. Wall,B. Beal
"Sun, Apr 2, 2017",Golden State Warriors,115.0,139.0,46.0,31.0,B. Beal                    ·                     M. Gortat                    ·                     M. Morris                    ·                     O. Porter                    ·                     J. Wall,M. Morris,O. Porter,M. Gortat,J. Wall,B. Beal
"Tue, Apr 4, 2017",Charlotte Hornets,118.0,111.0,47.0,31.0,B. Beal                    ·                     M. Gortat                    ·                     M. Morris                    ·                     O. Porter                    ·                     J. Wall,M. Morris,O. Porter,M. Gortat,J. Wall,B. Beal
"Thu, Apr 6, 2017",New York Knicks,106.0,103.0,48.0,31.0,B. Beal                    ·                     M. Gortat                    ·                     O. Porter                    ·                     J. Smith                    ·                     J. Wall,,O. Porter,M. Gortat,J. Wall,J. Smith
"Sat, Apr 8, 2017",Miami Heat,103.0,106.0,48.0,32.0,B. Beal                    ·                     M. Gortat                    ·                     M. Morris                    ·                     K. Oubre                    ·                     J. Wall,M. Morris,K. Oubre,M. Gortat,J. Wall,B. Beal
"Mon, Apr 10, 2017",Detroit Pistons,105.0,101.0,49.0,32.0,B. Beal                    ·                     M. Gortat                    ·                     B. Jennings                    ·                     M. Morris                    ·                     K. Oubre,M. Morris,K. Oubre,M. Gortat,B. Jennings,B. Beal
"Wed, Apr 12, 2017",Miami Heat,102.0,110.0,49.0,33.0,M. Gortat                    ·                     B. Jennings                    ·                     K. Oubre                    ·                     O. Porter                    ·                     T. Satoranský,,O. Porter,M. Gortat,B. Jennings,
