Date,Opponent,Tm,Opp,W,L,Starting Lineup,PF,SF,C,PG,SG
"Wed, Oct 17, 2018",Milwaukee Bucks,112.0,113.0,0.0,1.0,N. Batum                    ·                     J. Lamb                    ·                     K. Walker                    ·                     M. Williams                    ·                     C. Zeller,M. Williams,,C. Zeller,K. Walker,J. Lamb
"Fri, Oct 19, 2018",Orlando Magic,120.0,88.0,1.0,1.0,N. Batum                    ·                     J. Lamb                    ·                     K. Walker                    ·                     M. Williams                    ·                     C. Zeller,M. Williams,,C. Zeller,K. Walker,J. Lamb
"Sat, Oct 20, 2018",Miami Heat,113.0,112.0,2.0,1.0,N. Batum                    ·                     J. Lamb                    ·                     K. Walker                    ·                     M. Williams                    ·                     C. Zeller,M. Williams,,C. Zeller,K. Walker,J. Lamb
"Mon, Oct 22, 2018",Toronto Raptors,106.0,127.0,2.0,2.0,N. Batum                    ·                     J. Lamb                    ·                     K. Walker                    ·                     M. Williams                    ·                     C. Zeller,M. Williams,,C. Zeller,K. Walker,J. Lamb
"Wed, Oct 24, 2018",Chicago Bulls,110.0,112.0,2.0,3.0,N. Batum                    ·                     J. Lamb                    ·                     K. Walker                    ·                     M. Williams                    ·                     C. Zeller,M. Williams,,C. Zeller,K. Walker,J. Lamb
"Fri, Oct 26, 2018",Chicago Bulls,135.0,106.0,3.0,3.0,N. Batum                    ·                     J. Lamb                    ·                     K. Walker                    ·                     M. Williams                    ·                     C. Zeller,M. Williams,,C. Zeller,K. Walker,J. Lamb
"Sat, Oct 27, 2018",Philadelphia 76ers,103.0,105.0,3.0,4.0,N. Batum                    ·                     J. Lamb                    ·                     K. Walker                    ·                     M. Williams                    ·                     C. Zeller,M. Williams,,C. Zeller,K. Walker,J. Lamb
"Tue, Oct 30, 2018",Miami Heat,125.0,113.0,4.0,4.0,N. Batum                    ·                     J. Lamb                    ·                     K. Walker                    ·                     M. Williams                    ·                     C. Zeller,M. Williams,,C. Zeller,K. Walker,J. Lamb
"Thu, Nov 1, 2018",Oklahoma City Thunder,107.0,111.0,4.0,5.0,N. Batum                    ·                     J. Lamb                    ·                     K. Walker                    ·                     M. Williams                    ·                     C. Zeller,M. Williams,,C. Zeller,K. Walker,J. Lamb
"Sat, Nov 3, 2018",Cleveland Cavaliers,126.0,94.0,5.0,5.0,N. Batum                    ·                     J. Lamb                    ·                     K. Walker                    ·                     M. Williams                    ·                     C. Zeller,M. Williams,,C. Zeller,K. Walker,J. Lamb
"Tue, Nov 6, 2018",Atlanta Hawks,113.0,102.0,6.0,5.0,N. Batum                    ·                     J. Lamb                    ·                     K. Walker                    ·                     M. Williams                    ·                     C. Zeller,M. Williams,,C. Zeller,K. Walker,J. Lamb
"Fri, Nov 9, 2018",Philadelphia 76ers,132.0,133.0,6.0,6.0,N. Batum                    ·                     J. Lamb                    ·                     K. Walker                    ·                     M. Williams                    ·                     C. Zeller,M. Williams,,C. Zeller,K. Walker,J. Lamb
"Sun, Nov 11, 2018",Detroit Pistons,113.0,103.0,7.0,6.0,N. Batum                    ·                     J. Lamb                    ·                     K. Walker                    ·                     M. Williams                    ·                     C. Zeller,M. Williams,,C. Zeller,K. Walker,J. Lamb
"Tue, Nov 13, 2018",Cleveland Cavaliers,89.0,113.0,7.0,7.0,N. Batum                    ·                     J. Lamb                    ·                     K. Walker                    ·                     M. Williams                    ·                     C. Zeller,M. Williams,,C. Zeller,K. Walker,J. Lamb
"Sat, Nov 17, 2018",Philadelphia 76ers,119.0,122.0,7.0,8.0,N. Batum                    ·                     J. Lamb                    ·                     K. Walker                    ·                     M. Williams                    ·                     C. Zeller,M. Williams,,C. Zeller,K. Walker,J. Lamb
"Mon, Nov 19, 2018",Boston Celtics,117.0,112.0,8.0,8.0,N. Batum                    ·                     J. Lamb                    ·                     K. Walker                    ·                     M. Williams                    ·                     C. Zeller,M. Williams,,C. Zeller,K. Walker,J. Lamb
"Wed, Nov 21, 2018",Indiana Pacers,127.0,109.0,9.0,8.0,N. Batum                    ·                     J. Lamb                    ·                     K. Walker                    ·                     M. Williams                    ·                     C. Zeller,M. Williams,,C. Zeller,K. Walker,J. Lamb
"Fri, Nov 23, 2018",Oklahoma City Thunder,104.0,109.0,9.0,9.0,N. Batum                    ·                     J. Lamb                    ·                     K. Walker                    ·                     M. Williams                    ·                     C. Zeller,M. Williams,,C. Zeller,K. Walker,J. Lamb
"Sun, Nov 25, 2018",Atlanta Hawks,123.0,124.0,9.0,10.0,N. Batum                    ·                     J. Lamb                    ·                     K. Walker                    ·                     M. Williams                    ·                     C. Zeller,M. Williams,,C. Zeller,K. Walker,J. Lamb
"Mon, Nov 26, 2018",Milwaukee Bucks,110.0,107.0,10.0,10.0,N. Batum                    ·                     J. Lamb                    ·                     K. Walker                    ·                     M. Williams                    ·                     C. Zeller,M. Williams,,C. Zeller,K. Walker,J. Lamb
"Wed, Nov 28, 2018",Atlanta Hawks,108.0,94.0,11.0,10.0,N. Batum                    ·                     J. Lamb                    ·                     K. Walker                    ·                     M. Williams                    ·                     C. Zeller,M. Williams,,C. Zeller,K. Walker,J. Lamb
"Fri, Nov 30, 2018",Utah Jazz,111.0,119.0,11.0,11.0,N. Batum                    ·                     J. Lamb                    ·                     K. Walker                    ·                     M. Williams                    ·                     C. Zeller,M. Williams,,C. Zeller,K. Walker,J. Lamb
"Sun, Dec 2, 2018",New Orleans Pelicans,109.0,119.0,11.0,12.0,N. Batum                    ·                     W. Hernangómez                    ·                     J. Lamb                    ·                     K. Walker                    ·                     M. Williams,M. Williams,,W. Hernangomez,K. Walker,J. Lamb
"Wed, Dec 5, 2018",Minnesota Timberwolves,104.0,121.0,11.0,13.0,N. Batum                    ·                     M. Kidd-Gilchrist                    ·                     J. Lamb                    ·                     K. Walker                    ·                     C. Zeller,,M. Kidd,C. Zeller,K. Walker,J. Lamb
"Fri, Dec 7, 2018",Denver Nuggets,113.0,107.0,12.0,13.0,N. Batum                    ·                     J. Lamb                    ·                     K. Walker                    ·                     M. Williams                    ·                     C. Zeller,M. Williams,,C. Zeller,K. Walker,J. Lamb
"Sun, Dec 9, 2018",New York Knicks,119.0,107.0,13.0,13.0,N. Batum                    ·                     J. Lamb                    ·                     K. Walker                    ·                     M. Williams                    ·                     C. Zeller,M. Williams,,C. Zeller,K. Walker,J. Lamb
"Wed, Dec 12, 2018",Detroit Pistons,108.0,107.0,14.0,13.0,N. Batum                    ·                     J. Lamb                    ·                     K. Walker                    ·                     M. Williams                    ·                     C. Zeller,M. Williams,,C. Zeller,K. Walker,J. Lamb
"Fri, Dec 14, 2018",New York Knicks,124.0,126.0,14.0,14.0,N. Batum                    ·                     J. Lamb                    ·                     K. Walker                    ·                     M. Williams                    ·                     C. Zeller,M. Williams,,C. Zeller,K. Walker,J. Lamb
"Sat, Dec 15, 2018",Los Angeles Lakers,100.0,128.0,14.0,15.0,N. Batum                    ·                     J. Lamb                    ·                     K. Walker                    ·                     M. Williams                    ·                     C. Zeller,M. Williams,,C. Zeller,K. Walker,J. Lamb
"Wed, Dec 19, 2018",Cleveland Cavaliers,110.0,99.0,15.0,15.0,N. Batum                    ·                     J. Lamb                    ·                     K. Walker                    ·                     M. Williams                    ·                     C. Zeller,M. Williams,,C. Zeller,K. Walker,J. Lamb
"Fri, Dec 21, 2018",Detroit Pistons,98.0,86.0,16.0,15.0,N. Batum                    ·                     J. Lamb                    ·                     K. Walker                    ·                     M. Williams                    ·                     C. Zeller,M. Williams,,C. Zeller,K. Walker,J. Lamb
"Sun, Dec 23, 2018",Boston Celtics,103.0,119.0,16.0,16.0,N. Batum                    ·                     J. Lamb                    ·                     K. Walker                    ·                     M. Williams                    ·                     C. Zeller,M. Williams,,C. Zeller,K. Walker,J. Lamb
"Wed, Dec 26, 2018",Brooklyn Nets,132.0,134.0,16.0,17.0,N. Batum                    ·                     J. Lamb                    ·                     K. Walker                    ·                     M. Williams                    ·                     C. Zeller,M. Williams,,C. Zeller,K. Walker,J. Lamb
"Fri, Dec 28, 2018",Brooklyn Nets,100.0,87.0,17.0,17.0,N. Batum                    ·                     J. Lamb                    ·                     K. Walker                    ·                     M. Williams                    ·                     C. Zeller,M. Williams,,C. Zeller,K. Walker,J. Lamb
"Sat, Dec 29, 2018",Washington Wizards,126.0,130.0,17.0,18.0,N. Batum                    ·                     J. Lamb                    ·                     K. Walker                    ·                     M. Williams                    ·                     C. Zeller,M. Williams,,C. Zeller,K. Walker,J. Lamb
"Mon, Dec 31, 2018",Orlando Magic,125.0,100.0,18.0,18.0,N. Batum                    ·                     J. Lamb                    ·                     K. Walker                    ·                     M. Williams                    ·                     C. Zeller,M. Williams,,C. Zeller,K. Walker,J. Lamb
"Wed, Jan 2, 2019",Dallas Mavericks,84.0,122.0,18.0,19.0,N. Batum                    ·                     D. Graham                    ·                     W. Hernangómez                    ·                     K. Walker                    ·                     M. Williams,M. Williams,,W. Hernangomez,K. Walker,N. Batum
"Sat, Jan 5, 2019",Denver Nuggets,110.0,123.0,18.0,20.0,N. Batum                    ·                     B. Biyombo                    ·                     D. Graham                    ·                     K. Walker                    ·                     M. Williams,M. Williams,,B. Biyombo,K. Walker,N. Batum
"Sun, Jan 6, 2019",Phoenix Suns,119.0,113.0,19.0,20.0,N. Batum                    ·                     B. Biyombo                    ·                     D. Graham                    ·                     K. Walker                    ·                     M. Williams,M. Williams,,B. Biyombo,K. Walker,N. Batum
"Tue, Jan 8, 2019",Los Angeles Clippers,109.0,128.0,19.0,21.0,N. Batum                    ·                     B. Biyombo                    ·                     J. Lamb                    ·                     K. Walker                    ·                     M. Williams,M. Williams,,B. Biyombo,K. Walker,J. Lamb
"Fri, Jan 11, 2019",Portland Trail Blazers,96.0,127.0,19.0,22.0,N. Batum                    ·                     B. Biyombo                    ·                     J. Lamb                    ·                     K. Walker                    ·                     M. Williams,M. Williams,,B. Biyombo,K. Walker,J. Lamb
"Sat, Jan 12, 2019",Sacramento Kings,97.0,104.0,19.0,23.0,N. Batum                    ·                     B. Biyombo                    ·                     J. Lamb                    ·                     K. Walker                    ·                     M. Williams,M. Williams,,B. Biyombo,K. Walker,J. Lamb
"Mon, Jan 14, 2019",San Antonio Spurs,108.0,93.0,20.0,23.0,N. Batum                    ·                     B. Biyombo                    ·                     J. Lamb                    ·                     K. Walker                    ·                     M. Williams,M. Williams,,B. Biyombo,K. Walker,J. Lamb
"Thu, Jan 17, 2019",Sacramento Kings,114.0,95.0,21.0,23.0,N. Batum                    ·                     B. Biyombo                    ·                     J. Lamb                    ·                     K. Walker                    ·                     M. Williams,M. Williams,,B. Biyombo,K. Walker,J. Lamb
"Sat, Jan 19, 2019",Phoenix Suns,135.0,115.0,22.0,23.0,N. Batum                    ·                     B. Biyombo                    ·                     J. Lamb                    ·                     K. Walker                    ·                     M. Williams,M. Williams,,B. Biyombo,K. Walker,J. Lamb
"Sun, Jan 20, 2019",Indiana Pacers,95.0,120.0,22.0,24.0,N. Batum                    ·                     B. Biyombo                    ·                     J. Lamb                    ·                     K. Walker                    ·                     M. Williams,M. Williams,,B. Biyombo,K. Walker,J. Lamb
"Wed, Jan 23, 2019",Memphis Grizzlies,118.0,107.0,23.0,24.0,N. Batum                    ·                     B. Biyombo                    ·                     J. Lamb                    ·                     K. Walker                    ·                     M. Williams,M. Williams,,B. Biyombo,K. Walker,J. Lamb
"Fri, Jan 25, 2019",Milwaukee Bucks,99.0,108.0,23.0,25.0,N. Batum                    ·                     B. Biyombo                    ·                     J. Lamb                    ·                     K. Walker                    ·                     M. Williams,M. Williams,,B. Biyombo,K. Walker,J. Lamb
"Mon, Jan 28, 2019",New York Knicks,101.0,92.0,24.0,25.0,N. Batum                    ·                     B. Biyombo                    ·                     J. Lamb                    ·                     K. Walker                    ·                     M. Williams,M. Williams,,B. Biyombo,K. Walker,J. Lamb
"Wed, Jan 30, 2019",Boston Celtics,94.0,126.0,24.0,26.0,N. Batum                    ·                     B. Biyombo                    ·                     J. Lamb                    ·                     K. Walker                    ·                     M. Williams,M. Williams,,B. Biyombo,K. Walker,J. Lamb
"Fri, Feb 1, 2019",Memphis Grizzlies,100.0,92.0,25.0,26.0,N. Batum                    ·                     B. Biyombo                    ·                     J. Lamb                    ·                     K. Walker                    ·                     M. Williams,M. Williams,,B. Biyombo,K. Walker,J. Lamb
"Sat, Feb 2, 2019",Chicago Bulls,125.0,118.0,26.0,26.0,N. Batum                    ·                     B. Biyombo                    ·                     J. Lamb                    ·                     K. Walker                    ·                     M. Williams,M. Williams,,B. Biyombo,K. Walker,J. Lamb
"Tue, Feb 5, 2019",Los Angeles Clippers,115.0,117.0,26.0,27.0,N. Batum                    ·                     B. Biyombo                    ·                     J. Lamb                    ·                     K. Walker                    ·                     M. Williams,M. Williams,,B. Biyombo,K. Walker,J. Lamb
"Wed, Feb 6, 2019",Dallas Mavericks,93.0,99.0,26.0,28.0,N. Batum                    ·                     B. Biyombo                    ·                     J. Lamb                    ·                     K. Walker                    ·                     M. Williams,M. Williams,,B. Biyombo,K. Walker,J. Lamb
"Sat, Feb 9, 2019",Atlanta Hawks,129.0,120.0,27.0,28.0,N. Batum                    ·                     J. Lamb                    ·                     K. Walker                    ·                     M. Williams                    ·                     C. Zeller,M. Williams,,C. Zeller,K. Walker,J. Lamb
"Mon, Feb 11, 2019",Indiana Pacers,90.0,99.0,27.0,29.0,N. Batum                    ·                     J. Lamb                    ·                     K. Walker                    ·                     M. Williams                    ·                     C. Zeller,M. Williams,,C. Zeller,K. Walker,J. Lamb
"Thu, Feb 14, 2019",Orlando Magic,89.0,127.0,27.0,30.0,N. Batum                    ·                     J. Lamb                    ·                     K. Walker                    ·                     M. Williams                    ·                     C. Zeller,M. Williams,,C. Zeller,K. Walker,J. Lamb
"Fri, Feb 22, 2019",Washington Wizards,123.0,110.0,28.0,30.0,N. Batum                    ·                     M. Bridges                    ·                     K. Walker                    ·                     M. Williams                    ·                     C. Zeller,M. Williams,,C. Zeller,K. Walker,N. Batum
"Sat, Feb 23, 2019",Brooklyn Nets,115.0,117.0,28.0,31.0,N. Batum                    ·                     M. Bridges                    ·                     K. Walker                    ·                     M. Williams                    ·                     C. Zeller,M. Williams,,C. Zeller,K. Walker,N. Batum
"Mon, Feb 25, 2019",Golden State Warriors,110.0,121.0,28.0,32.0,N. Batum                    ·                     M. Bridges                    ·                     K. Walker                    ·                     M. Williams                    ·                     C. Zeller,M. Williams,,C. Zeller,K. Walker,N. Batum
"Wed, Feb 27, 2019",Houston Rockets,113.0,118.0,28.0,33.0,N. Batum                    ·                     M. Bridges                    ·                     K. Walker                    ·                     M. Williams                    ·                     C. Zeller,M. Williams,,C. Zeller,K. Walker,N. Batum
"Fri, Mar 1, 2019",Brooklyn Nets,123.0,112.0,29.0,33.0,N. Batum                    ·                     M. Bridges                    ·                     K. Walker                    ·                     M. Williams                    ·                     C. Zeller,M. Williams,,C. Zeller,K. Walker,N. Batum
"Sun, Mar 3, 2019",Portland Trail Blazers,108.0,118.0,29.0,34.0,N. Batum                    ·                     M. Bridges                    ·                     K. Walker                    ·                     M. Williams                    ·                     C. Zeller,M. Williams,,C. Zeller,K. Walker,N. Batum
"Wed, Mar 6, 2019",Miami Heat,84.0,91.0,29.0,35.0,N. Batum                    ·                     M. Bridges                    ·                     K. Walker                    ·                     M. Williams                    ·                     C. Zeller,M. Williams,,C. Zeller,K. Walker,N. Batum
"Fri, Mar 8, 2019",Washington Wizards,112.0,111.0,30.0,35.0,N. Batum                    ·                     M. Bridges                    ·                     K. Walker                    ·                     M. Williams                    ·                     C. Zeller,M. Williams,,C. Zeller,K. Walker,N. Batum
"Sat, Mar 9, 2019",Milwaukee Bucks,114.0,131.0,30.0,36.0,N. Batum                    ·                     M. Bridges                    ·                     K. Walker                    ·                     M. Williams                    ·                     C. Zeller,M. Williams,,C. Zeller,K. Walker,N. Batum
"Mon, Mar 11, 2019",Houston Rockets,106.0,118.0,30.0,37.0,D. Bacon                    ·                     M. Bridges                    ·                     W. Hernangómez                    ·                     J. Lamb                    ·                     K. Walker,,,W. Hernangomez,K. Walker,J. Lamb
"Fri, Mar 15, 2019",Washington Wizards,116.0,110.0,31.0,37.0,N. Batum                    ·                     B. Biyombo                    ·                     M. Bridges                    ·                     K. Walker                    ·                     M. Williams,M. Williams,,B. Biyombo,K. Walker,N. Batum
"Sun, Mar 17, 2019",Miami Heat,75.0,93.0,31.0,38.0,N. Batum                    ·                     B. Biyombo                    ·                     M. Bridges                    ·                     K. Walker                    ·                     M. Williams,M. Williams,,B. Biyombo,K. Walker,N. Batum
"Tue, Mar 19, 2019",Philadelphia 76ers,114.0,118.0,31.0,39.0,N. Batum                    ·                     B. Biyombo                    ·                     M. Bridges                    ·                     K. Walker                    ·                     M. Williams,M. Williams,,B. Biyombo,K. Walker,N. Batum
"Thu, Mar 21, 2019",Minnesota Timberwolves,113.0,106.0,32.0,39.0,D. Bacon                    ·                     B. Biyombo                    ·                     M. Bridges                    ·                     K. Walker                    ·                     M. Williams,M. Williams,,B. Biyombo,K. Walker,D. Bacon
"Sat, Mar 23, 2019",Boston Celtics,124.0,117.0,33.0,39.0,D. Bacon                    ·                     B. Biyombo                    ·                     M. Bridges                    ·                     K. Walker                    ·                     M. Williams,M. Williams,,B. Biyombo,K. Walker,D. Bacon
"Sun, Mar 24, 2019",Toronto Raptors,115.0,114.0,34.0,39.0,D. Bacon                    ·                     B. Biyombo                    ·                     M. Bridges                    ·                     K. Walker                    ·                     M. Williams,M. Williams,,B. Biyombo,K. Walker,D. Bacon
"Tue, Mar 26, 2019",San Antonio Spurs,125.0,116.0,35.0,39.0,D. Bacon                    ·                     B. Biyombo                    ·                     M. Bridges                    ·                     K. Walker                    ·                     M. Williams,M. Williams,,B. Biyombo,K. Walker,D. Bacon
"Fri, Mar 29, 2019",Los Angeles Lakers,115.0,129.0,35.0,40.0,D. Bacon                    ·                     B. Biyombo                    ·                     M. Bridges                    ·                     K. Walker                    ·                     M. Williams,M. Williams,,B. Biyombo,K. Walker,D. Bacon
"Sun, Mar 31, 2019",Golden State Warriors,90.0,137.0,35.0,41.0,D. Bacon                    ·                     B. Biyombo                    ·                     M. Bridges                    ·                     K. Walker                    ·                     M. Williams,M. Williams,,B. Biyombo,K. Walker,D. Bacon
"Mon, Apr 1, 2019",Utah Jazz,102.0,111.0,35.0,42.0,D. Bacon                    ·                     B. Biyombo                    ·                     M. Bridges                    ·                     K. Walker                    ·                     M. Williams,M. Williams,,B. Biyombo,K. Walker,D. Bacon
"Wed, Apr 3, 2019",New Orleans Pelicans,115.0,109.0,36.0,42.0,D. Bacon                    ·                     B. Biyombo                    ·                     M. Bridges                    ·                     M. Kidd-Gilchrist                    ·                     K. Walker,,M. Kidd,B. Biyombo,K. Walker,D. Bacon
"Fri, Apr 5, 2019",Toronto Raptors,113.0,111.0,37.0,42.0,D. Bacon                    ·                     B. Biyombo                    ·                     M. Bridges                    ·                     M. Kidd-Gilchrist                    ·                     K. Walker,,M. Kidd,B. Biyombo,K. Walker,D. Bacon
"Sun, Apr 7, 2019",Detroit Pistons,104.0,91.0,38.0,42.0,D. Bacon                    ·                     N. Batum                    ·                     B. Biyombo                    ·                     M. Bridges                    ·                     K. Walker,,,B. Biyombo,K. Walker,N. Batum
"Tue, Apr 9, 2019",Cleveland Cavaliers,124.0,97.0,39.0,42.0,D. Bacon                    ·                     N. Batum                    ·                     B. Biyombo                    ·                     M. Bridges                    ·                     K. Walker,,,B. Biyombo,K. Walker,N. Batum
"Wed, Apr 10, 2019",Orlando Magic,114.0,122.0,39.0,43.0,D. Bacon                    ·                     N. Batum                    ·                     B. Biyombo                    ·                     M. Bridges                    ·                     K. Walker,,,B. Biyombo,K. Walker,N. Batum
