Date,Opponent,Tm,Opp,W,L,Starting Lineup,PF,SF,C,PG,SG
"Sat, Dec 26, 2020",Portland Trail Blazers,126.0,128.0,0.0,1.0,J. Harden                    ·                     D. House                    ·                     D. Nwaba                    ·                     P. Tucker                    ·                     C. Wood,C. Wood,D. Nwaba,,,J. Harden
"Mon, Dec 28, 2020",Denver Nuggets,111.0,124.0,0.0,2.0,J. Harden                    ·                     D. House                    ·                     D. Nwaba                    ·                     P. Tucker                    ·                     C. Wood,C. Wood,D. Nwaba,,,J. Harden
"Thu, Dec 31, 2020",Sacramento Kings,122.0,119.0,1.0,2.0,J. Harden                    ·                     D. House                    ·                     P. Tucker                    ·                     J. Wall                    ·                     C. Wood,C. Wood,D. House,,,J. Harden
"Sat, Jan 2, 2021",Sacramento Kings,102.0,94.0,2.0,2.0,E. Gordon                    ·                     D. House                    ·                     P. Tucker                    ·                     J. Wall                    ·                     C. Wood,C. Wood,D. House,,,
"Mon, Jan 4, 2021",Dallas Mavericks,100.0,113.0,2.0,3.0,J. Harden                    ·                     D. Nwaba                    ·                     P. Tucker                    ·                     J. Wall                    ·                     C. Wood,C. Wood,D. Nwaba,,,J. Harden
"Wed, Jan 6, 2021",Indiana Pacers,107.0,114.0,2.0,4.0,D. Cousins                    ·                     J. Harden                    ·                     D. Nwaba                    ·                     P. Tucker                    ·                     J. Wall,P. Tucker,D. Nwaba,,,J. Harden
"Fri, Jan 8, 2021",Orlando Magic,132.0,90.0,3.0,4.0,J. Harden                    ·                     D. Nwaba                    ·                     P. Tucker                    ·                     J. Wall                    ·                     C. Wood,C. Wood,D. Nwaba,,,J. Harden
"Sun, Jan 10, 2021",Los Angeles Lakers,102.0,120.0,3.0,5.0,J. Harden                    ·                     D. Nwaba                    ·                     P. Tucker                    ·                     J. Wall                    ·                     C. Wood,C. Wood,D. Nwaba,,,J. Harden
"Tue, Jan 12, 2021",Los Angeles Lakers,100.0,117.0,3.0,6.0,J. Harden                    ·                     D. Nwaba                    ·                     P. Tucker                    ·                     J. Wall                    ·                     C. Wood,C. Wood,D. Nwaba,,,J. Harden
"Thu, Jan 14, 2021",San Antonio Spurs,109.0,105.0,4.0,6.0,S. Brown                    ·                     B. McLemore                    ·                     J. Tate                    ·                     P. Tucker                    ·                     C. Wood,C. Wood,B. McLemore,,,
"Sat, Jan 16, 2021",San Antonio Spurs,91.0,103.0,4.0,7.0,M. Jones                    ·                     B. McLemore                    ·                     J. Tate                    ·                     P. Tucker                    ·                     C. Wood,C. Wood,B. McLemore,,,
"Mon, Jan 18, 2021",Chicago Bulls,120.0,125.0,4.0,8.0,E. Gordon                    ·                     D. Nwaba                    ·                     V. Oladipo                    ·                     P. Tucker                    ·                     C. Wood,C. Wood,D. Nwaba,,,V. Oladipo
"Wed, Jan 20, 2021",Phoenix Suns,103.0,109.0,4.0,9.0,E. Gordon                    ·                     V. Oladipo                    ·                     J. Tate                    ·                     P. Tucker                    ·                     C. Wood,C. Wood,E. Gordon,,,V. Oladipo
"Fri, Jan 22, 2021",Detroit Pistons,103.0,102.0,5.0,9.0,D. Cousins                    ·                     E. Gordon                    ·                     V. Oladipo                    ·                     J. Tate                    ·                     P. Tucker,P. Tucker,E. Gordon,,,V. Oladipo
"Sat, Jan 23, 2021",Dallas Mavericks,133.0,108.0,6.0,9.0,D. Cousins                    ·                     E. Gordon                    ·                     J. Tate                    ·                     P. Tucker                    ·                     J. Wall,P. Tucker,E. Gordon,,,
"Tue, Jan 26, 2021",Washington Wizards,107.0,88.0,7.0,9.0,D. Cousins                    ·                     V. Oladipo                    ·                     J. Tate                    ·                     P. Tucker                    ·                     J. Wall,P. Tucker,,,,V. Oladipo
"Thu, Jan 28, 2021",Portland Trail Blazers,104.0,101.0,8.0,9.0,V. Oladipo                    ·                     J. Tate                    ·                     P. Tucker                    ·                     J. Wall                    ·                     C. Wood,C. Wood,,,,V. Oladipo
"Sat, Jan 30, 2021",New Orleans Pelicans,126.0,112.0,9.0,9.0,V. Oladipo                    ·                     J. Tate                    ·                     P. Tucker                    ·                     J. Wall                    ·                     C. Wood,C. Wood,,,,V. Oladipo
"Mon, Feb 1, 2021",Oklahoma City Thunder,136.0,106.0,10.0,9.0,V. Oladipo                    ·                     J. Tate                    ·                     P. Tucker                    ·                     J. Wall                    ·                     C. Wood,C. Wood,,,,V. Oladipo
"Wed, Feb 3, 2021",Oklahoma City Thunder,87.0,104.0,10.0,10.0,E. Gordon                    ·                     V. Oladipo                    ·                     J. Tate                    ·                     P. Tucker                    ·                     C. Wood,C. Wood,E. Gordon,,,V. Oladipo
"Thu, Feb 4, 2021",Memphis Grizzlies,115.0,103.0,11.0,10.0,E. Gordon                    ·                     J. Tate                    ·                     P. Tucker                    ·                     J. Wall                    ·                     C. Wood,C. Wood,E. Gordon,,,
"Sat, Feb 6, 2021",San Antonio Spurs,106.0,111.0,11.0,11.0,D. Cousins                    ·                     V. Oladipo                    ·                     J. Tate                    ·                     P. Tucker                    ·                     J. Wall,P. Tucker,,,,V. Oladipo
"Mon, Feb 8, 2021",Charlotte Hornets,94.0,119.0,11.0,12.0,D. Cousins                    ·                     D. House                    ·                     V. Oladipo                    ·                     J. Tate                    ·                     P. Tucker,P. Tucker,D. House,,,V. Oladipo
"Tue, Feb 9, 2021",New Orleans Pelicans,101.0,130.0,11.0,13.0,D. Cousins                    ·                     E. Gordon                    ·                     J. Tate                    ·                     P. Tucker                    ·                     J. Wall,P. Tucker,E. Gordon,,,
"Thu, Feb 11, 2021",Miami Heat,94.0,101.0,11.0,14.0,D. Cousins                    ·                     V. Oladipo                    ·                     J. Tate                    ·                     P. Tucker                    ·                     J. Wall,P. Tucker,,,,V. Oladipo
"Sat, Feb 13, 2021",New York Knicks,99.0,121.0,11.0,15.0,D. Cousins                    ·                     E. Gordon                    ·                     J. Tate                    ·                     P. Tucker                    ·                     J. Wall,P. Tucker,E. Gordon,,,
"Mon, Feb 15, 2021",Washington Wizards,119.0,131.0,11.0,16.0,D. Cousins                    ·                     D. House                    ·                     D. Nwaba                    ·                     J. Tate                    ·                     J. Wall,,D. Nwaba,,,
"Wed, Feb 17, 2021",Philadelphia 76ers,113.0,118.0,11.0,17.0,D. Cousins                    ·                     E. Gordon                    ·                     D. House                    ·                     J. Tate                    ·                     J. Wall,,D. House,,,
"Mon, Feb 22, 2021",Chicago Bulls,100.0,120.0,11.0,18.0,E. Gordon                    ·                     D. House                    ·                     J. Tate                    ·                     P. Tucker                    ·                     J. Wall,P. Tucker,D. House,,,
"Wed, Feb 24, 2021",Cleveland Cavaliers,96.0,112.0,11.0,19.0,D. House                    ·                     V. Oladipo                    ·                     J. Tate                    ·                     P. Tucker                    ·                     J. Wall,P. Tucker,D. House,,,V. Oladipo
"Fri, Feb 26, 2021",Toronto Raptors,111.0,122.0,11.0,20.0,D. House                    ·                     V. Oladipo                    ·                     J. Tate                    ·                     P. Tucker                    ·                     J. Wall,P. Tucker,D. House,,,V. Oladipo
"Sun, Feb 28, 2021",Memphis Grizzlies,84.0,133.0,11.0,21.0,E. Gordon                    ·                     D. House                    ·                     J. Patton                    ·                     P. Tucker                    ·                     J. Wall,P. Tucker,D. House,J. Patton,,
"Mon, Mar 1, 2021",Cleveland Cavaliers,90.0,101.0,11.0,22.0,D. House                    ·                     V. Oladipo                    ·                     J. Patton                    ·                     P. Tucker                    ·                     J. Wall,P. Tucker,D. House,J. Patton,,V. Oladipo
"Wed, Mar 3, 2021",Brooklyn Nets,114.0,132.0,11.0,23.0,S. Brown                    ·                     V. Oladipo                    ·                     J. Tate                    ·                     P. Tucker                    ·                     J. Wall,P. Tucker,S. Brown,,,V. Oladipo
"Thu, Mar 11, 2021",Sacramento Kings,105.0,125.0,11.0,24.0,S. Brown                    ·                     E. Gordon                    ·                     V. Oladipo                    ·                     J. Patton                    ·                     J. Tate,,E. Gordon,J. Patton,,V. Oladipo
"Fri, Mar 12, 2021",Utah Jazz,99.0,114.0,11.0,25.0,S. Brown                    ·                     B. McLemore                    ·                     J. Patton                    ·                     K. Porter                    ·                     J. Tate,,K. Porter,J. Patton,,
"Sun, Mar 14, 2021",Boston Celtics,107.0,134.0,11.0,26.0,S. Brown                    ·                     V. Oladipo                    ·                     J. Patton                    ·                     K. Porter                    ·                     J. Tate,,K. Porter,J. Patton,,V. Oladipo
"Tue, Mar 16, 2021",Atlanta Hawks,107.0,119.0,11.0,27.0,S. Brown                    ·                     V. Oladipo                    ·                     J. Patton                    ·                     K. Porter                    ·                     J. Tate,,K. Porter,J. Patton,,V. Oladipo
"Wed, Mar 17, 2021",Golden State Warriors,94.0,108.0,11.0,28.0,S. Brown                    ·                     D. House                    ·                     K. Porter                    ·                     J. Tate                    ·                     C. Wood,C. Wood,K. Porter,,,
"Fri, Mar 19, 2021",Detroit Pistons,100.0,113.0,11.0,29.0,D. House                    ·                     V. Oladipo                    ·                     J. Tate                    ·                     J. Wall                    ·                     C. Wood,C. Wood,D. House,,,V. Oladipo
"Sun, Mar 21, 2021",Oklahoma City Thunder,112.0,114.0,11.0,30.0,D. House                    ·                     V. Oladipo                    ·                     J. Tate                    ·                     J. Wall                    ·                     C. Wood,C. Wood,D. House,,,V. Oladipo
"Mon, Mar 22, 2021",Toronto Raptors,117.0,99.0,12.0,30.0,S. Brown                    ·                     D. House                    ·                     J. Tate                    ·                     J. Wall                    ·                     C. Wood,C. Wood,D. House,,,
"Wed, Mar 24, 2021",Charlotte Hornets,97.0,122.0,12.0,31.0,S. Brown                    ·                     D. House                    ·                     J. Tate                    ·                     J. Wall                    ·                     C. Wood,C. Wood,D. House,,,
"Fri, Mar 26, 2021",Minnesota Timberwolves,101.0,107.0,12.0,32.0,S. Brown                    ·                     B. McLemore                    ·                     J. Tate                    ·                     J. Wall                    ·                     C. Wood,C. Wood,B. McLemore,,,
"Sat, Mar 27, 2021",Minnesota Timberwolves,129.0,107.0,13.0,32.0,S. Brown                    ·                     K. Olynyk                    ·                     K. Porter                    ·                     J. Tate                    ·                     J. Wall,,K. Porter,K. Olynyk,,
"Mon, Mar 29, 2021",Memphis Grizzlies,110.0,120.0,13.0,33.0,D. House                    ·                     K. Olynyk                    ·                     K. Porter                    ·                     J. Tate                    ·                     J. Wall,,K. Porter,K. Olynyk,,
"Wed, Mar 31, 2021",Brooklyn Nets,108.0,120.0,13.0,34.0,S. Brown                    ·                     D. House                    ·                     K. Porter                    ·                     J. Tate                    ·                     C. Wood,C. Wood,K. Porter,,,
"Fri, Apr 2, 2021",Boston Celtics,102.0,118.0,13.0,35.0,S. Brown                    ·                     D. House                    ·                     K. Porter                    ·                     J. Tate                    ·                     C. Wood,C. Wood,K. Porter,,,
"Sun, Apr 4, 2021",New Orleans Pelicans,115.0,122.0,13.0,36.0,S. Brown                    ·                     D. House                    ·                     K. Porter                    ·                     J. Tate                    ·                     C. Wood,C. Wood,K. Porter,,,
"Mon, Apr 5, 2021",Phoenix Suns,130.0,133.0,13.0,37.0,A. Bradley                    ·                     K. Olynyk                    ·                     K. Porter                    ·                     J. Tate                    ·                     C. Wood,C. Wood,K. Porter,K. Olynyk,,A. Bradley
"Wed, Apr 7, 2021",Dallas Mavericks,102.0,93.0,14.0,37.0,K. Olynyk                    ·                     K. Porter                    ·                     J. Tate                    ·                     J. Wall                    ·                     C. Wood,C. Wood,K. Porter,K. Olynyk,,
"Fri, Apr 9, 2021",Los Angeles Clippers,109.0,126.0,14.0,38.0,A. Bradley                    ·                     K. Olynyk                    ·                     K. Porter                    ·                     J. Tate                    ·                     C. Wood,C. Wood,K. Porter,K. Olynyk,,A. Bradley
"Sat, Apr 10, 2021",Golden State Warriors,109.0,125.0,14.0,39.0,K. Olynyk                    ·                     K. Porter                    ·                     J. Tate                    ·                     J. Wall                    ·                     C. Wood,C. Wood,K. Porter,K. Olynyk,,
"Mon, Apr 12, 2021",Phoenix Suns,120.0,126.0,14.0,40.0,K. Olynyk                    ·                     K. Porter                    ·                     J. Tate                    ·                     J. Wall                    ·                     C. Wood,C. Wood,K. Porter,K. Olynyk,,
"Wed, Apr 14, 2021",Indiana Pacers,124.0,132.0,14.0,41.0,K. Olynyk                    ·                     K. Porter                    ·                     J. Tate                    ·                     J. Wall                    ·                     C. Wood,C. Wood,K. Porter,K. Olynyk,,
"Fri, Apr 16, 2021",Denver Nuggets,99.0,128.0,14.0,42.0,K. Olynyk                    ·                     K. Porter                    ·                     J. Tate                    ·                     J. Wall                    ·                     C. Wood,C. Wood,K. Porter,K. Olynyk,,
"Sun, Apr 18, 2021",Orlando Magic,114.0,110.0,15.0,42.0,A. Bradley                    ·                     K. Olynyk                    ·                     K. Porter                    ·                     J. Tate                    ·                     C. Wood,C. Wood,K. Porter,K. Olynyk,,A. Bradley
"Mon, Apr 19, 2021",Miami Heat,91.0,113.0,15.0,43.0,K. Olynyk                    ·                     K. Porter                    ·                     J. Tate                    ·                     J. Wall                    ·                     C. Wood,C. Wood,K. Porter,K. Olynyk,,
