Date,Opponent,Tm,Opp,W,L,Starting Lineup,PF,SF,C,PG,SG
"Thu, Oct 19, 2017",New York Knicks,105.0,84.0,1.0,0.0,S. Adams                    ·                     C. Anthony                    ·                     P. George                    ·                     A. Roberson                    ·                     R. Westbrook,,A. Roberson,S. Adams,R. Westbrook,
"Sat, Oct 21, 2017",Utah Jazz,87.0,96.0,1.0,1.0,S. Adams                    ·                     C. Anthony                    ·                     P. George                    ·                     A. Roberson                    ·                     R. Westbrook,,A. Roberson,S. Adams,R. Westbrook,
"Sun, Oct 22, 2017",Minnesota Timberwolves,113.0,115.0,1.0,2.0,S. Adams                    ·                     C. Anthony                    ·                     P. George                    ·                     A. Roberson                    ·                     R. Westbrook,,A. Roberson,S. Adams,R. Westbrook,
"Wed, Oct 25, 2017",Indiana Pacers,114.0,96.0,2.0,2.0,S. Adams                    ·                     C. Anthony                    ·                     P. George                    ·                     A. Roberson                    ·                     R. Westbrook,,A. Roberson,S. Adams,R. Westbrook,
"Fri, Oct 27, 2017",Minnesota Timberwolves,116.0,119.0,2.0,3.0,S. Adams                    ·                     C. Anthony                    ·                     P. George                    ·                     A. Roberson                    ·                     R. Westbrook,,A. Roberson,S. Adams,R. Westbrook,
"Sat, Oct 28, 2017",Chicago Bulls,101.0,69.0,3.0,3.0,S. Adams                    ·                     C. Anthony                    ·                     P. George                    ·                     A. Roberson                    ·                     R. Westbrook,,A. Roberson,S. Adams,R. Westbrook,
"Tue, Oct 31, 2017",Milwaukee Bucks,110.0,91.0,4.0,3.0,S. Adams                    ·                     C. Anthony                    ·                     P. George                    ·                     A. Roberson                    ·                     R. Westbrook,,A. Roberson,S. Adams,R. Westbrook,
"Fri, Nov 3, 2017",Boston Celtics,94.0,101.0,4.0,4.0,S. Adams                    ·                     C. Anthony                    ·                     P. George                    ·                     A. Roberson                    ·                     R. Westbrook,,A. Roberson,S. Adams,R. Westbrook,
"Sun, Nov 5, 2017",Portland Trail Blazers,99.0,103.0,4.0,5.0,S. Adams                    ·                     C. Anthony                    ·                     P. George                    ·                     A. Roberson                    ·                     R. Westbrook,,A. Roberson,S. Adams,R. Westbrook,
"Tue, Nov 7, 2017",Sacramento Kings,86.0,94.0,4.0,6.0,S. Adams                    ·                     C. Anthony                    ·                     P. George                    ·                     A. Roberson                    ·                     R. Westbrook,,A. Roberson,S. Adams,R. Westbrook,
"Thu, Nov 9, 2017",Denver Nuggets,94.0,102.0,4.0,7.0,S. Adams                    ·                     C. Anthony                    ·                     P. George                    ·                     A. Roberson                    ·                     R. Westbrook,,A. Roberson,S. Adams,R. Westbrook,
"Fri, Nov 10, 2017",Los Angeles Clippers,120.0,111.0,5.0,7.0,C. Anthony                    ·                     P. George                    ·                     D. Johnson                    ·                     A. Roberson                    ·                     R. Westbrook,,A. Roberson,,R. Westbrook,
"Sun, Nov 12, 2017",Dallas Mavericks,112.0,99.0,6.0,7.0,P. George                    ·                     J. Grant                    ·                     D. Johnson                    ·                     A. Roberson                    ·                     R. Westbrook,J. Grant,A. Roberson,,R. Westbrook,
"Wed, Nov 15, 2017",Chicago Bulls,92.0,79.0,7.0,7.0,C. Anthony                    ·                     P. George                    ·                     D. Johnson                    ·                     A. Roberson                    ·                     R. Westbrook,,A. Roberson,,R. Westbrook,
"Fri, Nov 17, 2017",San Antonio Spurs,101.0,104.0,7.0,8.0,S. Adams                    ·                     C. Anthony                    ·                     P. George                    ·                     A. Roberson                    ·                     R. Westbrook,,A. Roberson,S. Adams,R. Westbrook,
"Mon, Nov 20, 2017",New Orleans Pelicans,107.0,114.0,7.0,9.0,S. Adams                    ·                     C. Anthony                    ·                     P. George                    ·                     A. Roberson                    ·                     R. Westbrook,,A. Roberson,S. Adams,R. Westbrook,
"Wed, Nov 22, 2017",Golden State Warriors,108.0,91.0,8.0,9.0,S. Adams                    ·                     C. Anthony                    ·                     P. George                    ·                     A. Roberson                    ·                     R. Westbrook,,A. Roberson,S. Adams,R. Westbrook,
"Fri, Nov 24, 2017",Detroit Pistons,98.0,99.0,8.0,10.0,S. Adams                    ·                     C. Anthony                    ·                     P. George                    ·                     A. Roberson                    ·                     R. Westbrook,,A. Roberson,S. Adams,R. Westbrook,
"Sat, Nov 25, 2017",Dallas Mavericks,81.0,97.0,8.0,11.0,S. Adams                    ·                     C. Anthony                    ·                     P. George                    ·                     A. Roberson                    ·                     R. Westbrook,,A. Roberson,S. Adams,R. Westbrook,
"Wed, Nov 29, 2017",Orlando Magic,108.0,121.0,8.0,12.0,S. Adams                    ·                     C. Anthony                    ·                     P. George                    ·                     A. Roberson                    ·                     R. Westbrook,,A. Roberson,S. Adams,R. Westbrook,
"Fri, Dec 1, 2017",Minnesota Timberwolves,111.0,107.0,9.0,12.0,S. Adams                    ·                     C. Anthony                    ·                     P. George                    ·                     A. Roberson                    ·                     R. Westbrook,,A. Roberson,S. Adams,R. Westbrook,
"Sun, Dec 3, 2017",San Antonio Spurs,90.0,87.0,10.0,12.0,S. Adams                    ·                     C. Anthony                    ·                     P. George                    ·                     A. Roberson                    ·                     R. Westbrook,,A. Roberson,S. Adams,R. Westbrook,
"Tue, Dec 5, 2017",Utah Jazz,100.0,94.0,11.0,12.0,S. Adams                    ·                     C. Anthony                    ·                     P. George                    ·                     A. Roberson                    ·                     R. Westbrook,,A. Roberson,S. Adams,R. Westbrook,
"Thu, Dec 7, 2017",Brooklyn Nets,95.0,100.0,11.0,13.0,Á. Abrines                    ·                     S. Adams                    ·                     C. Anthony                    ·                     A. Roberson                    ·                     R. Westbrook,,A. Roberson,S. Adams,R. Westbrook,A. Abrines
"Sat, Dec 9, 2017",Memphis Grizzlies,102.0,101.0,12.0,13.0,Á. Abrines                    ·                     S. Adams                    ·                     C. Anthony                    ·                     A. Roberson                    ·                     R. Westbrook,,A. Roberson,S. Adams,R. Westbrook,A. Abrines
"Mon, Dec 11, 2017",Charlotte Hornets,103.0,116.0,12.0,14.0,Á. Abrines                    ·                     S. Adams                    ·                     C. Anthony                    ·                     P. George                    ·                     R. Westbrook,,P. George,S. Adams,R. Westbrook,A. Abrines
"Wed, Dec 13, 2017",Indiana Pacers,100.0,95.0,13.0,14.0,Á. Abrines                    ·                     S. Adams                    ·                     C. Anthony                    ·                     P. George                    ·                     R. Westbrook,,P. George,S. Adams,R. Westbrook,A. Abrines
"Fri, Dec 15, 2017",Philadelphia 76ers,119.0,117.0,14.0,14.0,S. Adams                    ·                     C. Anthony                    ·                     P. George                    ·                     A. Roberson                    ·                     R. Westbrook,,A. Roberson,S. Adams,R. Westbrook,
"Sat, Dec 16, 2017",New York Knicks,96.0,111.0,14.0,15.0,C. Anthony                    ·                     P. George                    ·                     D. Johnson                    ·                     A. Roberson                    ·                     R. Westbrook,,A. Roberson,,R. Westbrook,
"Mon, Dec 18, 2017",Denver Nuggets,95.0,94.0,15.0,15.0,C. Anthony                    ·                     P. George                    ·                     D. Johnson                    ·                     A. Roberson                    ·                     R. Westbrook,,A. Roberson,,R. Westbrook,
"Wed, Dec 20, 2017",Utah Jazz,107.0,79.0,16.0,15.0,S. Adams                    ·                     C. Anthony                    ·                     P. George                    ·                     A. Roberson                    ·                     R. Westbrook,,A. Roberson,S. Adams,R. Westbrook,
"Fri, Dec 22, 2017",Atlanta Hawks,120.0,117.0,17.0,15.0,S. Adams                    ·                     C. Anthony                    ·                     P. George                    ·                     A. Roberson                    ·                     R. Westbrook,,A. Roberson,S. Adams,R. Westbrook,
"Sat, Dec 23, 2017",Utah Jazz,103.0,89.0,18.0,15.0,S. Adams                    ·                     C. Anthony                    ·                     P. George                    ·                     A. Roberson                    ·                     R. Westbrook,,A. Roberson,S. Adams,R. Westbrook,
"Mon, Dec 25, 2017",Houston Rockets,112.0,107.0,19.0,15.0,S. Adams                    ·                     C. Anthony                    ·                     P. George                    ·                     A. Roberson                    ·                     R. Westbrook,,A. Roberson,S. Adams,R. Westbrook,
"Wed, Dec 27, 2017",Toronto Raptors,124.0,107.0,20.0,15.0,S. Adams                    ·                     C. Anthony                    ·                     P. George                    ·                     A. Roberson                    ·                     R. Westbrook,,A. Roberson,S. Adams,R. Westbrook,
"Fri, Dec 29, 2017",Milwaukee Bucks,95.0,97.0,20.0,16.0,Á. Abrines                    ·                     S. Adams                    ·                     C. Anthony                    ·                     A. Roberson                    ·                     R. Westbrook,,A. Roberson,S. Adams,R. Westbrook,A. Abrines
"Sun, Dec 31, 2017",Dallas Mavericks,113.0,116.0,20.0,17.0,S. Adams                    ·                     C. Anthony                    ·                     P. George                    ·                     J. Huestis                    ·                     R. Westbrook,J. Huestis,P. George,S. Adams,R. Westbrook,
"Wed, Jan 3, 2018",Los Angeles Lakers,133.0,96.0,21.0,17.0,S. Adams                    ·                     C. Anthony                    ·                     T. Ferguson                    ·                     P. George                    ·                     R. Westbrook,,P. George,S. Adams,R. Westbrook,
"Thu, Jan 4, 2018",Los Angeles Clippers,127.0,117.0,22.0,17.0,S. Adams                    ·                     C. Anthony                    ·                     T. Ferguson                    ·                     P. George                    ·                     R. Westbrook,,P. George,S. Adams,R. Westbrook,
"Sun, Jan 7, 2018",Phoenix Suns,100.0,114.0,22.0,18.0,S. Adams                    ·                     C. Anthony                    ·                     T. Ferguson                    ·                     P. George                    ·                     R. Westbrook,,P. George,S. Adams,R. Westbrook,
"Tue, Jan 9, 2018",Portland Trail Blazers,106.0,117.0,22.0,19.0,S. Adams                    ·                     C. Anthony                    ·                     T. Ferguson                    ·                     P. George                    ·                     R. Westbrook,,P. George,S. Adams,R. Westbrook,
"Wed, Jan 10, 2018",Minnesota Timberwolves,88.0,104.0,22.0,20.0,S. Adams                    ·                     C. Anthony                    ·                     T. Ferguson                    ·                     P. George                    ·                     R. Westbrook,,P. George,S. Adams,R. Westbrook,
"Sat, Jan 13, 2018",Charlotte Hornets,101.0,91.0,23.0,20.0,S. Adams                    ·                     C. Anthony                    ·                     T. Ferguson                    ·                     P. George                    ·                     R. Westbrook,,P. George,S. Adams,R. Westbrook,
"Mon, Jan 15, 2018",Sacramento Kings,95.0,88.0,24.0,20.0,S. Adams                    ·                     C. Anthony                    ·                     T. Ferguson                    ·                     P. George                    ·                     R. Westbrook,,P. George,S. Adams,R. Westbrook,
"Wed, Jan 17, 2018",Los Angeles Lakers,114.0,90.0,25.0,20.0,S. Adams                    ·                     C. Anthony                    ·                     P. George                    ·                     A. Roberson                    ·                     R. Westbrook,,A. Roberson,S. Adams,R. Westbrook,
"Sat, Jan 20, 2018",Cleveland Cavaliers,148.0,124.0,26.0,20.0,S. Adams                    ·                     C. Anthony                    ·                     P. George                    ·                     A. Roberson                    ·                     R. Westbrook,,A. Roberson,S. Adams,R. Westbrook,
"Tue, Jan 23, 2018",Brooklyn Nets,109.0,108.0,27.0,20.0,S. Adams                    ·                     C. Anthony                    ·                     P. George                    ·                     A. Roberson                    ·                     R. Westbrook,,A. Roberson,S. Adams,R. Westbrook,
"Thu, Jan 25, 2018",Washington Wizards,121.0,112.0,28.0,20.0,S. Adams                    ·                     C. Anthony                    ·                     P. George                    ·                     A. Roberson                    ·                     R. Westbrook,,A. Roberson,S. Adams,R. Westbrook,
"Sat, Jan 27, 2018",Detroit Pistons,121.0,108.0,29.0,20.0,S. Adams                    ·                     C. Anthony                    ·                     P. George                    ·                     A. Roberson                    ·                     R. Westbrook,,A. Roberson,S. Adams,R. Westbrook,
"Sun, Jan 28, 2018",Philadelphia 76ers,122.0,112.0,30.0,20.0,S. Adams                    ·                     C. Anthony                    ·                     T. Ferguson                    ·                     P. George                    ·                     R. Westbrook,,P. George,S. Adams,R. Westbrook,
"Tue, Jan 30, 2018",Washington Wizards,96.0,102.0,30.0,21.0,S. Adams                    ·                     C. Anthony                    ·                     T. Ferguson                    ·                     P. George                    ·                     R. Westbrook,,P. George,S. Adams,R. Westbrook,
"Thu, Feb 1, 2018",Denver Nuggets,124.0,127.0,30.0,22.0,S. Adams                    ·                     C. Anthony                    ·                     T. Ferguson                    ·                     P. George                    ·                     R. Westbrook,,P. George,S. Adams,R. Westbrook,
"Fri, Feb 2, 2018",New Orleans Pelicans,100.0,114.0,30.0,23.0,S. Adams                    ·                     C. Anthony                    ·                     T. Ferguson                    ·                     P. George                    ·                     R. Westbrook,,P. George,S. Adams,R. Westbrook,
"Sun, Feb 4, 2018",Los Angeles Lakers,104.0,108.0,30.0,24.0,S. Adams                    ·                     C. Anthony                    ·                     T. Ferguson                    ·                     P. George                    ·                     R. Westbrook,,P. George,S. Adams,R. Westbrook,
"Tue, Feb 6, 2018",Golden State Warriors,125.0,105.0,31.0,24.0,S. Adams                    ·                     C. Anthony                    ·                     P. George                    ·                     J. Huestis                    ·                     R. Westbrook,J. Huestis,P. George,S. Adams,R. Westbrook,
"Thu, Feb 8, 2018",Los Angeles Lakers,81.0,106.0,31.0,25.0,S. Adams                    ·                     R. Felton                    ·                     P. George                    ·                     J. Huestis                    ·                     P. Patterson,P. Patterson,P. George,S. Adams,R. Felton,
"Sun, Feb 11, 2018",Memphis Grizzlies,110.0,92.0,32.0,25.0,Á. Abrines                    ·                     S. Adams                    ·                     R. Felton                    ·                     P. George                    ·                     P. Patterson,P. Patterson,P. George,S. Adams,R. Felton,A. Abrines
"Tue, Feb 13, 2018",Cleveland Cavaliers,112.0,120.0,32.0,26.0,Á. Abrines                    ·                     S. Adams                    ·                     C. Anthony                    ·                     P. George                    ·                     R. Westbrook,,P. George,S. Adams,R. Westbrook,A. Abrines
"Wed, Feb 14, 2018",Memphis Grizzlies,121.0,114.0,33.0,26.0,Á. Abrines                    ·                     S. Adams                    ·                     C. Anthony                    ·                     P. George                    ·                     R. Westbrook,,P. George,S. Adams,R. Westbrook,A. Abrines
"Thu, Feb 22, 2018",Sacramento Kings,110.0,107.0,34.0,26.0,S. Adams                    ·                     C. Anthony                    ·                     P. George                    ·                     J. Huestis                    ·                     R. Westbrook,J. Huestis,P. George,S. Adams,R. Westbrook,
"Sat, Feb 24, 2018",Golden State Warriors,80.0,112.0,34.0,27.0,S. Adams                    ·                     C. Anthony                    ·                     P. George                    ·                     J. Huestis                    ·                     R. Westbrook,J. Huestis,P. George,S. Adams,R. Westbrook,
"Mon, Feb 26, 2018",Orlando Magic,112.0,105.0,35.0,27.0,S. Adams                    ·                     C. Anthony                    ·                     P. George                    ·                     J. Huestis                    ·                     R. Westbrook,J. Huestis,P. George,S. Adams,R. Westbrook,
"Wed, Feb 28, 2018",Dallas Mavericks,111.0,110.0,36.0,27.0,S. Adams                    ·                     C. Anthony                    ·                     P. George                    ·                     J. Huestis                    ·                     R. Westbrook,J. Huestis,P. George,S. Adams,R. Westbrook,
"Fri, Mar 2, 2018",Phoenix Suns,124.0,116.0,37.0,27.0,S. Adams                    ·                     C. Anthony                    ·                     P. George                    ·                     J. Huestis                    ·                     R. Westbrook,J. Huestis,P. George,S. Adams,R. Westbrook,
"Sat, Mar 3, 2018",Portland Trail Blazers,100.0,108.0,37.0,28.0,S. Adams                    ·                     P. George                    ·                     J. Huestis                    ·                     P. Patterson                    ·                     R. Westbrook,P. Patterson,P. George,S. Adams,R. Westbrook,
"Tue, Mar 6, 2018",Houston Rockets,112.0,122.0,37.0,29.0,S. Adams                    ·                     C. Anthony                    ·                     P. George                    ·                     J. Huestis                    ·                     R. Westbrook,J. Huestis,P. George,S. Adams,R. Westbrook,
"Thu, Mar 8, 2018",Phoenix Suns,115.0,87.0,38.0,29.0,S. Adams                    ·                     C. Anthony                    ·                     C. Brewer                    ·                     P. George                    ·                     R. Westbrook,,P. George,S. Adams,R. Westbrook,
"Sat, Mar 10, 2018",San Antonio Spurs,104.0,94.0,39.0,29.0,S. Adams                    ·                     C. Anthony                    ·                     C. Brewer                    ·                     P. George                    ·                     R. Westbrook,,P. George,S. Adams,R. Westbrook,
"Mon, Mar 12, 2018",Sacramento Kings,106.0,101.0,40.0,29.0,S. Adams                    ·                     C. Anthony                    ·                     C. Brewer                    ·                     P. George                    ·                     R. Westbrook,,P. George,S. Adams,R. Westbrook,
"Tue, Mar 13, 2018",Atlanta Hawks,119.0,107.0,41.0,29.0,C. Anthony                    ·                     C. Brewer                    ·                     P. George                    ·                     D. Johnson                    ·                     R. Westbrook,,P. George,,R. Westbrook,
"Fri, Mar 16, 2018",Los Angeles Clippers,121.0,113.0,42.0,29.0,S. Adams                    ·                     C. Anthony                    ·                     C. Brewer                    ·                     P. George                    ·                     R. Westbrook,,P. George,S. Adams,R. Westbrook,
"Sun, Mar 18, 2018",Toronto Raptors,132.0,125.0,43.0,29.0,S. Adams                    ·                     C. Anthony                    ·                     C. Brewer                    ·                     P. George                    ·                     R. Westbrook,,P. George,S. Adams,R. Westbrook,
"Tue, Mar 20, 2018",Boston Celtics,99.0,100.0,43.0,30.0,S. Adams                    ·                     C. Anthony                    ·                     C. Brewer                    ·                     P. George                    ·                     R. Westbrook,,P. George,S. Adams,R. Westbrook,
"Fri, Mar 23, 2018",Miami Heat,105.0,99.0,44.0,30.0,S. Adams                    ·                     C. Anthony                    ·                     C. Brewer                    ·                     P. George                    ·                     R. Westbrook,,P. George,S. Adams,R. Westbrook,
"Sun, Mar 25, 2018",Portland Trail Blazers,105.0,108.0,44.0,31.0,S. Adams                    ·                     C. Anthony                    ·                     C. Brewer                    ·                     P. George                    ·                     R. Westbrook,,P. George,S. Adams,R. Westbrook,
"Thu, Mar 29, 2018",San Antonio Spurs,99.0,103.0,44.0,32.0,S. Adams                    ·                     C. Anthony                    ·                     C. Brewer                    ·                     P. George                    ·                     R. Westbrook,,P. George,S. Adams,R. Westbrook,
"Fri, Mar 30, 2018",Denver Nuggets,125.0,126.0,44.0,33.0,S. Adams                    ·                     C. Anthony                    ·                     C. Brewer                    ·                     P. George                    ·                     R. Westbrook,,P. George,S. Adams,R. Westbrook,
"Sun, Apr 1, 2018",New Orleans Pelicans,109.0,104.0,45.0,33.0,S. Adams                    ·                     C. Anthony                    ·                     C. Brewer                    ·                     P. George                    ·                     R. Westbrook,,P. George,S. Adams,R. Westbrook,
"Tue, Apr 3, 2018",Golden State Warriors,107.0,111.0,45.0,34.0,S. Adams                    ·                     C. Anthony                    ·                     C. Brewer                    ·                     P. George                    ·                     R. Westbrook,,P. George,S. Adams,R. Westbrook,
"Sat, Apr 7, 2018",Houston Rockets,108.0,102.0,46.0,34.0,S. Adams                    ·                     C. Anthony                    ·                     C. Brewer                    ·                     P. George                    ·                     R. Westbrook,,P. George,S. Adams,R. Westbrook,
"Mon, Apr 9, 2018",Miami Heat,115.0,93.0,47.0,34.0,S. Adams                    ·                     C. Anthony                    ·                     C. Brewer                    ·                     P. George                    ·                     R. Westbrook,,P. George,S. Adams,R. Westbrook,
"Wed, Apr 11, 2018",Memphis Grizzlies,137.0,123.0,48.0,34.0,S. Adams                    ·                     C. Anthony                    ·                     C. Brewer                    ·                     P. George                    ·                     R. Westbrook,,P. George,S. Adams,R. Westbrook,
