Date,Opponent,Tm,Opp,W,L,Starting Lineup,PF,SF,C,PG,SG
"Thu, Oct 19, 2017",Oklahoma City Thunder,84.0,105.0,0.0,1.0,T. Hardaway                    ·                     E. Kanter                    ·                     C. Lee                    ·                     K. Porziņģis                    ·                     R. Sessions,K. Porzingis,,E. Kanter,R. Sessions,C. Lee
"Sat, Oct 21, 2017",Detroit Pistons,107.0,111.0,0.0,2.0,T. Hardaway                    ·                     E. Kanter                    ·                     C. Lee                    ·                     K. Porziņģis                    ·                     R. Sessions,K. Porzingis,,E. Kanter,R. Sessions,C. Lee
"Tue, Oct 24, 2017",Boston Celtics,89.0,110.0,0.0,3.0,T. Hardaway                    ·                     E. Kanter                    ·                     C. Lee                    ·                     K. Porziņģis                    ·                     R. Sessions,K. Porzingis,,E. Kanter,R. Sessions,C. Lee
"Fri, Oct 27, 2017",Brooklyn Nets,107.0,86.0,1.0,3.0,T. Hardaway                    ·                     J. Jack                    ·                     E. Kanter                    ·                     C. Lee                    ·                     K. Porziņģis,K. Porzingis,,E. Kanter,J. Jack,C. Lee
"Sun, Oct 29, 2017",Cleveland Cavaliers,114.0,95.0,2.0,3.0,T. Hardaway                    ·                     J. Jack                    ·                     E. Kanter                    ·                     C. Lee                    ·                     K. Porziņģis,K. Porzingis,,E. Kanter,J. Jack,C. Lee
"Mon, Oct 30, 2017",Denver Nuggets,116.0,110.0,3.0,3.0,T. Hardaway                    ·                     J. Jack                    ·                     E. Kanter                    ·                     C. Lee                    ·                     K. Porziņģis,K. Porzingis,,E. Kanter,J. Jack,C. Lee
"Wed, Nov 1, 2017",Houston Rockets,97.0,119.0,3.0,4.0,T. Hardaway                    ·                     J. Jack                    ·                     E. Kanter                    ·                     C. Lee                    ·                     K. Porziņģis,K. Porzingis,,E. Kanter,J. Jack,C. Lee
"Fri, Nov 3, 2017",Phoenix Suns,120.0,107.0,4.0,4.0,T. Hardaway                    ·                     J. Jack                    ·                     E. Kanter                    ·                     C. Lee                    ·                     K. Porziņģis,K. Porzingis,,E. Kanter,J. Jack,C. Lee
"Sun, Nov 5, 2017",Indiana Pacers,108.0,101.0,5.0,4.0,T. Hardaway                    ·                     J. Jack                    ·                     E. Kanter                    ·                     C. Lee                    ·                     K. Porziņģis,K. Porzingis,,E. Kanter,J. Jack,C. Lee
"Tue, Nov 7, 2017",Charlotte Hornets,118.0,113.0,6.0,4.0,T. Hardaway                    ·                     J. Jack                    ·                     E. Kanter                    ·                     C. Lee                    ·                     K. Porziņģis,K. Porzingis,,E. Kanter,J. Jack,C. Lee
"Wed, Nov 8, 2017",Orlando Magic,99.0,112.0,6.0,5.0,M. Beasley                    ·                     T. Hardaway                    ·                     J. Jack                    ·                     E. Kanter                    ·                     C. Lee,,,E. Kanter,J. Jack,C. Lee
"Sat, Nov 11, 2017",Sacramento Kings,118.0,91.0,7.0,5.0,T. Hardaway                    ·                     J. Jack                    ·                     E. Kanter                    ·                     C. Lee                    ·                     K. Porziņģis,K. Porzingis,,E. Kanter,J. Jack,C. Lee
"Mon, Nov 13, 2017",Cleveland Cavaliers,101.0,104.0,7.0,6.0,T. Hardaway                    ·                     J. Jack                    ·                     E. Kanter                    ·                     C. Lee                    ·                     K. Porziņģis,K. Porzingis,,E. Kanter,J. Jack,C. Lee
"Wed, Nov 15, 2017",Utah Jazz,106.0,101.0,8.0,6.0,T. Hardaway                    ·                     J. Jack                    ·                     E. Kanter                    ·                     C. Lee                    ·                     K. Porziņģis,K. Porzingis,,E. Kanter,J. Jack,C. Lee
"Fri, Nov 17, 2017",Toronto Raptors,84.0,107.0,8.0,7.0,T. Hardaway                    ·                     J. Jack                    ·                     E. Kanter                    ·                     C. Lee                    ·                     K. Porziņģis,K. Porzingis,,E. Kanter,J. Jack,C. Lee
"Mon, Nov 20, 2017",Los Angeles Clippers,107.0,85.0,9.0,7.0,T. Hardaway                    ·                     J. Jack                    ·                     E. Kanter                    ·                     C. Lee                    ·                     K. Porziņģis,K. Porzingis,,E. Kanter,J. Jack,C. Lee
"Wed, Nov 22, 2017",Toronto Raptors,108.0,100.0,10.0,7.0,T. Hardaway                    ·                     J. Jack                    ·                     E. Kanter                    ·                     C. Lee                    ·                     K. Porziņģis,K. Porzingis,,E. Kanter,J. Jack,C. Lee
"Fri, Nov 24, 2017",Atlanta Hawks,104.0,116.0,10.0,8.0,T. Hardaway                    ·                     J. Jack                    ·                     C. Lee                    ·                     K. O'Quinn                    ·                     K. Porziņģis,K. Porzingis,,K. O,J. Jack,C. Lee
"Sat, Nov 25, 2017",Houston Rockets,102.0,117.0,10.0,9.0,M. Beasley                    ·                     T. Hardaway                    ·                     J. Jack                    ·                     C. Lee                    ·                     K. O'Quinn,,,K. O,J. Jack,C. Lee
"Mon, Nov 27, 2017",Portland Trail Blazers,91.0,103.0,10.0,10.0,T. Hardaway                    ·                     J. Jack                    ·                     C. Lee                    ·                     K. O'Quinn                    ·                     K. Porziņģis,K. Porzingis,,K. O,J. Jack,C. Lee
"Wed, Nov 29, 2017",Miami Heat,115.0,86.0,11.0,10.0,T. Hardaway                    ·                     J. Jack                    ·                     E. Kanter                    ·                     C. Lee                    ·                     K. Porziņģis,K. Porzingis,,E. Kanter,J. Jack,C. Lee
"Sun, Dec 3, 2017",Orlando Magic,100.0,105.0,11.0,11.0,M. Beasley                    ·                     D. Dotson                    ·                     J. Jack                    ·                     E. Kanter                    ·                     C. Lee,,,E. Kanter,J. Jack,C. Lee
"Mon, Dec 4, 2017",Indiana Pacers,97.0,115.0,11.0,12.0,M. Beasley                    ·                     D. Dotson                    ·                     J. Jack                    ·                     E. Kanter                    ·                     C. Lee,,,E. Kanter,J. Jack,C. Lee
"Wed, Dec 6, 2017",Memphis Grizzlies,99.0,88.0,12.0,12.0,J. Jack                    ·                     E. Kanter                    ·                     C. Lee                    ·                     K. Porziņģis                    ·                     L. Thomas,L. Thomas,,E. Kanter,J. Jack,C. Lee
"Sat, Dec 9, 2017",Chicago Bulls,102.0,104.0,12.0,13.0,J. Jack                    ·                     E. Kanter                    ·                     C. Lee                    ·                     K. Porziņģis                    ·                     L. Thomas,L. Thomas,,E. Kanter,J. Jack,C. Lee
"Sun, Dec 10, 2017",Atlanta Hawks,111.0,107.0,13.0,13.0,J. Jack                    ·                     E. Kanter                    ·                     C. Lee                    ·                     K. Porziņģis                    ·                     L. Thomas,L. Thomas,,E. Kanter,J. Jack,C. Lee
"Tue, Dec 12, 2017",Los Angeles Lakers,113.0,109.0,14.0,13.0,J. Jack                    ·                     E. Kanter                    ·                     C. Lee                    ·                     K. Porziņģis                    ·                     L. Thomas,L. Thomas,,E. Kanter,J. Jack,C. Lee
"Thu, Dec 14, 2017",Brooklyn Nets,111.0,104.0,15.0,13.0,J. Jack                    ·                     E. Kanter                    ·                     C. Lee                    ·                     K. Porziņģis                    ·                     L. Thomas,L. Thomas,,E. Kanter,J. Jack,C. Lee
"Sat, Dec 16, 2017",Oklahoma City Thunder,111.0,96.0,16.0,13.0,M. Beasley                    ·                     J. Jack                    ·                     E. Kanter                    ·                     C. Lee                    ·                     L. Thomas,L. Thomas,,E. Kanter,J. Jack,C. Lee
"Mon, Dec 18, 2017",Charlotte Hornets,91.0,109.0,16.0,14.0,M. Beasley                    ·                     J. Jack                    ·                     E. Kanter                    ·                     C. Lee                    ·                     L. Thomas,L. Thomas,,E. Kanter,J. Jack,C. Lee
"Thu, Dec 21, 2017",Boston Celtics,102.0,93.0,17.0,14.0,J. Jack                    ·                     E. Kanter                    ·                     C. Lee                    ·                     K. Porziņģis                    ·                     L. Thomas,L. Thomas,,E. Kanter,J. Jack,C. Lee
"Fri, Dec 22, 2017",Detroit Pistons,101.0,104.0,17.0,15.0,J. Jack                    ·                     E. Kanter                    ·                     C. Lee                    ·                     K. Porziņģis                    ·                     L. Thomas,L. Thomas,,E. Kanter,J. Jack,C. Lee
"Mon, Dec 25, 2017",Philadelphia 76ers,98.0,105.0,17.0,16.0,J. Jack                    ·                     E. Kanter                    ·                     C. Lee                    ·                     K. Porziņģis                    ·                     L. Thomas,L. Thomas,,E. Kanter,J. Jack,C. Lee
"Wed, Dec 27, 2017",Chicago Bulls,87.0,92.0,17.0,17.0,J. Jack                    ·                     E. Kanter                    ·                     C. Lee                    ·                     D. McDermott                    ·                     K. Porziņģis,K. Porzingis,D. McDermott,E. Kanter,J. Jack,C. Lee
"Thu, Dec 28, 2017",San Antonio Spurs,107.0,119.0,17.0,18.0,J. Jack                    ·                     E. Kanter                    ·                     C. Lee                    ·                     K. Porziņģis                    ·                     L. Thomas,L. Thomas,,E. Kanter,J. Jack,C. Lee
"Sat, Dec 30, 2017",New Orleans Pelicans,105.0,103.0,18.0,18.0,J. Jack                    ·                     E. Kanter                    ·                     C. Lee                    ·                     K. Porziņģis                    ·                     L. Thomas,L. Thomas,,E. Kanter,J. Jack,C. Lee
"Tue, Jan 2, 2018",San Antonio Spurs,91.0,100.0,18.0,19.0,J. Jack                    ·                     E. Kanter                    ·                     C. Lee                    ·                     K. Porziņģis                    ·                     L. Thomas,L. Thomas,,E. Kanter,J. Jack,C. Lee
"Wed, Jan 3, 2018",Washington Wizards,103.0,121.0,18.0,20.0,J. Jack                    ·                     E. Kanter                    ·                     C. Lee                    ·                     K. Porziņģis                    ·                     L. Thomas,L. Thomas,,E. Kanter,J. Jack,C. Lee
"Fri, Jan 5, 2018",Miami Heat,103.0,107.0,18.0,21.0,J. Jack                    ·                     E. Kanter                    ·                     C. Lee                    ·                     K. Porziņģis                    ·                     L. Thomas,L. Thomas,,E. Kanter,J. Jack,C. Lee
"Sun, Jan 7, 2018",Dallas Mavericks,100.0,96.0,19.0,21.0,J. Jack                    ·                     E. Kanter                    ·                     C. Lee                    ·                     K. Porziņģis                    ·                     L. Thomas,L. Thomas,,E. Kanter,J. Jack,C. Lee
"Wed, Jan 10, 2018",Chicago Bulls,119.0,122.0,19.0,22.0,J. Jack                    ·                     E. Kanter                    ·                     C. Lee                    ·                     K. Porziņģis                    ·                     L. Thomas,L. Thomas,,E. Kanter,J. Jack,C. Lee
"Fri, Jan 12, 2018",Minnesota Timberwolves,108.0,118.0,19.0,23.0,J. Jack                    ·                     E. Kanter                    ·                     C. Lee                    ·                     K. Porziņģis                    ·                     L. Thomas,L. Thomas,,E. Kanter,J. Jack,C. Lee
"Sun, Jan 14, 2018",New Orleans Pelicans,118.0,123.0,19.0,24.0,J. Jack                    ·                     E. Kanter                    ·                     C. Lee                    ·                     K. Porziņģis                    ·                     L. Thomas,L. Thomas,,E. Kanter,J. Jack,C. Lee
"Mon, Jan 15, 2018",Brooklyn Nets,119.0,104.0,20.0,24.0,J. Jack                    ·                     E. Kanter                    ·                     C. Lee                    ·                     K. Porziņģis                    ·                     L. Thomas,L. Thomas,,E. Kanter,J. Jack,C. Lee
"Wed, Jan 17, 2018",Memphis Grizzlies,99.0,105.0,20.0,25.0,J. Jack                    ·                     E. Kanter                    ·                     C. Lee                    ·                     K. Porziņģis                    ·                     L. Thomas,L. Thomas,,E. Kanter,J. Jack,C. Lee
"Fri, Jan 19, 2018",Utah Jazz,117.0,115.0,21.0,25.0,T. Hardaway                    ·                     J. Jack                    ·                     E. Kanter                    ·                     C. Lee                    ·                     K. Porziņģis,K. Porzingis,,E. Kanter,J. Jack,C. Lee
"Sun, Jan 21, 2018",Los Angeles Lakers,107.0,127.0,21.0,26.0,T. Hardaway                    ·                     J. Jack                    ·                     E. Kanter                    ·                     C. Lee                    ·                     K. Porziņģis,K. Porzingis,,E. Kanter,J. Jack,C. Lee
"Tue, Jan 23, 2018",Golden State Warriors,112.0,123.0,21.0,27.0,M. Beasley                    ·                     T. Hardaway                    ·                     J. Jack                    ·                     E. Kanter                    ·                     C. Lee,,,E. Kanter,J. Jack,C. Lee
"Thu, Jan 25, 2018",Denver Nuggets,118.0,130.0,21.0,28.0,R. Baker                    ·                     J. Jack                    ·                     E. Kanter                    ·                     C. Lee                    ·                     K. Porziņģis,K. Porzingis,,E. Kanter,J. Jack,C. Lee
"Fri, Jan 26, 2018",Phoenix Suns,107.0,85.0,22.0,28.0,T. Hardaway                    ·                     J. Jack                    ·                     E. Kanter                    ·                     C. Lee                    ·                     K. Porziņģis,K. Porzingis,,E. Kanter,J. Jack,C. Lee
"Tue, Jan 30, 2018",Brooklyn Nets,111.0,95.0,23.0,28.0,T. Hardaway                    ·                     J. Jack                    ·                     E. Kanter                    ·                     C. Lee                    ·                     K. Porziņģis,K. Porzingis,,E. Kanter,J. Jack,C. Lee
"Wed, Jan 31, 2018",Boston Celtics,73.0,103.0,23.0,29.0,T. Hardaway                    ·                     J. Jack                    ·                     E. Kanter                    ·                     C. Lee                    ·                     K. Porziņģis,K. Porzingis,,E. Kanter,J. Jack,C. Lee
"Fri, Feb 2, 2018",Milwaukee Bucks,90.0,92.0,23.0,30.0,T. Hardaway                    ·                     J. Jack                    ·                     E. Kanter                    ·                     C. Lee                    ·                     K. Porziņģis,K. Porzingis,,E. Kanter,J. Jack,C. Lee
"Sun, Feb 4, 2018",Atlanta Hawks,96.0,99.0,23.0,31.0,T. Hardaway                    ·                     J. Jack                    ·                     E. Kanter                    ·                     C. Lee                    ·                     K. Porziņģis,K. Porzingis,,E. Kanter,J. Jack,C. Lee
"Tue, Feb 6, 2018",Milwaukee Bucks,89.0,103.0,23.0,32.0,T. Hardaway                    ·                     J. Jack                    ·                     E. Kanter                    ·                     C. Lee                    ·                     K. Porziņģis,K. Porzingis,,E. Kanter,J. Jack,C. Lee
"Thu, Feb 8, 2018",Toronto Raptors,88.0,113.0,23.0,33.0,M. Beasley                    ·                     T. Hardaway                    ·                     J. Jack                    ·                     C. Lee                    ·                     K. O'Quinn,,,K. O,J. Jack,C. Lee
"Sun, Feb 11, 2018",Indiana Pacers,113.0,121.0,23.0,34.0,M. Beasley                    ·                     T. Hardaway                    ·                     J. Jack                    ·                     E. Kanter                    ·                     C. Lee,,,E. Kanter,J. Jack,C. Lee
"Mon, Feb 12, 2018",Philadelphia 76ers,92.0,108.0,23.0,35.0,M. Beasley                    ·                     T. Hardaway                    ·                     J. Jack                    ·                     E. Kanter                    ·                     L. Thomas,L. Thomas,,E. Kanter,J. Jack,T. Hardaway
"Wed, Feb 14, 2018",Washington Wizards,113.0,118.0,23.0,36.0,M. Beasley                    ·                     T. Hardaway                    ·                     J. Jack                    ·                     E. Kanter                    ·                     C. Lee,,,E. Kanter,J. Jack,C. Lee
"Thu, Feb 22, 2018",Orlando Magic,120.0,113.0,24.0,36.0,M. Beasley                    ·                     T. Hardaway                    ·                     E. Kanter                    ·                     C. Lee                    ·                     E. Mudiay,,,E. Kanter,E. Mudiay,C. Lee
"Sat, Feb 24, 2018",Boston Celtics,112.0,121.0,24.0,37.0,M. Beasley                    ·                     T. Hardaway                    ·                     E. Kanter                    ·                     C. Lee                    ·                     E. Mudiay,,,E. Kanter,E. Mudiay,C. Lee
"Mon, Feb 26, 2018",Golden State Warriors,111.0,125.0,24.0,38.0,M. Beasley                    ·                     T. Hardaway                    ·                     E. Kanter                    ·                     C. Lee                    ·                     E. Mudiay,,,E. Kanter,E. Mudiay,C. Lee
"Fri, Mar 2, 2018",Los Angeles Clippers,105.0,128.0,24.0,39.0,M. Beasley                    ·                     T. Hardaway                    ·                     E. Kanter                    ·                     C. Lee                    ·                     E. Mudiay,,,E. Kanter,E. Mudiay,C. Lee
"Sun, Mar 4, 2018",Sacramento Kings,99.0,102.0,24.0,40.0,M. Beasley                    ·                     T. Hardaway                    ·                     E. Kanter                    ·                     C. Lee                    ·                     E. Mudiay,,,E. Kanter,E. Mudiay,C. Lee
"Tue, Mar 6, 2018",Portland Trail Blazers,87.0,111.0,24.0,41.0,T. Hardaway                    ·                     E. Kanter                    ·                     E. Mudiay                    ·                     F. Ntilikina                    ·                     L. Thomas,L. Thomas,,E. Kanter,E. Mudiay,T. Hardaway
"Fri, Mar 9, 2018",Milwaukee Bucks,112.0,120.0,24.0,42.0,T. Hardaway                    ·                     E. Kanter                    ·                     E. Mudiay                    ·                     F. Ntilikina                    ·                     L. Thomas,L. Thomas,,E. Kanter,E. Mudiay,T. Hardaway
"Sun, Mar 11, 2018",Toronto Raptors,106.0,132.0,24.0,43.0,M. Beasley                    ·                     T. Hardaway                    ·                     L. Kornet                    ·                     E. Mudiay                    ·                     F. Ntilikina,,,,E. Mudiay,T. Hardaway
"Tue, Mar 13, 2018",Dallas Mavericks,97.0,110.0,24.0,44.0,T. Hardaway                    ·                     E. Kanter                    ·                     C. Lee                    ·                     E. Mudiay                    ·                     L. Thomas,L. Thomas,,E. Kanter,E. Mudiay,C. Lee
"Thu, Mar 15, 2018",Philadelphia 76ers,110.0,118.0,24.0,45.0,M. Beasley                    ·                     T. Hardaway                    ·                     E. Kanter                    ·                     C. Lee                    ·                     E. Mudiay,,,E. Kanter,E. Mudiay,C. Lee
"Sat, Mar 17, 2018",Charlotte Hornets,124.0,101.0,25.0,45.0,M. Beasley                    ·                     T. Hardaway                    ·                     E. Kanter                    ·                     E. Mudiay                    ·                     L. Thomas,L. Thomas,,E. Kanter,E. Mudiay,T. Hardaway
"Mon, Mar 19, 2018",Chicago Bulls,110.0,92.0,26.0,45.0,M. Beasley                    ·                     T. Hardaway                    ·                     E. Kanter                    ·                     C. Lee                    ·                     E. Mudiay,,,E. Kanter,E. Mudiay,C. Lee
"Wed, Mar 21, 2018",Miami Heat,98.0,119.0,26.0,46.0,M. Beasley                    ·                     T. Hardaway                    ·                     E. Kanter                    ·                     C. Lee                    ·                     E. Mudiay,,,E. Kanter,E. Mudiay,C. Lee
"Fri, Mar 23, 2018",Minnesota Timberwolves,104.0,108.0,26.0,47.0,M. Beasley                    ·                     T. Hardaway                    ·                     E. Kanter                    ·                     C. Lee                    ·                     E. Mudiay,,,E. Kanter,E. Mudiay,C. Lee
"Sun, Mar 25, 2018",Washington Wizards,101.0,97.0,27.0,47.0,M. Beasley                    ·                     T. Burke                    ·                     T. Hardaway                    ·                     E. Kanter                    ·                     F. Ntilikina,,,E. Kanter,T. Burke,T. Hardaway
"Mon, Mar 26, 2018",Charlotte Hornets,128.0,137.0,27.0,48.0,M. Beasley                    ·                     T. Burke                    ·                     T. Hardaway                    ·                     E. Kanter                    ·                     L. Thomas,L. Thomas,,E. Kanter,T. Burke,T. Hardaway
"Wed, Mar 28, 2018",Philadelphia 76ers,101.0,118.0,27.0,49.0,M. Beasley                    ·                     T. Burke                    ·                     T. Hardaway                    ·                     E. Kanter                    ·                     L. Thomas,L. Thomas,,E. Kanter,T. Burke,T. Hardaway
"Sat, Mar 31, 2018",Detroit Pistons,109.0,115.0,27.0,50.0,M. Beasley                    ·                     T. Burke                    ·                     T. Hardaway                    ·                     K. O'Quinn                    ·                     T. Williams,,T. Williams,K. O,T. Burke,T. Hardaway
"Tue, Apr 3, 2018",Orlando Magic,73.0,97.0,27.0,51.0,T. Burke                    ·                     T. Hardaway                    ·                     F. Ntilikina                    ·                     K. O'Quinn                    ·                     L. Thomas,L. Thomas,,K. O,T. Burke,T. Hardaway
"Fri, Apr 6, 2018",Miami Heat,122.0,98.0,28.0,51.0,M. Beasley                    ·                     T. Burke                    ·                     T. Hardaway                    ·                     F. Ntilikina                    ·                     K. O'Quinn,,,K. O,T. Burke,T. Hardaway
"Sat, Apr 7, 2018",Milwaukee Bucks,102.0,115.0,28.0,52.0,M. Beasley                    ·                     T. Burke                    ·                     C. Lee                    ·                     F. Ntilikina                    ·                     K. O'Quinn,,,K. O,T. Burke,C. Lee
"Mon, Apr 9, 2018",Cleveland Cavaliers,109.0,123.0,28.0,53.0,M. Beasley                    ·                     T. Burke                    ·                     F. Ntilikina                    ·                     K. O'Quinn                    ·                     L. Thomas,L. Thomas,,K. O,T. Burke,M. Beasley
"Wed, Apr 11, 2018",Cleveland Cavaliers,110.0,98.0,29.0,53.0,M. Beasley                    ·                     T. Burke                    ·                     F. Ntilikina                    ·                     K. O'Quinn                    ·                     L. Thomas,L. Thomas,,K. O,T. Burke,M. Beasley
