Date,Opponent,Tm,Opp,W,L,Starting Lineup,PF,SF,C,PG,SG
"Wed, Oct 18, 2017",Phoenix Suns,124.0,76.0,1.0,0.0,A. Aminu                    ·                     M. Harkless                    ·                     D. Lillard                    ·                     J. Nurkić                    ·                     E. Turner,A. Aminu,E. Turner,J. Nurkic,D. Lillard,
"Fri, Oct 20, 2017",Indiana Pacers,114.0,96.0,2.0,0.0,A. Aminu                    ·                     M. Harkless                    ·                     D. Lillard                    ·                     C. McCollum                    ·                     J. Nurkić,A. Aminu,M. Harkless,J. Nurkic,D. Lillard,C. McCollum
"Sat, Oct 21, 2017",Milwaukee Bucks,110.0,113.0,2.0,1.0,A. Aminu                    ·                     M. Harkless                    ·                     D. Lillard                    ·                     C. McCollum                    ·                     J. Nurkić,A. Aminu,M. Harkless,J. Nurkic,D. Lillard,C. McCollum
"Tue, Oct 24, 2017",New Orleans Pelicans,103.0,93.0,3.0,1.0,A. Aminu                    ·                     M. Harkless                    ·                     D. Lillard                    ·                     C. McCollum                    ·                     J. Nurkić,A. Aminu,M. Harkless,J. Nurkic,D. Lillard,C. McCollum
"Thu, Oct 26, 2017",Los Angeles Clippers,103.0,104.0,3.0,2.0,A. Aminu                    ·                     M. Harkless                    ·                     D. Lillard                    ·                     C. McCollum                    ·                     J. Nurkić,A. Aminu,M. Harkless,J. Nurkic,D. Lillard,C. McCollum
"Sat, Oct 28, 2017",Phoenix Suns,114.0,107.0,4.0,2.0,A. Aminu                    ·                     M. Harkless                    ·                     D. Lillard                    ·                     C. McCollum                    ·                     J. Nurkić,A. Aminu,M. Harkless,J. Nurkic,D. Lillard,C. McCollum
"Mon, Oct 30, 2017",Toronto Raptors,85.0,99.0,4.0,3.0,A. Aminu                    ·                     M. Harkless                    ·                     D. Lillard                    ·                     C. McCollum                    ·                     J. Nurkić,A. Aminu,M. Harkless,J. Nurkic,D. Lillard,C. McCollum
"Wed, Nov 1, 2017",Utah Jazz,103.0,112.0,4.0,4.0,A. Aminu                    ·                     M. Harkless                    ·                     D. Lillard                    ·                     C. McCollum                    ·                     J. Nurkić,A. Aminu,M. Harkless,J. Nurkic,D. Lillard,C. McCollum
"Thu, Nov 2, 2017",Los Angeles Lakers,113.0,110.0,5.0,4.0,M. Harkless                    ·                     D. Lillard                    ·                     C. McCollum                    ·                     J. Nurkić                    ·                     N. Vonleh,N. Vonleh,M. Harkless,J. Nurkic,D. Lillard,C. McCollum
"Sun, Nov 5, 2017",Oklahoma City Thunder,103.0,99.0,6.0,4.0,M. Harkless                    ·                     D. Lillard                    ·                     C. McCollum                    ·                     J. Nurkić                    ·                     N. Vonleh,N. Vonleh,M. Harkless,J. Nurkic,D. Lillard,C. McCollum
"Tue, Nov 7, 2017",Memphis Grizzlies,97.0,98.0,6.0,5.0,M. Harkless                    ·                     D. Lillard                    ·                     C. McCollum                    ·                     J. Nurkić                    ·                     N. Vonleh,N. Vonleh,M. Harkless,J. Nurkic,D. Lillard,C. McCollum
"Fri, Nov 10, 2017",Brooklyn Nets,97.0,101.0,6.0,6.0,M. Harkless                    ·                     D. Lillard                    ·                     C. McCollum                    ·                     J. Nurkić                    ·                     N. Vonleh,N. Vonleh,M. Harkless,J. Nurkic,D. Lillard,C. McCollum
"Mon, Nov 13, 2017",Denver Nuggets,99.0,82.0,7.0,6.0,M. Harkless                    ·                     D. Lillard                    ·                     C. McCollum                    ·                     J. Nurkić                    ·                     C. Swanigan,,M. Harkless,J. Nurkic,D. Lillard,C. McCollum
"Wed, Nov 15, 2017",Orlando Magic,99.0,94.0,8.0,6.0,M. Harkless                    ·                     D. Lillard                    ·                     C. McCollum                    ·                     J. Nurkić                    ·                     C. Swanigan,,M. Harkless,J. Nurkic,D. Lillard,C. McCollum
"Fri, Nov 17, 2017",Sacramento Kings,82.0,86.0,8.0,7.0,M. Harkless                    ·                     D. Lillard                    ·                     C. McCollum                    ·                     J. Nurkić                    ·                     C. Swanigan,,M. Harkless,J. Nurkic,D. Lillard,C. McCollum
"Sat, Nov 18, 2017",Sacramento Kings,102.0,90.0,9.0,7.0,M. Harkless                    ·                     D. Lillard                    ·                     C. McCollum                    ·                     J. Nurkić                    ·                     N. Vonleh,N. Vonleh,M. Harkless,J. Nurkic,D. Lillard,C. McCollum
"Mon, Nov 20, 2017",Memphis Grizzlies,100.0,92.0,10.0,7.0,M. Harkless                    ·                     D. Lillard                    ·                     C. McCollum                    ·                     J. Nurkić                    ·                     N. Vonleh,N. Vonleh,M. Harkless,J. Nurkic,D. Lillard,C. McCollum
"Wed, Nov 22, 2017",Philadelphia 76ers,81.0,101.0,10.0,8.0,M. Harkless                    ·                     D. Lillard                    ·                     C. McCollum                    ·                     J. Nurkić                    ·                     N. Vonleh,N. Vonleh,M. Harkless,J. Nurkic,D. Lillard,C. McCollum
"Fri, Nov 24, 2017",Brooklyn Nets,127.0,125.0,11.0,8.0,P. Connaughton                    ·                     D. Lillard                    ·                     C. McCollum                    ·                     J. Nurkić                    ·                     N. Vonleh,N. Vonleh,,J. Nurkic,D. Lillard,C. McCollum
"Sat, Nov 25, 2017",Washington Wizards,108.0,105.0,12.0,8.0,P. Connaughton                    ·                     D. Lillard                    ·                     C. McCollum                    ·                     J. Nurkić                    ·                     N. Vonleh,N. Vonleh,,J. Nurkic,D. Lillard,C. McCollum
"Mon, Nov 27, 2017",New York Knicks,103.0,91.0,13.0,8.0,P. Connaughton                    ·                     D. Lillard                    ·                     C. McCollum                    ·                     J. Nurkić                    ·                     N. Vonleh,N. Vonleh,,J. Nurkic,D. Lillard,C. McCollum
"Thu, Nov 30, 2017",Milwaukee Bucks,91.0,103.0,13.0,9.0,P. Connaughton                    ·                     D. Lillard                    ·                     C. McCollum                    ·                     J. Nurkić                    ·                     N. Vonleh,N. Vonleh,,J. Nurkic,D. Lillard,C. McCollum
"Sat, Dec 2, 2017",New Orleans Pelicans,116.0,123.0,13.0,10.0,P. Connaughton                    ·                     D. Lillard                    ·                     C. McCollum                    ·                     J. Nurkić                    ·                     N. Vonleh,N. Vonleh,,J. Nurkic,D. Lillard,C. McCollum
"Tue, Dec 5, 2017",Washington Wizards,92.0,106.0,13.0,11.0,A. Aminu                    ·                     M. Harkless                    ·                     D. Lillard                    ·                     C. McCollum                    ·                     J. Nurkić,A. Aminu,M. Harkless,J. Nurkic,D. Lillard,C. McCollum
"Sat, Dec 9, 2017",Houston Rockets,117.0,124.0,13.0,12.0,A. Aminu                    ·                     M. Leonard                    ·                     D. Lillard                    ·                     C. McCollum                    ·                     E. Turner,M. Leonard,E. Turner,,D. Lillard,C. McCollum
"Mon, Dec 11, 2017",Golden State Warriors,104.0,111.0,13.0,13.0,A. Aminu                    ·                     M. Leonard                    ·                     D. Lillard                    ·                     C. McCollum                    ·                     E. Turner,M. Leonard,E. Turner,,D. Lillard,C. McCollum
"Wed, Dec 13, 2017",Miami Heat,102.0,95.0,14.0,13.0,A. Aminu                    ·                     Z. Collins                    ·                     D. Lillard                    ·                     C. McCollum                    ·                     E. Turner,A. Aminu,E. Turner,,D. Lillard,C. McCollum
"Fri, Dec 15, 2017",Orlando Magic,95.0,88.0,15.0,13.0,A. Aminu                    ·                     D. Lillard                    ·                     C. McCollum                    ·                     J. Nurkić                    ·                     E. Turner,A. Aminu,E. Turner,J. Nurkic,D. Lillard,C. McCollum
"Sat, Dec 16, 2017",Charlotte Hornets,93.0,91.0,16.0,13.0,A. Aminu                    ·                     D. Lillard                    ·                     C. McCollum                    ·                     J. Nurkić                    ·                     E. Turner,A. Aminu,E. Turner,J. Nurkic,D. Lillard,C. McCollum
"Mon, Dec 18, 2017",Minnesota Timberwolves,107.0,108.0,16.0,14.0,A. Aminu                    ·                     D. Lillard                    ·                     C. McCollum                    ·                     J. Nurkić                    ·                     E. Turner,A. Aminu,E. Turner,J. Nurkic,D. Lillard,C. McCollum
"Wed, Dec 20, 2017",San Antonio Spurs,91.0,93.0,16.0,15.0,A. Aminu                    ·                     D. Lillard                    ·                     C. McCollum                    ·                     J. Nurkić                    ·                     E. Turner,A. Aminu,E. Turner,J. Nurkic,D. Lillard,C. McCollum
"Fri, Dec 22, 2017",Denver Nuggets,85.0,102.0,16.0,16.0,A. Aminu                    ·                     J. Layman                    ·                     C. McCollum                    ·                     J. Nurkić                    ·                     E. Turner,A. Aminu,E. Turner,J. Nurkic,,C. McCollum
"Sat, Dec 23, 2017",Los Angeles Lakers,95.0,92.0,17.0,16.0,A. Aminu                    ·                     C. McCollum                    ·                     S. Napier                    ·                     J. Nurkić                    ·                     E. Turner,A. Aminu,E. Turner,J. Nurkic,S. Napier,C. McCollum
"Thu, Dec 28, 2017",Philadelphia 76ers,114.0,110.0,18.0,16.0,A. Aminu                    ·                     C. McCollum                    ·                     S. Napier                    ·                     J. Nurkić                    ·                     E. Turner,A. Aminu,E. Turner,J. Nurkic,S. Napier,C. McCollum
"Sat, Dec 30, 2017",Atlanta Hawks,89.0,104.0,18.0,17.0,A. Aminu                    ·                     C. McCollum                    ·                     S. Napier                    ·                     J. Nurkić                    ·                     E. Turner,A. Aminu,E. Turner,J. Nurkic,S. Napier,C. McCollum
"Mon, Jan 1, 2018",Chicago Bulls,124.0,120.0,19.0,17.0,A. Aminu                    ·                     C. McCollum                    ·                     S. Napier                    ·                     J. Nurkić                    ·                     E. Turner,A. Aminu,E. Turner,J. Nurkic,S. Napier,C. McCollum
"Tue, Jan 2, 2018",Cleveland Cavaliers,110.0,127.0,19.0,18.0,A. Aminu                    ·                     D. Lillard                    ·                     C. McCollum                    ·                     J. Nurkić                    ·                     E. Turner,A. Aminu,E. Turner,J. Nurkic,D. Lillard,C. McCollum
"Fri, Jan 5, 2018",Atlanta Hawks,110.0,89.0,20.0,18.0,A. Aminu                    ·                     D. Lillard                    ·                     C. McCollum                    ·                     J. Nurkić                    ·                     E. Turner,A. Aminu,E. Turner,J. Nurkic,D. Lillard,C. McCollum
"Sun, Jan 7, 2018",San Antonio Spurs,111.0,110.0,21.0,18.0,A. Aminu                    ·                     C. McCollum                    ·                     S. Napier                    ·                     J. Nurkić                    ·                     E. Turner,A. Aminu,E. Turner,J. Nurkic,S. Napier,C. McCollum
"Tue, Jan 9, 2018",Oklahoma City Thunder,117.0,106.0,22.0,18.0,A. Aminu                    ·                     C. McCollum                    ·                     S. Napier                    ·                     J. Nurkić                    ·                     E. Turner,A. Aminu,E. Turner,J. Nurkic,S. Napier,C. McCollum
"Wed, Jan 10, 2018",Houston Rockets,112.0,121.0,22.0,19.0,A. Aminu                    ·                     D. Lillard                    ·                     C. McCollum                    ·                     J. Nurkić                    ·                     E. Turner,A. Aminu,E. Turner,J. Nurkic,D. Lillard,C. McCollum
"Fri, Jan 12, 2018",New Orleans Pelicans,113.0,119.0,22.0,20.0,A. Aminu                    ·                     D. Lillard                    ·                     C. McCollum                    ·                     S. Napier                    ·                     J. Nurkić,A. Aminu,,J. Nurkic,S. Napier,C. McCollum
"Sun, Jan 14, 2018",Minnesota Timberwolves,103.0,120.0,22.0,21.0,A. Aminu                    ·                     D. Lillard                    ·                     C. McCollum                    ·                     J. Nurkić                    ·                     E. Turner,A. Aminu,E. Turner,J. Nurkic,D. Lillard,C. McCollum
"Tue, Jan 16, 2018",Phoenix Suns,118.0,111.0,23.0,21.0,A. Aminu                    ·                     D. Lillard                    ·                     C. McCollum                    ·                     J. Nurkić                    ·                     E. Turner,A. Aminu,E. Turner,J. Nurkic,D. Lillard,C. McCollum
"Thu, Jan 18, 2018",Indiana Pacers,100.0,86.0,24.0,21.0,A. Aminu                    ·                     D. Lillard                    ·                     C. McCollum                    ·                     J. Nurkić                    ·                     E. Turner,A. Aminu,E. Turner,J. Nurkic,D. Lillard,C. McCollum
"Sat, Jan 20, 2018",Dallas Mavericks,117.0,108.0,25.0,21.0,A. Aminu                    ·                     D. Lillard                    ·                     C. McCollum                    ·                     J. Nurkić                    ·                     E. Turner,A. Aminu,E. Turner,J. Nurkic,D. Lillard,C. McCollum
"Mon, Jan 22, 2018",Denver Nuggets,101.0,104.0,25.0,22.0,A. Aminu                    ·                     D. Lillard                    ·                     C. McCollum                    ·                     J. Nurkić                    ·                     E. Turner,A. Aminu,E. Turner,J. Nurkic,D. Lillard,C. McCollum
"Wed, Jan 24, 2018",Minnesota Timberwolves,123.0,114.0,26.0,22.0,A. Aminu                    ·                     D. Lillard                    ·                     C. McCollum                    ·                     J. Nurkić                    ·                     E. Turner,A. Aminu,E. Turner,J. Nurkic,D. Lillard,C. McCollum
"Fri, Jan 26, 2018",Dallas Mavericks,107.0,93.0,27.0,22.0,A. Aminu                    ·                     M. Harkless                    ·                     D. Lillard                    ·                     C. McCollum                    ·                     J. Nurkić,A. Aminu,M. Harkless,J. Nurkic,D. Lillard,C. McCollum
"Tue, Jan 30, 2018",Los Angeles Clippers,104.0,96.0,28.0,22.0,A. Aminu                    ·                     D. Lillard                    ·                     C. McCollum                    ·                     J. Nurkić                    ·                     E. Turner,A. Aminu,E. Turner,J. Nurkic,D. Lillard,C. McCollum
"Wed, Jan 31, 2018",Chicago Bulls,124.0,108.0,29.0,22.0,A. Aminu                    ·                     D. Lillard                    ·                     C. McCollum                    ·                     J. Nurkić                    ·                     E. Turner,A. Aminu,E. Turner,J. Nurkic,D. Lillard,C. McCollum
"Fri, Feb 2, 2018",Toronto Raptors,105.0,130.0,29.0,23.0,A. Aminu                    ·                     D. Lillard                    ·                     C. McCollum                    ·                     J. Nurkić                    ·                     E. Turner,A. Aminu,E. Turner,J. Nurkic,D. Lillard,C. McCollum
"Sun, Feb 4, 2018",Boston Celtics,96.0,97.0,29.0,24.0,A. Aminu                    ·                     D. Lillard                    ·                     C. McCollum                    ·                     J. Nurkić                    ·                     E. Turner,A. Aminu,E. Turner,J. Nurkic,D. Lillard,C. McCollum
"Mon, Feb 5, 2018",Detroit Pistons,91.0,111.0,29.0,25.0,A. Aminu                    ·                     M. Harkless                    ·                     D. Lillard                    ·                     C. McCollum                    ·                     J. Nurkić,A. Aminu,M. Harkless,J. Nurkic,D. Lillard,C. McCollum
"Thu, Feb 8, 2018",Charlotte Hornets,109.0,103.0,30.0,25.0,A. Aminu                    ·                     M. Harkless                    ·                     D. Lillard                    ·                     C. McCollum                    ·                     J. Nurkić,A. Aminu,M. Harkless,J. Nurkic,D. Lillard,C. McCollum
"Fri, Feb 9, 2018",Sacramento Kings,118.0,100.0,31.0,25.0,A. Aminu                    ·                     M. Harkless                    ·                     D. Lillard                    ·                     C. McCollum                    ·                     J. Nurkić,A. Aminu,M. Harkless,J. Nurkic,D. Lillard,C. McCollum
"Sun, Feb 11, 2018",Utah Jazz,96.0,115.0,31.0,26.0,A. Aminu                    ·                     M. Harkless                    ·                     D. Lillard                    ·                     C. McCollum                    ·                     J. Nurkić,A. Aminu,M. Harkless,J. Nurkic,D. Lillard,C. McCollum
"Wed, Feb 14, 2018",Golden State Warriors,123.0,117.0,32.0,26.0,A. Aminu                    ·                     M. Harkless                    ·                     D. Lillard                    ·                     C. McCollum                    ·                     J. Nurkić,A. Aminu,M. Harkless,J. Nurkic,D. Lillard,C. McCollum
"Fri, Feb 23, 2018",Utah Jazz,100.0,81.0,33.0,26.0,A. Aminu                    ·                     M. Harkless                    ·                     D. Lillard                    ·                     C. McCollum                    ·                     J. Nurkić,A. Aminu,M. Harkless,J. Nurkic,D. Lillard,C. McCollum
"Sat, Feb 24, 2018",Phoenix Suns,106.0,104.0,34.0,26.0,A. Aminu                    ·                     M. Harkless                    ·                     D. Lillard                    ·                     C. McCollum                    ·                     J. Nurkić,A. Aminu,M. Harkless,J. Nurkic,D. Lillard,C. McCollum
"Tue, Feb 27, 2018",Sacramento Kings,116.0,99.0,35.0,26.0,A. Aminu                    ·                     M. Harkless                    ·                     D. Lillard                    ·                     C. McCollum                    ·                     J. Nurkić,A. Aminu,M. Harkless,J. Nurkic,D. Lillard,C. McCollum
"Thu, Mar 1, 2018",Minnesota Timberwolves,108.0,99.0,36.0,26.0,A. Aminu                    ·                     M. Harkless                    ·                     D. Lillard                    ·                     C. McCollum                    ·                     J. Nurkić,A. Aminu,M. Harkless,J. Nurkic,D. Lillard,C. McCollum
"Sat, Mar 3, 2018",Oklahoma City Thunder,108.0,100.0,37.0,26.0,A. Aminu                    ·                     D. Lillard                    ·                     C. McCollum                    ·                     J. Nurkić                    ·                     E. Turner,A. Aminu,E. Turner,J. Nurkic,D. Lillard,C. McCollum
"Mon, Mar 5, 2018",Los Angeles Lakers,108.0,103.0,38.0,26.0,A. Aminu                    ·                     D. Lillard                    ·                     C. McCollum                    ·                     J. Nurkić                    ·                     E. Turner,A. Aminu,E. Turner,J. Nurkic,D. Lillard,C. McCollum
"Tue, Mar 6, 2018",New York Knicks,111.0,87.0,39.0,26.0,A. Aminu                    ·                     D. Lillard                    ·                     C. McCollum                    ·                     J. Nurkić                    ·                     E. Turner,A. Aminu,E. Turner,J. Nurkic,D. Lillard,C. McCollum
"Fri, Mar 9, 2018",Golden State Warriors,125.0,108.0,40.0,26.0,A. Aminu                    ·                     M. Harkless                    ·                     D. Lillard                    ·                     C. McCollum                    ·                     J. Nurkić,A. Aminu,M. Harkless,J. Nurkic,D. Lillard,C. McCollum
"Mon, Mar 12, 2018",Miami Heat,115.0,99.0,41.0,26.0,A. Aminu                    ·                     M. Harkless                    ·                     D. Lillard                    ·                     C. McCollum                    ·                     J. Nurkić,A. Aminu,M. Harkless,J. Nurkic,D. Lillard,C. McCollum
"Thu, Mar 15, 2018",Cleveland Cavaliers,113.0,105.0,42.0,26.0,A. Aminu                    ·                     M. Harkless                    ·                     D. Lillard                    ·                     C. McCollum                    ·                     J. Nurkić,A. Aminu,M. Harkless,J. Nurkic,D. Lillard,C. McCollum
"Sat, Mar 17, 2018",Detroit Pistons,100.0,87.0,43.0,26.0,A. Aminu                    ·                     M. Harkless                    ·                     D. Lillard                    ·                     C. McCollum                    ·                     J. Nurkić,A. Aminu,M. Harkless,J. Nurkic,D. Lillard,C. McCollum
"Sun, Mar 18, 2018",Los Angeles Clippers,122.0,109.0,44.0,26.0,A. Aminu                    ·                     M. Harkless                    ·                     D. Lillard                    ·                     C. McCollum                    ·                     J. Nurkić,A. Aminu,M. Harkless,J. Nurkic,D. Lillard,C. McCollum
"Tue, Mar 20, 2018",Houston Rockets,111.0,115.0,44.0,27.0,A. Aminu                    ·                     M. Harkless                    ·                     D. Lillard                    ·                     C. McCollum                    ·                     J. Nurkić,A. Aminu,M. Harkless,J. Nurkic,D. Lillard,C. McCollum
"Fri, Mar 23, 2018",Boston Celtics,100.0,105.0,44.0,28.0,A. Aminu                    ·                     M. Harkless                    ·                     D. Lillard                    ·                     C. McCollum                    ·                     J. Nurkić,A. Aminu,M. Harkless,J. Nurkic,D. Lillard,C. McCollum
"Sun, Mar 25, 2018",Oklahoma City Thunder,108.0,105.0,45.0,28.0,A. Aminu                    ·                     M. Harkless                    ·                     D. Lillard                    ·                     C. McCollum                    ·                     J. Nurkić,A. Aminu,M. Harkless,J. Nurkic,D. Lillard,C. McCollum
"Tue, Mar 27, 2018",New Orleans Pelicans,107.0,103.0,46.0,28.0,A. Aminu                    ·                     D. Lillard                    ·                     C. McCollum                    ·                     J. Nurkić                    ·                     E. Turner,A. Aminu,E. Turner,J. Nurkic,D. Lillard,C. McCollum
"Wed, Mar 28, 2018",Memphis Grizzlies,103.0,108.0,46.0,29.0,A. Aminu                    ·                     C. McCollum                    ·                     S. Napier                    ·                     J. Nurkić                    ·                     E. Turner,A. Aminu,E. Turner,J. Nurkic,S. Napier,C. McCollum
"Fri, Mar 30, 2018",Los Angeles Clippers,105.0,96.0,47.0,29.0,A. Aminu                    ·                     D. Lillard                    ·                     C. McCollum                    ·                     J. Nurkić                    ·                     E. Turner,A. Aminu,E. Turner,J. Nurkic,D. Lillard,C. McCollum
"Sun, Apr 1, 2018",Memphis Grizzlies,113.0,98.0,48.0,29.0,A. Aminu                    ·                     D. Lillard                    ·                     C. McCollum                    ·                     J. Nurkić                    ·                     E. Turner,A. Aminu,E. Turner,J. Nurkic,D. Lillard,C. McCollum
"Tue, Apr 3, 2018",Dallas Mavericks,109.0,115.0,48.0,30.0,A. Aminu                    ·                     D. Lillard                    ·                     C. McCollum                    ·                     J. Nurkić                    ·                     E. Turner,A. Aminu,E. Turner,J. Nurkic,D. Lillard,C. McCollum
"Thu, Apr 5, 2018",Houston Rockets,94.0,96.0,48.0,31.0,A. Aminu                    ·                     C. McCollum                    ·                     S. Napier                    ·                     J. Nurkić                    ·                     E. Turner,A. Aminu,E. Turner,J. Nurkic,S. Napier,C. McCollum
"Sat, Apr 7, 2018",San Antonio Spurs,105.0,116.0,48.0,32.0,A. Aminu                    ·                     D. Lillard                    ·                     C. McCollum                    ·                     J. Nurkić                    ·                     E. Turner,A. Aminu,E. Turner,J. Nurkic,D. Lillard,C. McCollum
"Mon, Apr 9, 2018",Denver Nuggets,82.0,88.0,48.0,33.0,A. Aminu                    ·                     D. Lillard                    ·                     C. McCollum                    ·                     J. Nurkić                    ·                     E. Turner,A. Aminu,E. Turner,J. Nurkic,D. Lillard,C. McCollum
"Wed, Apr 11, 2018",Utah Jazz,102.0,93.0,49.0,33.0,A. Aminu                    ·                     D. Lillard                    ·                     C. McCollum                    ·                     J. Nurkić                    ·                     E. Turner,A. Aminu,E. Turner,J. Nurkic,D. Lillard,C. McCollum
