Date,Opponent,Tm,Opp,W,L,Starting Lineup,PF,SF,C,PG,SG
"Wed, Oct 23, 2019",New York Knicks,120.0,111.0,1.0,0.0,L. Aldridge                    ·                     D. DeRozan                    ·                     B. Forbes                    ·                     T. Lyles                    ·                     D. Murray,T. Lyles,,L. Aldridge,,B. Forbes
"Sat, Oct 26, 2019",Washington Wizards,124.0,122.0,2.0,0.0,L. Aldridge                    ·                     D. DeRozan                    ·                     B. Forbes                    ·                     T. Lyles                    ·                     D. Murray,T. Lyles,,L. Aldridge,,B. Forbes
"Mon, Oct 28, 2019",Portland Trail Blazers,113.0,110.0,3.0,0.0,L. Aldridge                    ·                     D. DeRozan                    ·                     B. Forbes                    ·                     T. Lyles                    ·                     D. Murray,T. Lyles,,L. Aldridge,,B. Forbes
"Thu, Oct 31, 2019",Los Angeles Clippers,97.0,103.0,3.0,1.0,L. Aldridge                    ·                     D. DeRozan                    ·                     B. Forbes                    ·                     T. Lyles                    ·                     D. Murray,T. Lyles,,L. Aldridge,,B. Forbes
"Fri, Nov 1, 2019",Golden State Warriors,127.0,110.0,4.0,1.0,L. Aldridge                    ·                     D. DeRozan                    ·                     B. Forbes                    ·                     T. Lyles                    ·                     D. White,T. Lyles,,L. Aldridge,D. White,B. Forbes
"Sun, Nov 3, 2019",Los Angeles Lakers,96.0,103.0,4.0,2.0,L. Aldridge                    ·                     D. DeRozan                    ·                     B. Forbes                    ·                     T. Lyles                    ·                     D. Murray,T. Lyles,,L. Aldridge,,B. Forbes
"Tue, Nov 5, 2019",Atlanta Hawks,100.0,108.0,4.0,3.0,L. Aldridge                    ·                     D. DeRozan                    ·                     B. Forbes                    ·                     T. Lyles                    ·                     D. Murray,T. Lyles,,L. Aldridge,,B. Forbes
"Thu, Nov 7, 2019",Oklahoma City Thunder,121.0,112.0,5.0,3.0,L. Aldridge                    ·                     D. DeRozan                    ·                     B. Forbes                    ·                     T. Lyles                    ·                     D. Murray,T. Lyles,,L. Aldridge,,B. Forbes
"Sat, Nov 9, 2019",Boston Celtics,115.0,135.0,5.0,4.0,L. Aldridge                    ·                     D. DeRozan                    ·                     B. Forbes                    ·                     T. Lyles                    ·                     D. Murray,T. Lyles,,L. Aldridge,,B. Forbes
"Mon, Nov 11, 2019",Memphis Grizzlies,109.0,113.0,5.0,5.0,L. Aldridge                    ·                     D. DeRozan                    ·                     B. Forbes                    ·                     T. Lyles                    ·                     D. Murray,T. Lyles,,L. Aldridge,,B. Forbes
"Wed, Nov 13, 2019",Minnesota Timberwolves,114.0,129.0,5.0,6.0,L. Aldridge                    ·                     D. DeRozan                    ·                     B. Forbes                    ·                     T. Lyles                    ·                     D. Murray,T. Lyles,,L. Aldridge,,B. Forbes
"Fri, Nov 15, 2019",Orlando Magic,109.0,111.0,5.0,7.0,L. Aldridge                    ·                     D. DeRozan                    ·                     B. Forbes                    ·                     T. Lyles                    ·                     D. Murray,T. Lyles,,L. Aldridge,,B. Forbes
"Sat, Nov 16, 2019",Portland Trail Blazers,116.0,121.0,5.0,8.0,L. Aldridge                    ·                     D. DeRozan                    ·                     B. Forbes                    ·                     T. Lyles                    ·                     D. White,T. Lyles,,L. Aldridge,D. White,B. Forbes
"Mon, Nov 18, 2019",Dallas Mavericks,110.0,117.0,5.0,9.0,L. Aldridge                    ·                     D. DeRozan                    ·                     B. Forbes                    ·                     T. Lyles                    ·                     D. Murray,T. Lyles,,L. Aldridge,,B. Forbes
"Wed, Nov 20, 2019",Washington Wizards,132.0,138.0,5.0,10.0,L. Aldridge                    ·                     D. DeRozan                    ·                     B. Forbes                    ·                     P. Mills                    ·                     J. Poeltl,,,J. Poeltl,P. Mills,B. Forbes
"Fri, Nov 22, 2019",Philadelphia 76ers,104.0,115.0,5.0,11.0,L. Aldridge                    ·                     D. DeRozan                    ·                     B. Forbes                    ·                     D. Murray                    ·                     J. Poeltl,,,J. Poeltl,,B. Forbes
"Sat, Nov 23, 2019",New York Knicks,111.0,104.0,6.0,11.0,L. Aldridge                    ·                     D. DeRozan                    ·                     B. Forbes                    ·                     J. Poeltl                    ·                     D. White,,,J. Poeltl,D. White,B. Forbes
"Mon, Nov 25, 2019",Los Angeles Lakers,104.0,114.0,6.0,12.0,L. Aldridge                    ·                     D. DeRozan                    ·                     B. Forbes                    ·                     J. Poeltl                    ·                     D. White,,,J. Poeltl,D. White,B. Forbes
"Wed, Nov 27, 2019",Minnesota Timberwolves,101.0,113.0,6.0,13.0,L. Aldridge                    ·                     D. DeRozan                    ·                     B. Forbes                    ·                     J. Poeltl                    ·                     D. White,,,J. Poeltl,D. White,B. Forbes
"Fri, Nov 29, 2019",Los Angeles Clippers,107.0,97.0,7.0,13.0,L. Aldridge                    ·                     D. DeRozan                    ·                     B. Forbes                    ·                     R. Gay                    ·                     D. White,R. Gay,,L. Aldridge,D. White,B. Forbes
"Sun, Dec 1, 2019",Detroit Pistons,98.0,132.0,7.0,14.0,D. DeRozan                    ·                     B. Forbes                    ·                     R. Gay                    ·                     J. Poeltl                    ·                     D. White,R. Gay,,J. Poeltl,D. White,B. Forbes
"Tue, Dec 3, 2019",Houston Rockets,135.0,133.0,8.0,14.0,D. DeRozan                    ·                     B. Forbes                    ·                     R. Gay                    ·                     J. Poeltl                    ·                     D. White,R. Gay,,J. Poeltl,D. White,B. Forbes
"Fri, Dec 6, 2019",Sacramento Kings,105.0,104.0,9.0,14.0,L. Aldridge                    ·                     D. DeRozan                    ·                     B. Forbes                    ·                     R. Gay                    ·                     D. White,R. Gay,,L. Aldridge,D. White,B. Forbes
"Thu, Dec 12, 2019",Cleveland Cavaliers,109.0,117.0,9.0,15.0,L. Aldridge                    ·                     D. DeRozan                    ·                     B. Forbes                    ·                     R. Gay                    ·                     D. White,R. Gay,,L. Aldridge,D. White,B. Forbes
"Sat, Dec 14, 2019",Phoenix Suns,121.0,119.0,10.0,15.0,L. Aldridge                    ·                     D. DeRozan                    ·                     B. Forbes                    ·                     T. Lyles                    ·                     D. Murray,T. Lyles,,L. Aldridge,,B. Forbes
"Mon, Dec 16, 2019",Houston Rockets,107.0,109.0,10.0,16.0,L. Aldridge                    ·                     D. DeRozan                    ·                     B. Forbes                    ·                     T. Lyles                    ·                     D. Murray,T. Lyles,,L. Aldridge,,B. Forbes
"Thu, Dec 19, 2019",Brooklyn Nets,118.0,105.0,11.0,16.0,L. Aldridge                    ·                     D. DeRozan                    ·                     B. Forbes                    ·                     T. Lyles                    ·                     D. Murray,T. Lyles,,L. Aldridge,,B. Forbes
"Sat, Dec 21, 2019",Los Angeles Clippers,109.0,134.0,11.0,17.0,L. Aldridge                    ·                     D. DeRozan                    ·                     B. Forbes                    ·                     T. Lyles                    ·                     D. Murray,T. Lyles,,L. Aldridge,,B. Forbes
"Mon, Dec 23, 2019",Memphis Grizzlies,145.0,115.0,12.0,17.0,L. Aldridge                    ·                     D. DeRozan                    ·                     B. Forbes                    ·                     T. Lyles                    ·                     D. Murray,T. Lyles,,L. Aldridge,,B. Forbes
"Thu, Dec 26, 2019",Dallas Mavericks,98.0,102.0,12.0,18.0,L. Aldridge                    ·                     D. DeRozan                    ·                     B. Forbes                    ·                     T. Lyles                    ·                     D. Murray,T. Lyles,,L. Aldridge,,B. Forbes
"Sat, Dec 28, 2019",Detroit Pistons,136.0,109.0,13.0,18.0,L. Aldridge                    ·                     D. DeRozan                    ·                     B. Forbes                    ·                     T. Lyles                    ·                     D. Murray,T. Lyles,,L. Aldridge,,B. Forbes
"Tue, Dec 31, 2019",Golden State Warriors,117.0,113.0,14.0,18.0,L. Aldridge                    ·                     D. DeRozan                    ·                     B. Forbes                    ·                     T. Lyles                    ·                     D. Murray,T. Lyles,,L. Aldridge,,B. Forbes
"Thu, Jan 2, 2020",Oklahoma City Thunder,103.0,109.0,14.0,19.0,L. Aldridge                    ·                     D. DeRozan                    ·                     B. Forbes                    ·                     T. Lyles                    ·                     D. Murray,T. Lyles,,L. Aldridge,,B. Forbes
"Sat, Jan 4, 2020",Milwaukee Bucks,118.0,127.0,14.0,20.0,L. Aldridge                    ·                     D. DeRozan                    ·                     T. Lyles                    ·                     L. Walker                    ·                     D. White,T. Lyles,,L. Aldridge,D. White,L. Walker
"Mon, Jan 6, 2020",Milwaukee Bucks,126.0,104.0,15.0,20.0,L. Aldridge                    ·                     D. DeRozan                    ·                     B. Forbes                    ·                     T. Lyles                    ·                     D. Murray,T. Lyles,,L. Aldridge,,B. Forbes
"Wed, Jan 8, 2020",Boston Celtics,129.0,114.0,16.0,20.0,L. Aldridge                    ·                     D. DeRozan                    ·                     B. Forbes                    ·                     T. Lyles                    ·                     D. Murray,T. Lyles,,L. Aldridge,,B. Forbes
"Fri, Jan 10, 2020",Memphis Grizzlies,121.0,134.0,16.0,21.0,L. Aldridge                    ·                     D. DeRozan                    ·                     B. Forbes                    ·                     T. Lyles                    ·                     D. Murray,T. Lyles,,L. Aldridge,,B. Forbes
"Sun, Jan 12, 2020",Toronto Raptors,105.0,104.0,17.0,21.0,L. Aldridge                    ·                     D. DeRozan                    ·                     B. Forbes                    ·                     T. Lyles                    ·                     D. Murray,T. Lyles,,L. Aldridge,,B. Forbes
"Wed, Jan 15, 2020",Miami Heat,100.0,106.0,17.0,22.0,L. Aldridge                    ·                     D. DeRozan                    ·                     B. Forbes                    ·                     T. Lyles                    ·                     D. Murray,T. Lyles,,L. Aldridge,,B. Forbes
"Fri, Jan 17, 2020",Atlanta Hawks,120.0,121.0,17.0,23.0,L. Aldridge                    ·                     D. DeRozan                    ·                     B. Forbes                    ·                     T. Lyles                    ·                     D. Murray,T. Lyles,,L. Aldridge,,B. Forbes
"Sun, Jan 19, 2020",Miami Heat,107.0,102.0,18.0,23.0,L. Aldridge                    ·                     D. DeRozan                    ·                     B. Forbes                    ·                     T. Lyles                    ·                     D. Murray,T. Lyles,,L. Aldridge,,B. Forbes
"Mon, Jan 20, 2020",Phoenix Suns,120.0,118.0,19.0,23.0,L. Aldridge                    ·                     D. DeRozan                    ·                     B. Forbes                    ·                     T. Lyles                    ·                     D. Murray,T. Lyles,,L. Aldridge,,B. Forbes
"Wed, Jan 22, 2020",New Orleans Pelicans,121.0,117.0,20.0,23.0,L. Aldridge                    ·                     D. DeRozan                    ·                     B. Forbes                    ·                     T. Lyles                    ·                     D. Murray,T. Lyles,,L. Aldridge,,B. Forbes
"Fri, Jan 24, 2020",Phoenix Suns,99.0,103.0,20.0,24.0,L. Aldridge                    ·                     D. DeRozan                    ·                     B. Forbes                    ·                     T. Lyles                    ·                     D. Murray,T. Lyles,,L. Aldridge,,B. Forbes
"Sun, Jan 26, 2020",Toronto Raptors,106.0,110.0,20.0,25.0,L. Aldridge                    ·                     D. DeRozan                    ·                     B. Forbes                    ·                     T. Lyles                    ·                     D. Murray,T. Lyles,,L. Aldridge,,B. Forbes
"Mon, Jan 27, 2020",Chicago Bulls,109.0,110.0,20.0,26.0,D. DeRozan                    ·                     B. Forbes                    ·                     T. Lyles                    ·                     D. Murray                    ·                     J. Poeltl,T. Lyles,,J. Poeltl,,B. Forbes
"Wed, Jan 29, 2020",Utah Jazz,127.0,120.0,21.0,26.0,D. DeRozan                    ·                     B. Forbes                    ·                     T. Lyles                    ·                     D. Murray                    ·                     J. Poeltl,T. Lyles,,J. Poeltl,,B. Forbes
"Sat, Feb 1, 2020",Charlotte Hornets,114.0,90.0,22.0,26.0,L. Aldridge                    ·                     D. DeRozan                    ·                     B. Forbes                    ·                     T. Lyles                    ·                     D. Murray,T. Lyles,,L. Aldridge,,B. Forbes
"Mon, Feb 3, 2020",Los Angeles Clippers,105.0,108.0,22.0,27.0,L. Aldridge                    ·                     D. DeRozan                    ·                     B. Forbes                    ·                     T. Lyles                    ·                     D. Murray,T. Lyles,,L. Aldridge,,B. Forbes
"Tue, Feb 4, 2020",Los Angeles Lakers,102.0,129.0,22.0,28.0,L. Aldridge                    ·                     D. DeRozan                    ·                     B. Forbes                    ·                     T. Lyles                    ·                     D. Murray,T. Lyles,,L. Aldridge,,B. Forbes
"Thu, Feb 6, 2020",Portland Trail Blazers,117.0,125.0,22.0,29.0,L. Aldridge                    ·                     D. DeRozan                    ·                     B. Forbes                    ·                     T. Lyles                    ·                     D. Murray,T. Lyles,,L. Aldridge,,B. Forbes
"Sat, Feb 8, 2020",Sacramento Kings,102.0,122.0,22.0,30.0,L. Aldridge                    ·                     D. DeRozan                    ·                     B. Forbes                    ·                     T. Lyles                    ·                     D. Murray,T. Lyles,,L. Aldridge,,B. Forbes
"Mon, Feb 10, 2020",Denver Nuggets,120.0,127.0,22.0,31.0,L. Aldridge                    ·                     B. Forbes                    ·                     T. Lyles                    ·                     D. Murray                    ·                     L. Walker,T. Lyles,,L. Aldridge,,L. Walker
"Tue, Feb 11, 2020",Oklahoma City Thunder,114.0,106.0,23.0,31.0,L. Aldridge                    ·                     B. Forbes                    ·                     T. Lyles                    ·                     D. Murray                    ·                     L. Walker,T. Lyles,,L. Aldridge,,L. Walker
"Fri, Feb 21, 2020",Utah Jazz,113.0,104.0,24.0,31.0,L. Aldridge                    ·                     D. DeRozan                    ·                     B. Forbes                    ·                     T. Lyles                    ·                     D. Murray,T. Lyles,,L. Aldridge,,B. Forbes
"Sun, Feb 23, 2020",Oklahoma City Thunder,103.0,131.0,24.0,32.0,L. Aldridge                    ·                     D. DeRozan                    ·                     B. Forbes                    ·                     T. Lyles                    ·                     D. Murray,T. Lyles,,L. Aldridge,,B. Forbes
"Wed, Feb 26, 2020",Dallas Mavericks,103.0,109.0,24.0,33.0,D. DeRozan                    ·                     B. Forbes                    ·                     T. Lyles                    ·                     D. Murray                    ·                     L. Walker,T. Lyles,,,,L. Walker
"Sat, Feb 29, 2020",Orlando Magic,114.0,113.0,25.0,33.0,D. DeRozan                    ·                     B. Forbes                    ·                     T. Lyles                    ·                     D. Murray                    ·                     J. Poeltl,T. Lyles,,J. Poeltl,,B. Forbes
"Mon, Mar 2, 2020",Indiana Pacers,111.0,116.0,25.0,34.0,D. DeRozan                    ·                     D. Eubanks                    ·                     B. Forbes                    ·                     T. Lyles                    ·                     D. Murray,T. Lyles,,,,B. Forbes
"Tue, Mar 3, 2020",Charlotte Hornets,104.0,103.0,26.0,34.0,D. DeRozan                    ·                     D. Eubanks                    ·                     B. Forbes                    ·                     T. Lyles                    ·                     D. Murray,T. Lyles,,,,B. Forbes
"Fri, Mar 6, 2020",Brooklyn Nets,120.0,139.0,26.0,35.0,D. DeRozan                    ·                     B. Forbes                    ·                     T. Lyles                    ·                     D. Murray                    ·                     D. White,T. Lyles,,,D. White,B. Forbes
"Sun, Mar 8, 2020",Cleveland Cavaliers,129.0,132.0,26.0,36.0,D. DeRozan                    ·                     D. Eubanks                    ·                     B. Forbes                    ·                     T. Lyles                    ·                     D. Murray,T. Lyles,,,,B. Forbes
"Tue, Mar 10, 2020",Dallas Mavericks,119.0,109.0,27.0,36.0,L. Aldridge                    ·                     D. DeRozan                    ·                     B. Forbes                    ·                     T. Lyles                    ·                     D. White,T. Lyles,,L. Aldridge,D. White,B. Forbes
"Fri, Jul 31, 2020",Sacramento Kings,129.0,120.0,28.0,36.0,D. DeRozan                    ·                     D. Murray                    ·                     J. Poeltl                    ·                     L. Walker                    ·                     D. White,,,J. Poeltl,D. White,L. Walker
"Sun, Aug 2, 2020",Memphis Grizzlies,108.0,106.0,29.0,36.0,D. DeRozan                    ·                     D. Murray                    ·                     J. Poeltl                    ·                     L. Walker                    ·                     D. White,,,J. Poeltl,D. White,L. Walker
"Mon, Aug 3, 2020",Philadelphia 76ers,130.0,132.0,29.0,37.0,D. DeRozan                    ·                     D. Murray                    ·                     J. Poeltl                    ·                     L. Walker                    ·                     D. White,,,J. Poeltl,D. White,L. Walker
"Wed, Aug 5, 2020",Denver Nuggets,126.0,132.0,29.0,38.0,D. DeRozan                    ·                     D. Murray                    ·                     J. Poeltl                    ·                     L. Walker                    ·                     D. White,,,J. Poeltl,D. White,L. Walker
"Fri, Aug 7, 2020",Utah Jazz,119.0,111.0,30.0,38.0,D. DeRozan                    ·                     D. Murray                    ·                     J. Poeltl                    ·                     L. Walker                    ·                     D. White,,,J. Poeltl,D. White,L. Walker
"Sun, Aug 9, 2020",New Orleans Pelicans,122.0,113.0,31.0,38.0,D. DeRozan                    ·                     D. Murray                    ·                     J. Poeltl                    ·                     L. Walker                    ·                     D. White,,,J. Poeltl,D. White,L. Walker
"Tue, Aug 11, 2020",Houston Rockets,123.0,105.0,32.0,38.0,D. DeRozan                    ·                     D. Murray                    ·                     J. Poeltl                    ·                     L. Walker                    ·                     D. White,,,J. Poeltl,D. White,L. Walker
"Thu, Aug 13, 2020",Utah Jazz,112.0,118.0,32.0,39.0,K. Johnson                    ·                     D. Murray                    ·                     J. Poeltl                    ·                     L. Šamanić                    ·                     L. Walker,,,J. Poeltl,,L. Walker
