Date,Opponent,Tm,Opp,W,L,Starting Lineup,PF,SF,C,PG,SG
"Wed, Dec 23, 2020",New Orleans Pelicans,99.0,113.0,0.0,1.0,O. Anunoby                    ·                     A. Baynes                    ·                     K. Lowry                    ·                     P. Siakam                    ·                     F. VanVleet,P. Siakam,O. Anunoby,A. Baynes,K. Lowry,F. VanVleet
"Sat, Dec 26, 2020",San Antonio Spurs,114.0,119.0,0.0,2.0,O. Anunoby                    ·                     A. Baynes                    ·                     K. Lowry                    ·                     P. Siakam                    ·                     F. VanVleet,P. Siakam,O. Anunoby,A. Baynes,K. Lowry,F. VanVleet
"Tue, Dec 29, 2020",Philadelphia 76ers,93.0,100.0,0.0,3.0,O. Anunoby                    ·                     A. Baynes                    ·                     K. Lowry                    ·                     P. Siakam                    ·                     F. VanVleet,P. Siakam,O. Anunoby,A. Baynes,K. Lowry,F. VanVleet
"Thu, Dec 31, 2020",New York Knicks,100.0,83.0,1.0,3.0,O. Anunoby                    ·                     A. Baynes                    ·                     K. Lowry                    ·                     N. Powell                    ·                     F. VanVleet,,O. Anunoby,A. Baynes,K. Lowry,F. VanVleet
"Sat, Jan 2, 2021",New Orleans Pelicans,116.0,120.0,1.0,4.0,O. Anunoby                    ·                     A. Baynes                    ·                     K. Lowry                    ·                     P. Siakam                    ·                     F. VanVleet,P. Siakam,O. Anunoby,A. Baynes,K. Lowry,F. VanVleet
"Mon, Jan 4, 2021",Boston Celtics,114.0,126.0,1.0,5.0,O. Anunoby                    ·                     A. Baynes                    ·                     K. Lowry                    ·                     P. Siakam                    ·                     F. VanVleet,P. Siakam,O. Anunoby,A. Baynes,K. Lowry,F. VanVleet
"Wed, Jan 6, 2021",Phoenix Suns,115.0,123.0,1.0,6.0,O. Anunoby                    ·                     A. Baynes                    ·                     K. Lowry                    ·                     P. Siakam                    ·                     F. VanVleet,P. Siakam,O. Anunoby,A. Baynes,K. Lowry,F. VanVleet
"Fri, Jan 8, 2021",Sacramento Kings,144.0,123.0,2.0,6.0,O. Anunoby                    ·                     A. Len                    ·                     N. Powell                    ·                     P. Siakam                    ·                     F. VanVleet,P. Siakam,O. Anunoby,A. Len,,F. VanVleet
"Sun, Jan 10, 2021",Golden State Warriors,105.0,106.0,2.0,7.0,O. Anunoby                    ·                     K. Lowry                    ·                     N. Powell                    ·                     P. Siakam                    ·                     F. VanVleet,P. Siakam,O. Anunoby,,K. Lowry,F. VanVleet
"Mon, Jan 11, 2021",Portland Trail Blazers,111.0,112.0,2.0,8.0,O. Anunoby                    ·                     A. Len                    ·                     K. Lowry                    ·                     P. Siakam                    ·                     F. VanVleet,P. Siakam,O. Anunoby,A. Len,K. Lowry,F. VanVleet
"Thu, Jan 14, 2021",Charlotte Hornets,111.0,108.0,3.0,8.0,O. Anunoby                    ·                     A. Baynes                    ·                     K. Lowry                    ·                     P. Siakam                    ·                     F. VanVleet,P. Siakam,O. Anunoby,A. Baynes,K. Lowry,F. VanVleet
"Sat, Jan 16, 2021",Charlotte Hornets,116.0,113.0,4.0,8.0,O. Anunoby                    ·                     A. Baynes                    ·                     K. Lowry                    ·                     P. Siakam                    ·                     F. VanVleet,P. Siakam,O. Anunoby,A. Baynes,K. Lowry,F. VanVleet
"Mon, Jan 18, 2021",Dallas Mavericks,116.0,93.0,5.0,8.0,O. Anunoby                    ·                     A. Baynes                    ·                     K. Lowry                    ·                     P. Siakam                    ·                     F. VanVleet,P. Siakam,O. Anunoby,A. Baynes,K. Lowry,F. VanVleet
"Wed, Jan 20, 2021",Miami Heat,102.0,111.0,5.0,9.0,O. Anunoby                    ·                     A. Baynes                    ·                     K. Lowry                    ·                     P. Siakam                    ·                     F. VanVleet,P. Siakam,O. Anunoby,A. Baynes,K. Lowry,F. VanVleet
"Fri, Jan 22, 2021",Miami Heat,101.0,81.0,6.0,9.0,O. Anunoby                    ·                     A. Baynes                    ·                     N. Powell                    ·                     P. Siakam                    ·                     F. VanVleet,P. Siakam,O. Anunoby,A. Baynes,,F. VanVleet
"Sun, Jan 24, 2021",Indiana Pacers,107.0,102.0,7.0,9.0,O. Anunoby                    ·                     A. Baynes                    ·                     S. Johnson                    ·                     N. Powell                    ·                     F. VanVleet,S. Johnson,O. Anunoby,A. Baynes,,F. VanVleet
"Mon, Jan 25, 2021",Indiana Pacers,114.0,129.0,7.0,10.0,O. Anunoby                    ·                     A. Baynes                    ·                     K. Lowry                    ·                     N. Powell                    ·                     F. VanVleet,,O. Anunoby,A. Baynes,K. Lowry,F. VanVleet
"Wed, Jan 27, 2021",Milwaukee Bucks,108.0,115.0,7.0,11.0,A. Baynes                    ·                     K. Lowry                    ·                     N. Powell                    ·                     P. Siakam                    ·                     F. VanVleet,P. Siakam,,A. Baynes,K. Lowry,F. VanVleet
"Fri, Jan 29, 2021",Sacramento Kings,124.0,126.0,7.0,12.0,A. Baynes                    ·                     T. Davis                    ·                     K. Lowry                    ·                     P. Siakam                    ·                     F. VanVleet,P. Siakam,,A. Baynes,K. Lowry,F. VanVleet
"Sun, Jan 31, 2021",Orlando Magic,115.0,102.0,8.0,12.0,A. Baynes                    ·                     T. Davis                    ·                     K. Lowry                    ·                     P. Siakam                    ·                     F. VanVleet,P. Siakam,,A. Baynes,K. Lowry,F. VanVleet
"Tue, Feb 2, 2021",Orlando Magic,123.0,108.0,9.0,12.0,A. Baynes                    ·                     K. Lowry                    ·                     N. Powell                    ·                     P. Siakam                    ·                     F. VanVleet,P. Siakam,,A. Baynes,K. Lowry,F. VanVleet
"Fri, Feb 5, 2021",Brooklyn Nets,123.0,117.0,10.0,12.0,A. Baynes                    ·                     K. Lowry                    ·                     N. Powell                    ·                     P. Siakam                    ·                     F. VanVleet,P. Siakam,,A. Baynes,K. Lowry,F. VanVleet
"Sat, Feb 6, 2021",Atlanta Hawks,121.0,132.0,10.0,13.0,A. Baynes                    ·                     K. Lowry                    ·                     N. Powell                    ·                     P. Siakam                    ·                     F. VanVleet,P. Siakam,,A. Baynes,K. Lowry,F. VanVleet
"Mon, Feb 8, 2021",Memphis Grizzlies,128.0,113.0,11.0,13.0,A. Baynes                    ·                     K. Lowry                    ·                     N. Powell                    ·                     P. Siakam                    ·                     F. VanVleet,P. Siakam,,A. Baynes,K. Lowry,F. VanVleet
"Wed, Feb 10, 2021",Washington Wizards,137.0,115.0,12.0,13.0,A. Baynes                    ·                     K. Lowry                    ·                     N. Powell                    ·                     P. Siakam                    ·                     F. VanVleet,P. Siakam,,A. Baynes,K. Lowry,F. VanVleet
"Thu, Feb 11, 2021",Boston Celtics,106.0,120.0,12.0,14.0,A. Baynes                    ·                     K. Lowry                    ·                     N. Powell                    ·                     P. Siakam                    ·                     F. VanVleet,P. Siakam,,A. Baynes,K. Lowry,F. VanVleet
"Sun, Feb 14, 2021",Minnesota Timberwolves,112.0,116.0,12.0,15.0,A. Baynes                    ·                     K. Lowry                    ·                     N. Powell                    ·                     P. Siakam                    ·                     F. VanVleet,P. Siakam,,A. Baynes,K. Lowry,F. VanVleet
"Tue, Feb 16, 2021",Milwaukee Bucks,124.0,113.0,13.0,15.0,O. Anunoby                    ·                     K. Lowry                    ·                     N. Powell                    ·                     P. Siakam                    ·                     F. VanVleet,P. Siakam,O. Anunoby,,K. Lowry,F. VanVleet
"Thu, Feb 18, 2021",Milwaukee Bucks,110.0,96.0,14.0,15.0,O. Anunoby                    ·                     D. Bembry                    ·                     N. Powell                    ·                     P. Siakam                    ·                     F. VanVleet,P. Siakam,O. Anunoby,,,F. VanVleet
"Fri, Feb 19, 2021",Minnesota Timberwolves,86.0,81.0,15.0,15.0,D. Bembry                    ·                     C. Boucher                    ·                     N. Powell                    ·                     P. Siakam                    ·                     F. VanVleet,P. Siakam,,C. Boucher,,F. VanVleet
"Sun, Feb 21, 2021",Philadelphia 76ers,110.0,103.0,16.0,15.0,O. Anunoby                    ·                     D. Bembry                    ·                     N. Powell                    ·                     P. Siakam                    ·                     F. VanVleet,P. Siakam,O. Anunoby,,,F. VanVleet
"Tue, Feb 23, 2021",Philadelphia 76ers,102.0,109.0,16.0,16.0,O. Anunoby                    ·                     D. Bembry                    ·                     N. Powell                    ·                     P. Siakam                    ·                     F. VanVleet,P. Siakam,O. Anunoby,,,F. VanVleet
"Wed, Feb 24, 2021",Miami Heat,108.0,116.0,16.0,17.0,O. Anunoby                    ·                     K. Lowry                    ·                     N. Powell                    ·                     P. Siakam                    ·                     F. VanVleet,P. Siakam,O. Anunoby,,K. Lowry,F. VanVleet
"Fri, Feb 26, 2021",Houston Rockets,122.0,111.0,17.0,17.0,O. Anunoby                    ·                     C. Boucher                    ·                     K. Lowry                    ·                     N. Powell                    ·                     F. VanVleet,,O. Anunoby,C. Boucher,K. Lowry,F. VanVleet
"Wed, Mar 3, 2021",Detroit Pistons,105.0,129.0,17.0,18.0,A. Baynes                    ·                     T. Davis                    ·                     K. Lowry                    ·                     N. Powell                    ·                     Y. Watanabe,,Y. Watanabe,A. Baynes,K. Lowry,N. Powell
"Thu, Mar 4, 2021",Boston Celtics,125.0,132.0,17.0,19.0,A. Baynes                    ·                     D. Bembry                    ·                     S. Johnson                    ·                     K. Lowry                    ·                     N. Powell,S. Johnson,,A. Baynes,K. Lowry,N. Powell
"Thu, Mar 11, 2021",Atlanta Hawks,120.0,121.0,17.0,20.0,A. Baynes                    ·                     D. Bembry                    ·                     S. Johnson                    ·                     K. Lowry                    ·                     N. Powell,S. Johnson,,A. Baynes,K. Lowry,N. Powell
"Sat, Mar 13, 2021",Charlotte Hornets,104.0,114.0,17.0,21.0,A. Baynes                    ·                     D. Bembry                    ·                     S. Johnson                    ·                     K. Lowry                    ·                     N. Powell,S. Johnson,,A. Baynes,K. Lowry,N. Powell
"Sun, Mar 14, 2021",Chicago Bulls,95.0,118.0,17.0,22.0,A. Baynes                    ·                     T. Davis                    ·                     S. Johnson                    ·                     K. Lowry                    ·                     N. Powell,S. Johnson,,A. Baynes,K. Lowry,N. Powell
"Wed, Mar 17, 2021",Detroit Pistons,112.0,116.0,17.0,23.0,C. Boucher                    ·                     K. Lowry                    ·                     N. Powell                    ·                     P. Siakam                    ·                     F. VanVleet,P. Siakam,,C. Boucher,K. Lowry,F. VanVleet
"Fri, Mar 19, 2021",Utah Jazz,112.0,115.0,17.0,24.0,O. Anunoby                    ·                     K. Lowry                    ·                     N. Powell                    ·                     P. Siakam                    ·                     F. VanVleet,P. Siakam,O. Anunoby,,K. Lowry,F. VanVleet
"Sun, Mar 21, 2021",Cleveland Cavaliers,105.0,116.0,17.0,25.0,O. Anunoby                    ·                     K. Lowry                    ·                     N. Powell                    ·                     P. Siakam                    ·                     F. VanVleet,P. Siakam,O. Anunoby,,K. Lowry,F. VanVleet
"Mon, Mar 22, 2021",Houston Rockets,99.0,117.0,17.0,26.0,S. Johnson                    ·                     K. Lowry                    ·                     N. Powell                    ·                     P. Siakam                    ·                     F. VanVleet,P. Siakam,,,K. Lowry,F. VanVleet
"Wed, Mar 24, 2021",Denver Nuggets,135.0,111.0,18.0,26.0,O. Anunoby                    ·                     K. Lowry                    ·                     N. Powell                    ·                     P. Siakam                    ·                     F. VanVleet,P. Siakam,O. Anunoby,,K. Lowry,F. VanVleet
"Fri, Mar 26, 2021",Phoenix Suns,100.0,104.0,18.0,27.0,O. Anunoby                    ·                     K. Lowry                    ·                     P. Siakam                    ·                     G. Trent                    ·                     F. VanVleet,P. Siakam,G. Trent,,K. Lowry,F. VanVleet
"Sun, Mar 28, 2021",Portland Trail Blazers,117.0,122.0,18.0,28.0,O. Anunoby                    ·                     A. Baynes                    ·                     P. Siakam                    ·                     G. Trent                    ·                     F. VanVleet,P. Siakam,G. Trent,A. Baynes,,F. VanVleet
"Mon, Mar 29, 2021",Detroit Pistons,104.0,118.0,18.0,29.0,O. Anunoby                    ·                     K. Lowry                    ·                     P. Siakam                    ·                     G. Trent                    ·                     F. VanVleet,P. Siakam,G. Trent,,K. Lowry,F. VanVleet
"Wed, Mar 31, 2021",Oklahoma City Thunder,103.0,113.0,18.0,30.0,O. Anunoby                    ·                     A. Baynes                    ·                     P. Siakam                    ·                     G. Trent                    ·                     F. VanVleet,P. Siakam,G. Trent,A. Baynes,,F. VanVleet
"Fri, Apr 2, 2021",Golden State Warriors,130.0,77.0,19.0,30.0,O. Anunoby                    ·                     C. Boucher                    ·                     P. Siakam                    ·                     G. Trent                    ·                     F. VanVleet,P. Siakam,G. Trent,C. Boucher,,F. VanVleet
"Mon, Apr 5, 2021",Washington Wizards,103.0,101.0,20.0,30.0,O. Anunoby                    ·                     D. Bembry                    ·                     C. Boucher                    ·                     P. Siakam                    ·                     G. Trent,P. Siakam,G. Trent,C. Boucher,,D. Bembry
"Tue, Apr 6, 2021",Los Angeles Lakers,101.0,110.0,20.0,31.0,O. Anunoby                    ·                     D. Bembry                    ·                     C. Boucher                    ·                     P. Siakam                    ·                     G. Trent,P. Siakam,G. Trent,C. Boucher,,D. Bembry
"Thu, Apr 8, 2021",Chicago Bulls,113.0,122.0,20.0,32.0,O. Anunoby                    ·                     C. Boucher                    ·                     M. Flynn                    ·                     P. Siakam                    ·                     G. Trent,P. Siakam,G. Trent,C. Boucher,,
"Sat, Apr 10, 2021",Cleveland Cavaliers,135.0,115.0,21.0,32.0,O. Anunoby                    ·                     D. Bembry                    ·                     C. Boucher                    ·                     M. Flynn                    ·                     G. Trent,,G. Trent,C. Boucher,,D. Bembry
"Sun, Apr 11, 2021",New York Knicks,96.0,102.0,21.0,33.0,D. Bembry                    ·                     C. Boucher                    ·                     K. Lowry                    ·                     P. Siakam                    ·                     G. Trent,P. Siakam,G. Trent,C. Boucher,K. Lowry,D. Bembry
"Tue, Apr 13, 2021",Atlanta Hawks,103.0,108.0,21.0,34.0,O. Anunoby                    ·                     C. Boucher                    ·                     M. Flynn                    ·                     P. Siakam                    ·                     G. Trent,P. Siakam,G. Trent,C. Boucher,,
"Wed, Apr 14, 2021",San Antonio Spurs,117.0,112.0,22.0,34.0,O. Anunoby                    ·                     K. Birch                    ·                     C. Boucher                    ·                     M. Flynn                    ·                     P. Siakam,P. Siakam,O. Anunoby,C. Boucher,,
"Fri, Apr 16, 2021",Orlando Magic,113.0,102.0,23.0,34.0,K. Birch                    ·                     C. Boucher                    ·                     M. Flynn                    ·                     F. VanVleet                    ·                     P. Watson,,P. Watson,C. Boucher,,F. VanVleet
"Sun, Apr 18, 2021",Oklahoma City Thunder,112.0,106.0,24.0,34.0,K. Birch                    ·                     C. Boucher                    ·                     M. Flynn                    ·                     G. Trent                    ·                     P. Watson,,P. Watson,C. Boucher,,
